=====================================================
Calibration: card TYPE Wheel A
=====================================================
Calibration File Name: C:\LVPP_TESTS\data\card_159\LVPP_CALIB_159.csv

Calibration started: 01.06.2007 17:01:24
ELMB serial number: F611
Calibration file stored
Calibration started: 01.06.2007 17:02:51

