=====================================================
Calibration: card TYPE Wheel A
=====================================================
Calibration File Name: C:\LVPP_TESTS\data\card_207\LVPP_CALIB_207.csv

Calibration started: 15.09.2009 16:31:23
ELMB serial number: E779
Calibration file stored
Calibration started: 15.09.2009 16:32:50

