Calibration done: 15.07.2008 16:25:45
E659
Current channel, calibration factor
0  , 0.000016 ,  0.006100
1  , 0.000014 ,  0.003000
2  , -0.000038 ,  -0.015200
3  , -0.000025 ,  -0.009100
4  , -0.000008 ,  -0.003000
5  , -0.000008 ,  -0.003000
6  , 0.000009 ,  0.003000
7  , -0.000038 ,  -0.015200
8  , -0.000022 ,  -0.009100
9  , -0.000028 ,  -0.009100
10  , 0.000027 ,  0.009100
11  , 0.000007 ,  0.003000
12  , 0.000022 ,  -0.009100
13  , 0.000087 ,  -0.030500
14  , -0.000064 ,  0.021300
15  , -0.000022 ,  0.009100
16  , -0.000061 ,  0.021300
17  , 0.000000 ,  0.000000
18  , -0.000029 ,  0.012200
19  , 0.000010 ,  -0.003000
20  , -0.000013 ,  0.006100
21  , 0.000000 ,  -0.003000
22  , -0.000043 ,  0.015200
23  , -0.000044 ,  0.015200
24  , -0.000024 ,  -0.009100
25  , 0.000003 ,  0.000000
26  , -0.000012 ,  -0.003000
27  , -0.000031 ,  -0.009100
28  , 0.000020 ,  0.006100
29  , 0.000016 ,  0.003000
30  , -0.000021 ,  -0.006100
31  , 0.000024 ,  0.006100
32  , 0.000023 ,  0.009100
33  , 0.000017 ,  0.006100
34  , 0.000016 ,  0.006100
35  , 0.000049 ,  0.018300
