Calibration done: 27.03.2007 17:18:19,,
F493,,
Current channel, calibration factor,
0,0.00081,0.3051
1,-0.000063,-0.0244
2,-0.000031,-0.0122
3,0.000226,0.0854
4,-0.000558,-0.2105
5,0.000339,0.1281
6,0.000401,0.1495
7,-0.000663,-0.2471
8,-0.001263,-0.476
9,0.00014,0.0549
10,0.000447,0.1678
11,0.000245,0.0915
12,0.000142,-0.0518
13,0.00032,-0.1129
14,-0.000254,0.0915
15,0.000367,-0.1312
16,-0.000466,0.1647
17,0.000271,-0.0976
18,-0.000203,0.0732
19,-0.000857,0.3082
20,0.000314,-0.1098
21,0.001201,-0.4272
22,0.000187,-0.0701
23,-0.001042,0.3814
24,-0.000058,-0.0183
25,0.000528,0.1709
26,-0.000852,-0.2746
27,0.001057,0.3387
28,0.000064,0.0213
29,0.000041,0.0122
30,-0.000118,-0.0366
31,0.000133,0.0427
32,0.000067,0.0213
33,0.000469,0.1525
34,-0.000521,-0.1678
35,-0.000597,-0.1922
