=====================================================
Calibration: card TYPE Wheel A
=====================================================
Calibration File Name: C:\LVPP_TESTS\data\card_324\LVPP_CALIB_324.csv

Calibration started: 16.07.2008 09:49:09
ELMB serial number: E659
Calibration file stored
Calibration started: 16.07.2008 09:50:36

