============================================
Check basic functions of a card TYPE A
============================================
Card Serial Number: 69
CALIBRATION FILE: C:\LVPP_TESTS\data\card_069\LVPP_CALIB_069.csv
Load: 5 ohms, valid current range: <0.520 A - 0.820 A> 
                temperature range: <15.10 C - 60.00 C> 

TEST is started: 18.01.2011 22:27:34

ELMB <1> init OK
ELMB NB: 1 Initializing of DTMROCS: 1 2 3 4 5 6 9 10 11 12 13 14 
Single Write/Read DACs 01 23 in all DTMROCS

Write to all DACs  - broadcast
Check set INHIBITS
Set all regulators ON one by one
Set all regulators OFF one by one
Set all regulators ON - BROADCAST
Set all regulators OFF - BROADCAST

Check ANALOG readout

Hard reset: all regulators are off, all DACs are set to 0xFF.

Current channels
  RANGE: 0.65  -  0.85
******** 0. 0.005790    1. 0.002928  || 0.008717 
******** 2. 0.005967    3. 0.002835  || 0.008802 
******** 4. 0.000175    5. 0.000137  || 0.000312 
******** 6. 0.000106    7. 0.000667  || 0.000773 
******** 8. 0.000091    9. 0.002448  || 0.002539 
******** 10. 0.000535    11. 0.000381  || 0.000917 
  RANGE: 0.65  -  0.85
******** 12. 0.003295    13. 0.002853  || 0.006148 
******** 14. 0.002107    15. 0.000666  || 0.002773 
******** 16. 0.008166    17. 0.003615  || 0.011781 
******** 18. 0.000570    19. 0.002775  || 0.003345 
******** 20. 0.000000    21. 0.006130  || 0.006130 
******** 22. 0.000172    23. 0.000012  || 0.000185 
  RANGE: 0.55  -  0.75
******** 24. 0.000042    25. 0.000089  || 0.000130 
******** 26. 0.000035    27. 0.000103  || 0.000137 
******** 28. 0.002965    29. 0.002974  || 0.005940 
******** 30. 0.003210    31. 0.000045  || 0.003256 
******** 32. 0.000108    33. 0.002708  || 0.002815 
******** 34. 0.003031    35. 0.002960  || 0.005991 

Voltage channels:
  RANGE: 3.65  -  3.85
ELMB Channel 36:   0.005 V   [V AN_POS dtmroc 1]
ELMB Channel 37:   0.006 V   [V AN_POS dtmroc 2]
ELMB Channel 38:   0.005 V   [V AN_POS dtmroc 3]
ELMB Channel 39:   0.005 V   [V AN_POS dtmroc 4]
ELMB Channel 40:   0.005 V   [V AN_POS dtmroc 5]
ELMB Channel 41:   0.005 V   [V AN_POS dtmroc 5]
ELMB Channel 42:   0.005 V   [V AN_POS dtmroc 6]
ELMB Channel 43:   0.005 V   [V AN_POS dtmroc 6]
  RANGE: 3.50  -  3.70
ELMB Channel 44:   0.005 V   [V AN_NEG dtmroc 1]
ELMB Channel 45:   0.005 V   [V AN_NEG dtmroc 2]
ELMB Channel 46:   0.005 V   [V AN_NEG dtmroc 3]
ELMB Channel 47:   0.004 V   [V AN_NEG dtmroc 4]
ELMB Channel 48:   0.000 V   [V AN_NEG dtmroc 5]
ELMB Channel 49:   0.001 V   [V AN_NEG dtmroc 5]
ELMB Channel 50:   0.001 V   [V AN_NEG dtmroc 6]
ELMB Channel 51:   0.000 V   [V AN_NEG dtmroc 6]
  RANGE: 3.10  -  3.30
ELMB Channel 52:   0.002 V   [V DIGI dtmroc 9]
ELMB Channel 53:   0.003 V   [V DIGI dtmroc 10]
ELMB Channel 54:   0.002 V   [V DIGI dtmroc 11]
ELMB Channel 55:   0.002 V   [V DIGI dtmroc 12]
ELMB Channel 56:   0.002 V   [V DIGI dtmroc 13]
ELMB Channel 57:   0.001 V   [V DIGI dtmroc 13]
ELMB Channel 58:   0.002 V   [V DIGI dtmroc 14]
ELMB Channel 59:   0.001 V   [V DIGI dtmroc 14]

Temperature channels:
Channel 60, temperature 41.70
Channel 61, temperature 42.00
Channel 62, temperature 42.79
Channel 63, temperature 41.44

Set all regulators ON

Current channels
  RANGE: 0.65  -  0.85
******** 0. 0.755828    1. 0.007949  || 0.763778 
******** 2. 0.769770    3. 0.006708  || 0.776478 
******** 4. 0.784494    5. 0.003517  || 0.788011 
******** 6. 0.757835    7. 0.000893  || 0.758728 
******** 8. 0.783864    9. 0.000498  || 0.784362 
******** 10. 0.736830    11. 0.007294  || 0.744125 
  RANGE: 0.65  -  0.85
******** 12. 0.740914    13. 0.006875  || 0.747789 
******** 14. 0.741977    15. 0.034339  || 0.776316 
******** 16. 0.718524    17. 0.030637  || 0.749160 
******** 18. 0.731070    19. 0.009491  || 0.740561 
******** 20. 0.734077    21. 0.004368  || 0.738445 
******** 22. 0.726016    23. 0.000183  || 0.726199 
  RANGE: 0.55  -  0.75
******** 24. 0.644727    25. 0.006671  || 0.651397 
******** 26. 0.643550    27. 0.020743  || 0.664292 
******** 28. 0.646088    29. 0.008035  || 0.654122 
******** 30. 0.621280    31. 0.010244  || 0.631523 
******** 32. 0.640199    33. 0.014251  || 0.654450 
******** 34. 0.643349    35. 0.001181  || 0.644530 

Voltage channels:
  RANGE: 3.65  -  3.85
ELMB Channel 36:   3.726 V   [V AN_POS dtmroc 1]
ELMB Channel 37:   3.765 V   [V AN_POS dtmroc 2]
ELMB Channel 38:   3.759 V   [V AN_POS dtmroc 3]
ELMB Channel 39:   3.732 V   [V AN_POS dtmroc 4]
ELMB Channel 40:   3.756 V   [V AN_POS dtmroc 5]
ELMB Channel 41:   3.752 V   [V AN_POS dtmroc 5]
ELMB Channel 42:   3.736 V   [V AN_POS dtmroc 6]
ELMB Channel 43:   3.719 V   [V AN_POS dtmroc 6]
  RANGE: 3.50  -  3.70
ELMB Channel 44:   -3.547 V   [V AN_NEG dtmroc 1]
ELMB Channel 45:   -3.553 V   [V AN_NEG dtmroc 2]
ELMB Channel 46:   -3.592 V   [V AN_NEG dtmroc 3]
ELMB Channel 47:   -3.554 V   [V AN_NEG dtmroc 4]
ELMB Channel 48:   -3.548 V   [V AN_NEG dtmroc 5]
ELMB Channel 49:   -3.549 V   [V AN_NEG dtmroc 5]
ELMB Channel 50:   -3.546 V   [V AN_NEG dtmroc 6]
ELMB Channel 51:   -3.541 V   [V AN_NEG dtmroc 6]
  RANGE: 3.10  -  3.30
ELMB Channel 52:   3.202 V   [V DIGI dtmroc 9]
ELMB Channel 53:   3.258 V   [V DIGI dtmroc 10]
ELMB Channel 54:   3.245 V   [V DIGI dtmroc 11]
ELMB Channel 55:   3.215 V   [V DIGI dtmroc 12]
ELMB Channel 56:   3.206 V   [V DIGI dtmroc 13]
ELMB Channel 57:   3.176 V   [V DIGI dtmroc 13]
ELMB Channel 58:   3.215 V   [V DIGI dtmroc 14]
ELMB Channel 59:   3.203 V   [V DIGI dtmroc 14]

Temperature channels:
Channel 60, temperature 41.75
Channel 61, temperature 41.89
Channel 62, temperature 42.71
Channel 63, temperature 41.37

Set all regulators ON

Current channels
  RANGE: 0.65  -  0.85
******** 0. 0.006785    1. 0.772718  || 0.779503 
******** 2. 0.004380    3. 0.764367  || 0.768747 
******** 4. 0.016584    5. 0.767345  || 0.783929 
******** 6. 0.000343    7. 0.770564  || 0.770907 
******** 8. 0.023835    9. 0.765491  || 0.789326 
******** 10. 0.019420    11. 0.746099  || 0.765519 
  RANGE: 0.65  -  0.85
******** 12. 0.011264    13. 0.739549  || 0.750813 
******** 14. 0.017337    15. 0.702477  || 0.719813 
******** 16. 0.009603    17. 0.688666  || 0.698269 
******** 18. 0.001263    19. 0.729771  || 0.731033 
******** 20. 0.010479    21. 0.739354  || 0.749833 
******** 22. 0.002716    23. 0.723086  || 0.725801 
  RANGE: 0.55  -  0.75
******** 24. 0.003313    25. 0.636237  || 0.639549 
******** 26. 0.006538    27. 0.629614  || 0.636151 
******** 28. 0.000595    29. 0.642302  || 0.642896 
******** 30. 0.021827    31. 0.654193  || 0.676020 
******** 32. 0.001212    33. 0.636511  || 0.637722 
******** 34. 0.002977    35. 0.652968  || 0.655944 

Voltage channels:
  RANGE: 3.65  -  3.85
ELMB Channel 36:   3.770 V   [V AN_POS dtmroc 1]
ELMB Channel 37:   3.739 V   [V AN_POS dtmroc 2]
ELMB Channel 38:   3.727 V   [V AN_POS dtmroc 3]
ELMB Channel 39:   3.760 V   [V AN_POS dtmroc 4]
ELMB Channel 40:   3.744 V   [V AN_POS dtmroc 5]
ELMB Channel 41:   3.753 V   [V AN_POS dtmroc 5]
ELMB Channel 42:   3.730 V   [V AN_POS dtmroc 6]
ELMB Channel 43:   3.724 V   [V AN_POS dtmroc 6]
  RANGE: 3.50  -  3.70
ELMB Channel 44:   -3.540 V   [V AN_NEG dtmroc 1]
ELMB Channel 45:   -3.611 V   [V AN_NEG dtmroc 2]
ELMB Channel 46:   -3.535 V   [V AN_NEG dtmroc 3]
ELMB Channel 47:   -3.599 V   [V AN_NEG dtmroc 4]
ELMB Channel 48:   -3.591 V   [V AN_NEG dtmroc 5]
ELMB Channel 49:   -3.610 V   [V AN_NEG dtmroc 5]
ELMB Channel 50:   -3.546 V   [V AN_NEG dtmroc 6]
ELMB Channel 51:   -3.552 V   [V AN_NEG dtmroc 6]
  RANGE: 3.10  -  3.30
ELMB Channel 52:   3.226 V   [V DIGI dtmroc 9]
ELMB Channel 53:   3.251 V   [V DIGI dtmroc 10]
ELMB Channel 54:   3.226 V   [V DIGI dtmroc 11]
ELMB Channel 55:   3.222 V   [V DIGI dtmroc 12]
ELMB Channel 56:   3.217 V   [V DIGI dtmroc 13]
ELMB Channel 57:   3.201 V   [V DIGI dtmroc 13]
ELMB Channel 58:   3.246 V   [V DIGI dtmroc 14]
ELMB Channel 59:   3.247 V   [V DIGI dtmroc 14]

Temperature channels:
Channel 60, temperature 41.77
Channel 61, temperature 41.94
Channel 62, temperature 42.79
Channel 63, temperature 41.43

Set all regulators ON

 ======================  TEST LOOP for 20 loops =============================

 Loop: 1
DAC Settings:

Analog Positive 
                     DAC I1       DAC I2     Delta (DAC I1 - DAC I2)

Supply Channel 1:           128 [80]    129 [81]             -1
Supply Channel 2:           128 [80]    127 [7F]             1
Supply Channel 3:           128 [80]    127 [7F]             1
Supply Channel 4:           128 [80]    129 [81]             -1
Supply Channel 5:           128 [80]    127 [7F]             1
Supply Channel 6:           128 [80]    127 [7F]             1

Analog Negative 
                     DAC I1       DAC I2     Delta (DAC I1 - DAC I2)

Supply Channel 1:   128 [80]     129 [81]             -1
Supply Channel 2:   128 [80]     127 [7F]             1
Supply Channel 3:   128 [80]     129 [81]             -1
Supply Channel 4:   128 [80]     127 [7F]             1
Supply Channel 5:   128 [80]     127 [7F]             1
Supply Channel 6:   128 [80]     127 [7F]             1

Digital 
                     DAC I1       DAC I2     Delta (DAC I1 - DAC I2)

Supply Channel 1:   128 [80]     129 [81]             -1
Supply Channel 2:   128 [80]     127 [7F]             1
Supply Channel 3:   128 [80]     127 [7F]             1
Supply Channel 4:   128 [80]     129 [81]             -1
Supply Channel 5:   128 [80]     129 [81]             -1
Supply Channel 6:   128 [80]     129 [81]             -1

Current channels
  RANGE: 0.65  -  0.85
******** 0. 0.006661    1. 0.772747  || 0.779407 
******** 2. 0.754562    3. 0.021998  || 0.776560 
******** 4. 0.787494    5. 0.003517  || 0.791011 
******** 6. 0.000378    7. 0.770788  || 0.771166 
******** 8. 0.451374    9. 0.337010  || 0.788384 
******** 10. 0.308688    11. 0.421937  || 0.730625 
  RANGE: 0.65  -  0.85
******** 12. 0.341667    13. 0.409500  || 0.751167 
******** 14. 0.017755    15. 0.705888  || 0.723644 
******** 16. 0.721025    17. 0.033408  || 0.754434 
******** 18. 0.001042    19. 0.729857  || 0.730900 
******** 20. 0.010416    21. 0.739309  || 0.749725 
******** 22. 0.327655    23. 0.396324  || 0.723979 
  RANGE: 0.55  -  0.75
******** 24. 0.003389    25. 0.636399  || 0.639788 
******** 26. 0.262154    27. 0.360449  || 0.622604 
******** 28. 0.462924    29. 0.178118  || 0.641042 
******** 30. 0.127914    31. 0.504744  || 0.632659 
******** 32. 0.105624    33. 0.530149  || 0.635774 
******** 34. 0.003059    35. 0.653089  || 0.656148 

Voltage channels:
  RANGE: 3.65  -  3.85
ELMB Channel 36:   3.768 V   [V AN_POS dtmroc 1]
ELMB Channel 37:   3.766 V   [V AN_POS dtmroc 2]
ELMB Channel 38:   3.759 V   [V AN_POS dtmroc 3]
ELMB Channel 39:   3.758 V   [V AN_POS dtmroc 4]
ELMB Channel 40:   3.762 V   [V AN_POS dtmroc 5]
ELMB Channel 41:   3.764 V   [V AN_POS dtmroc 5]
ELMB Channel 42:   3.743 V   [V AN_POS dtmroc 6]
ELMB Channel 43:   3.733 V   [V AN_POS dtmroc 6]
  RANGE: 3.50  -  3.70
ELMB Channel 44:   -3.557 V   [V AN_NEG dtmroc 1]
ELMB Channel 45:   -3.609 V   [V AN_NEG dtmroc 2]
ELMB Channel 46:   -3.594 V   [V AN_NEG dtmroc 3]
ELMB Channel 47:   -3.598 V   [V AN_NEG dtmroc 4]
ELMB Channel 48:   -3.590 V   [V AN_NEG dtmroc 5]
ELMB Channel 49:   -3.609 V   [V AN_NEG dtmroc 5]
ELMB Channel 50:   -3.555 V   [V AN_NEG dtmroc 6]
ELMB Channel 51:   -3.556 V   [V AN_NEG dtmroc 6]
  RANGE: 3.10  -  3.30
ELMB Channel 52:   3.223 V   [V DIGI dtmroc 9]
ELMB Channel 53:   3.266 V   [V DIGI dtmroc 10]
ELMB Channel 54:   3.249 V   [V DIGI dtmroc 11]
ELMB Channel 55:   3.225 V   [V DIGI dtmroc 12]
ELMB Channel 56:   3.216 V   [V DIGI dtmroc 13]
ELMB Channel 57:   3.199 V   [V DIGI dtmroc 13]
ELMB Channel 58:   3.242 V   [V DIGI dtmroc 14]
ELMB Channel 59:   3.243 V   [V DIGI dtmroc 14]

Temperature channels:
Channel 60, temperature 42.50
Channel 61, temperature 43.07
Channel 62, temperature 43.63
Channel 63, temperature 42.03

 Loop: 2
DAC Settings:

Analog Positive 
                     DAC I1       DAC I2     Delta (DAC I1 - DAC I2)

Supply Channel 1:           128 [80]    130 [82]             -2
Supply Channel 2:           128 [80]    126 [7E]             2
Supply Channel 3:           128 [80]    126 [7E]             2
Supply Channel 4:           128 [80]    130 [82]             -2
Supply Channel 5:           128 [80]    126 [7E]             2
Supply Channel 6:           128 [80]    128 [80]             0

Analog Negative 
                     DAC I1       DAC I2     Delta (DAC I1 - DAC I2)

Supply Channel 1:   128 [80]     128 [80]             0
Supply Channel 2:   128 [80]     126 [7E]             2
Supply Channel 3:   128 [80]     130 [82]             -2
Supply Channel 4:   128 [80]     126 [7E]             2
Supply Channel 5:   128 [80]     126 [7E]             2
Supply Channel 6:   128 [80]     126 [7E]             2

Digital 
                     DAC I1       DAC I2     Delta (DAC I1 - DAC I2)

Supply Channel 1:   128 [80]     130 [82]             -2
Supply Channel 2:   128 [80]     128 [80]             0
Supply Channel 3:   128 [80]     126 [7E]             2
Supply Channel 4:   128 [80]     130 [82]             -2
Supply Channel 5:   128 [80]     130 [82]             -2
Supply Channel 6:   128 [80]     130 [82]             -2

Current channels
  RANGE: 0.65  -  0.85
******** 0. 0.003495    1. 0.772785  || 0.776280 
******** 2. 0.705639    3. 0.070769  || 0.776408 
******** 4. 0.787494    5. 0.006517  || 0.794011 
******** 6. 0.000434    7. 0.771144  || 0.771578 
******** 8. 0.405594    9. 0.385626  || 0.791220 
******** 10. 0.357703    11. 0.370139  || 0.727842 
  RANGE: 0.65  -  0.85
******** 12. 0.396649    13. 0.357609  || 0.754258 
******** 14. 0.018054    15. 0.703011  || 0.721066 
******** 16. 0.717837    17. 0.033285  || 0.751122 
******** 18. 0.000823    19. 0.729944  || 0.730767 
******** 20. 0.010291    21. 0.739235  || 0.749526 
******** 22. 0.385655    23. 0.341474  || 0.727129 
  RANGE: 0.55  -  0.75
******** 24. 0.003480    25. 0.633491  || 0.636971 
******** 26. 0.362828    27. 0.259827  || 0.622655 
******** 28. 0.380495    29. 0.263496  || 0.643992 
******** 30. 0.200994    31. 0.431419  || 0.632412 
******** 32. 0.178914    33. 0.451408  || 0.630322 
******** 34. 0.003141    35. 0.653210  || 0.656351 

Voltage channels:
  RANGE: 3.65  -  3.85
ELMB Channel 36:   3.765 V   [V AN_POS dtmroc 1]
ELMB Channel 37:   3.767 V   [V AN_POS dtmroc 2]
ELMB Channel 38:   3.759 V   [V AN_POS dtmroc 3]
ELMB Channel 39:   3.756 V   [V AN_POS dtmroc 4]
ELMB Channel 40:   3.763 V   [V AN_POS dtmroc 5]
ELMB Channel 41:   3.766 V   [V AN_POS dtmroc 5]
ELMB Channel 42:   3.742 V   [V AN_POS dtmroc 6]
ELMB Channel 43:   3.732 V   [V AN_POS dtmroc 6]
  RANGE: 3.50  -  3.70
ELMB Channel 44:   -3.556 V   [V AN_NEG dtmroc 1]
ELMB Channel 45:   -3.607 V   [V AN_NEG dtmroc 2]
ELMB Channel 46:   -3.595 V   [V AN_NEG dtmroc 3]
ELMB Channel 47:   -3.596 V   [V AN_NEG dtmroc 4]
ELMB Channel 48:   -3.588 V   [V AN_NEG dtmroc 5]
ELMB Channel 49:   -3.607 V   [V AN_NEG dtmroc 5]
ELMB Channel 50:   -3.555 V   [V AN_NEG dtmroc 6]
ELMB Channel 51:   -3.555 V   [V AN_NEG dtmroc 6]
  RANGE: 3.10  -  3.30
ELMB Channel 52:   3.218 V   [V DIGI dtmroc 9]
ELMB Channel 53:   3.264 V   [V DIGI dtmroc 10]
ELMB Channel 54:   3.250 V   [V DIGI dtmroc 11]
ELMB Channel 55:   3.224 V   [V DIGI dtmroc 12]
ELMB Channel 56:   3.215 V   [V DIGI dtmroc 13]
ELMB Channel 57:   3.196 V   [V DIGI dtmroc 13]
ELMB Channel 58:   3.237 V   [V DIGI dtmroc 14]
ELMB Channel 59:   3.239 V   [V DIGI dtmroc 14]

Temperature channels:
Channel 60, temperature 43.22
Channel 61, temperature 43.92
Channel 62, temperature 44.34
Channel 63, temperature 42.76

 Loop: 3
DAC Settings:

Analog Positive 
                     DAC I1       DAC I2     Delta (DAC I1 - DAC I2)

Supply Channel 1:           128 [80]    131 [83]             -3
Supply Channel 2:           128 [80]    125 [7D]             3
Supply Channel 3:           128 [80]    125 [7D]             3
Supply Channel 4:           128 [80]    131 [83]             -3
Supply Channel 5:           128 [80]    125 [7D]             3
Supply Channel 6:           128 [80]    129 [81]             -1

Analog Negative 
                     DAC I1       DAC I2     Delta (DAC I1 - DAC I2)

Supply Channel 1:   128 [80]     129 [81]             -1
Supply Channel 2:   128 [80]     125 [7D]             3
Supply Channel 3:   128 [80]     131 [83]             -3
Supply Channel 4:   128 [80]     125 [7D]             3
Supply Channel 5:   128 [80]     125 [7D]             3
Supply Channel 6:   128 [80]     127 [7F]             1

Digital 
                     DAC I1       DAC I2     Delta (DAC I1 - DAC I2)

Supply Channel 1:   128 [80]     131 [83]             -3
Supply Channel 2:   128 [80]     127 [7F]             1
Supply Channel 3:   128 [80]     125 [7D]             3
Supply Channel 4:   128 [80]     131 [83]             -3
Supply Channel 5:   128 [80]     131 [83]             -3
Supply Channel 6:   128 [80]     131 [83]             -3

Current channels
  RANGE: 0.65  -  0.85
******** 0. 0.006391    1. 0.772809  || 0.779201 
******** 2. 0.653707    3. 0.125630  || 0.779337 
******** 4. 0.759982    5. 0.034007  || 0.793989 
******** 6. 0.000470    7. 0.768367  || 0.768837 
******** 8. 0.362907    9. 0.431241  || 0.794148 
******** 10. 0.403580    11. 0.324566  || 0.728145 
  RANGE: 0.65  -  0.85
******** 12. 0.335659    13. 0.418554  || 0.754213 
******** 14. 0.018531    15. 0.700367  || 0.718898 
******** 16. 0.717651    17. 0.033162  || 0.750814 
******** 18. 0.003560    19. 0.730047  || 0.733607 
******** 20. 0.013307    21. 0.739131  || 0.752438 
******** 22. 0.321265    23. 0.408450  || 0.729715 
  RANGE: 0.55  -  0.75
******** 24. 0.009670    25. 0.630683  || 0.640353 
******** 26. 0.265159    27. 0.360437  || 0.625595 
******** 28. 0.301049    29. 0.348962  || 0.650011 
******** 30. 0.277173    31. 0.355093  || 0.632266 
******** 32. 0.255286    33. 0.375765  || 0.631050 
******** 34. 0.003223    35. 0.653342  || 0.656565 

Voltage channels:
  RANGE: 3.65  -  3.85
ELMB Channel 36:   3.763 V   [V AN_POS dtmroc 1]
ELMB Channel 37:   3.768 V   [V AN_POS dtmroc 2]
ELMB Channel 38:   3.759 V   [V AN_POS dtmroc 3]
ELMB Channel 39:   3.754 V   [V AN_POS dtmroc 4]
ELMB Channel 40:   3.763 V   [V AN_POS dtmroc 5]
ELMB Channel 41:   3.768 V   [V AN_POS dtmroc 5]
ELMB Channel 42:   3.741 V   [V AN_POS dtmroc 6]
ELMB Channel 43:   3.730 V   [V AN_POS dtmroc 6]
  RANGE: 3.50  -  3.70
ELMB Channel 44:   -3.558 V   [V AN_NEG dtmroc 1]
ELMB Channel 45:   -3.605 V   [V AN_NEG dtmroc 2]
ELMB Channel 46:   -3.596 V   [V AN_NEG dtmroc 3]
ELMB Channel 47:   -3.594 V   [V AN_NEG dtmroc 4]
ELMB Channel 48:   -3.587 V   [V AN_NEG dtmroc 5]
ELMB Channel 49:   -3.605 V   [V AN_NEG dtmroc 5]
ELMB Channel 50:   -3.557 V   [V AN_NEG dtmroc 6]
ELMB Channel 51:   -3.558 V   [V AN_NEG dtmroc 6]
  RANGE: 3.10  -  3.30
ELMB Channel 52:   3.214 V   [V DIGI dtmroc 9]
ELMB Channel 53:   3.266 V   [V DIGI dtmroc 10]
ELMB Channel 54:   3.253 V   [V DIGI dtmroc 11]
ELMB Channel 55:   3.222 V   [V DIGI dtmroc 12]
ELMB Channel 56:   3.213 V   [V DIGI dtmroc 13]
ELMB Channel 57:   3.193 V   [V DIGI dtmroc 13]
ELMB Channel 58:   3.233 V   [V DIGI dtmroc 14]
ELMB Channel 59:   3.234 V   [V DIGI dtmroc 14]

Temperature channels:
Channel 60, temperature 43.87
Channel 61, temperature 44.66
Channel 62, temperature 44.95
Channel 63, temperature 43.48

 Loop: 4
DAC Settings:

Analog Positive 
                     DAC I1       DAC I2     Delta (DAC I1 - DAC I2)

Supply Channel 1:           128 [80]    132 [84]             -4
Supply Channel 2:           128 [80]    124 [7C]             4
Supply Channel 3:           128 [80]    124 [7C]             4
Supply Channel 4:           128 [80]    132 [84]             -4
Supply Channel 5:           128 [80]    126 [7E]             2
Supply Channel 6:           128 [80]    128 [80]             0

Analog Negative 
                     DAC I1       DAC I2     Delta (DAC I1 - DAC I2)

Supply Channel 1:   128 [80]     128 [80]             0
Supply Channel 2:   128 [80]     124 [7C]             4
Supply Channel 3:   128 [80]     132 [84]             -4
Supply Channel 4:   128 [80]     124 [7C]             4
Supply Channel 5:   128 [80]     124 [7C]             4
Supply Channel 6:   128 [80]     126 [7E]             2

Digital 
                     DAC I1       DAC I2     Delta (DAC I1 - DAC I2)

Supply Channel 1:   128 [80]     132 [84]             -4
Supply Channel 2:   128 [80]     128 [80]             0
Supply Channel 3:   128 [80]     126 [7E]             2
Supply Channel 4:   128 [80]     132 [84]             -4
Supply Channel 5:   128 [80]     132 [84]             -4
Supply Channel 6:   128 [80]     132 [84]             -4

Current channels
  RANGE: 0.65  -  0.85
******** 0. 0.006246    1. 0.772843  || 0.779090 
******** 2. 0.598792    3. 0.177511  || 0.776302 
******** 4. 0.714232    5. 0.082768  || 0.797000 
******** 6. 0.000512    7. 0.771634  || 0.772146 
******** 8. 0.408707    9. 0.385626  || 0.794333 
******** 10. 0.351527    11. 0.376239  || 0.727766 
  RANGE: 0.65  -  0.85
******** 12. 0.393641    13. 0.360563  || 0.754204 
******** 14. 0.018947    15. 0.700678  || 0.719625 
******** 16. 0.717402    17. 0.032998  || 0.750400 
******** 18. 0.000252    19. 0.730169  || 0.730421 
******** 20. 0.013139    21. 0.739101  || 0.752241 
******** 22. 0.376165    23. 0.353599  || 0.729764 
  RANGE: 0.55  -  0.75
******** 24. 0.092105    25. 0.545257  || 0.637362 
******** 26. 0.362841    27. 0.259788  || 0.622629 
******** 28. 0.386572    29. 0.260479  || 0.647051 
******** 30. 0.353253    31. 0.278767  || 0.632019 
******** 32. 0.331640    33. 0.300152  || 0.631791 
******** 34. 0.000299    35. 0.650483  || 0.650782 

Voltage channels:
  RANGE: 3.65  -  3.85
ELMB Channel 36:   3.761 V   [V AN_POS dtmroc 1]
ELMB Channel 37:   3.769 V   [V AN_POS dtmroc 2]
ELMB Channel 38:   3.761 V   [V AN_POS dtmroc 3]
ELMB Channel 39:   3.752 V   [V AN_POS dtmroc 4]
ELMB Channel 40:   3.763 V   [V AN_POS dtmroc 5]
ELMB Channel 41:   3.766 V   [V AN_POS dtmroc 5]
ELMB Channel 42:   3.743 V   [V AN_POS dtmroc 6]
ELMB Channel 43:   3.732 V   [V AN_POS dtmroc 6]
  RANGE: 3.50  -  3.70
ELMB Channel 44:   -3.558 V   [V AN_NEG dtmroc 1]
ELMB Channel 45:   -3.602 V   [V AN_NEG dtmroc 2]
ELMB Channel 46:   -3.598 V   [V AN_NEG dtmroc 3]
ELMB Channel 47:   -3.592 V   [V AN_NEG dtmroc 4]
ELMB Channel 48:   -3.584 V   [V AN_NEG dtmroc 5]
ELMB Channel 49:   -3.604 V   [V AN_NEG dtmroc 5]
ELMB Channel 50:   -3.557 V   [V AN_NEG dtmroc 6]
ELMB Channel 51:   -3.557 V   [V AN_NEG dtmroc 6]
  RANGE: 3.10  -  3.30
ELMB Channel 52:   3.212 V   [V DIGI dtmroc 9]
ELMB Channel 53:   3.265 V   [V DIGI dtmroc 10]
ELMB Channel 54:   3.252 V   [V DIGI dtmroc 11]
ELMB Channel 55:   3.221 V   [V DIGI dtmroc 12]
ELMB Channel 56:   3.212 V   [V DIGI dtmroc 13]
ELMB Channel 57:   3.190 V   [V DIGI dtmroc 13]
ELMB Channel 58:   3.229 V   [V DIGI dtmroc 14]
ELMB Channel 59:   3.230 V   [V DIGI dtmroc 14]

Temperature channels:
Channel 60, temperature 44.45
Channel 61, temperature 45.32
Channel 62, temperature 45.44
Channel 63, temperature 44.08

 Loop: 5
DAC Settings:

Analog Positive 
                     DAC I1       DAC I2     Delta (DAC I1 - DAC I2)

Supply Channel 1:           128 [80]    133 [85]             -5
Supply Channel 2:           128 [80]    123 [7B]             5
Supply Channel 3:           128 [80]    123 [7B]             5
Supply Channel 4:           128 [80]    133 [85]             -5
Supply Channel 5:           128 [80]    125 [7D]             3
Supply Channel 6:           128 [80]    129 [81]             -1

Analog Negative 
                     DAC I1       DAC I2     Delta (DAC I1 - DAC I2)

Supply Channel 1:   128 [80]     129 [81]             -1
Supply Channel 2:   128 [80]     123 [7B]             5
Supply Channel 3:   128 [80]     133 [85]             -5
Supply Channel 4:   128 [80]     123 [7B]             5
Supply Channel 5:   128 [80]     123 [7B]             5
Supply Channel 6:   128 [80]     127 [7F]             1

Digital 
                     DAC I1       DAC I2     Delta (DAC I1 - DAC I2)

Supply Channel 1:   128 [80]     133 [85]             -5
Supply Channel 2:   128 [80]     127 [7F]             1
Supply Channel 3:   128 [80]     125 [7D]             3
Supply Channel 4:   128 [80]     131 [83]             -3
Supply Channel 5:   128 [80]     131 [83]             -3
Supply Channel 6:   128 [80]     133 [85]             -5

Current channels
  RANGE: 0.65  -  0.85
******** 0. 0.006081    1. 0.772882  || 0.778963 
******** 2. 0.549976    3. 0.229391  || 0.779367 
******** 4. 0.671432    5. 0.128568  || 0.800000 
******** 6. 0.002539    7. 0.768945  || 0.771484 
******** 8. 0.362926    9. 0.431205  || 0.794131 
******** 10. 0.397417    11. 0.330692  || 0.728109 
  RANGE: 0.65  -  0.85
******** 12. 0.332751    13. 0.424609  || 0.757360 
******** 14. 0.019366    15. 0.700989  || 0.720355 
******** 16. 0.717278    17. 0.035916  || 0.753194 
******** 18. 0.000100    19. 0.730307  || 0.730407 
******** 20. 0.013035    21. 0.738953  || 0.751988 
******** 22. 0.317862    23. 0.411475  || 0.729337 
  RANGE: 0.55  -  0.75
******** 24. 0.183732    25. 0.456816  || 0.640548 
******** 26. 0.265167    27. 0.360411  || 0.625579 
******** 28. 0.304161    29. 0.345871  || 0.650031 
******** 30. 0.274173    31. 0.358193  || 0.632366 
******** 32. 0.252250    33. 0.375765  || 0.628014 
******** 34. 0.060651    35. 0.589464  || 0.650115 

Voltage channels:
  RANGE: 3.65  -  3.85
ELMB Channel 36:   3.758 V   [V AN_POS dtmroc 1]
ELMB Channel 37:   3.769 V   [V AN_POS dtmroc 2]
ELMB Channel 38:   3.761 V   [V AN_POS dtmroc 3]
ELMB Channel 39:   3.749 V   [V AN_POS dtmroc 4]
ELMB Channel 40:   3.764 V   [V AN_POS dtmroc 5]
ELMB Channel 41:   3.768 V   [V AN_POS dtmroc 5]
ELMB Channel 42:   3.741 V   [V AN_POS dtmroc 6]
ELMB Channel 43:   3.730 V   [V AN_POS dtmroc 6]
  RANGE: 3.50  -  3.70
ELMB Channel 44:   -3.560 V   [V AN_NEG dtmroc 1]
ELMB Channel 45:   -3.600 V   [V AN_NEG dtmroc 2]
ELMB Channel 46:   -3.598 V   [V AN_NEG dtmroc 3]
ELMB Channel 47:   -3.589 V   [V AN_NEG dtmroc 4]
ELMB Channel 48:   -3.582 V   [V AN_NEG dtmroc 5]
ELMB Channel 49:   -3.601 V   [V AN_NEG dtmroc 5]
ELMB Channel 50:   -3.559 V   [V AN_NEG dtmroc 6]
ELMB Channel 51:   -3.560 V   [V AN_NEG dtmroc 6]
  RANGE: 3.10  -  3.30
ELMB Channel 52:   3.211 V   [V DIGI dtmroc 9]
ELMB Channel 53:   3.267 V   [V DIGI dtmroc 10]
ELMB Channel 54:   3.252 V   [V DIGI dtmroc 11]
ELMB Channel 55:   3.222 V   [V DIGI dtmroc 12]
ELMB Channel 56:   3.214 V   [V DIGI dtmroc 13]
ELMB Channel 57:   3.193 V   [V DIGI dtmroc 13]
ELMB Channel 58:   3.226 V   [V DIGI dtmroc 14]
ELMB Channel 59:   3.227 V   [V DIGI dtmroc 14]

Temperature channels:
Channel 60, temperature 44.96
Channel 61, temperature 45.90
Channel 62, temperature 45.91
Channel 63, temperature 44.61

 Loop: 6
DAC Settings:

Analog Positive 
                     DAC I1       DAC I2     Delta (DAC I1 - DAC I2)

Supply Channel 1:           128 [80]    134 [86]             -6
Supply Channel 2:           128 [80]    122 [7A]             6
Supply Channel 3:           128 [80]    122 [7A]             6
Supply Channel 4:           128 [80]    134 [86]             -6
Supply Channel 5:           128 [80]    126 [7E]             2
Supply Channel 6:           128 [80]    128 [80]             0

Analog Negative 
                     DAC I1       DAC I2     Delta (DAC I1 - DAC I2)

Supply Channel 1:   128 [80]     128 [80]             0
Supply Channel 2:   128 [80]     122 [7A]             6
Supply Channel 3:   128 [80]     134 [86]             -6
Supply Channel 4:   128 [80]     122 [7A]             6
Supply Channel 5:   128 [80]     122 [7A]             6
Supply Channel 6:   128 [80]     126 [7E]             2

Digital 
                     DAC I1       DAC I2     Delta (DAC I1 - DAC I2)

Supply Channel 1:   128 [80]     134 [86]             -6
Supply Channel 2:   128 [80]     128 [80]             0
Supply Channel 3:   128 [80]     126 [7E]             2
Supply Channel 4:   128 [80]     132 [84]             -4
Supply Channel 5:   128 [80]     132 [84]             -4
Supply Channel 6:   128 [80]     134 [86]             -6

Current channels
  RANGE: 0.65  -  0.85
******** 0. 0.009036    1. 0.772916  || 0.781952 
******** 2. 0.501152    3. 0.281262  || 0.782414 
******** 4. 0.625694    5. 0.174339  || 0.800033 
******** 6. 0.002483    7. 0.769301  || 0.771784 
******** 8. 0.411707    9. 0.382626  || 0.794333 
******** 10. 0.348427    11. 0.379288  || 0.727715 
  RANGE: 0.65  -  0.85
******** 12. 0.393696    13. 0.363636  || 0.757332 
******** 14. 0.016784    15. 0.701301  || 0.718085 
******** 16. 0.717090    17. 0.035792  || 0.752882 
******** 18. 0.002680    19. 0.727394  || 0.730074 
******** 20. 0.012909    21. 0.738849  || 0.751758 
******** 22. 0.375934    23. 0.350437  || 0.726371 
  RANGE: 0.55  -  0.75
******** 24. 0.275367    25. 0.368390  || 0.643757 
******** 26. 0.365846    27. 0.259775  || 0.625621 
******** 28. 0.389566    29. 0.257375  || 0.646941 
******** 30. 0.347213    31. 0.284880  || 0.632092 
******** 32. 0.328657    33. 0.303077  || 0.631735 
******** 34. 0.136838    35. 0.510255  || 0.647093 

Voltage channels:
  RANGE: 3.65  -  3.85
ELMB Channel 36:   3.756 V   [V AN_POS dtmroc 1]
ELMB Channel 37:   3.770 V   [V AN_POS dtmroc 2]
ELMB Channel 38:   3.762 V   [V AN_POS dtmroc 3]
ELMB Channel 39:   3.747 V   [V AN_POS dtmroc 4]
ELMB Channel 40:   3.763 V   [V AN_POS dtmroc 5]
ELMB Channel 41:   3.766 V   [V AN_POS dtmroc 5]
ELMB Channel 42:   3.743 V   [V AN_POS dtmroc 6]
ELMB Channel 43:   3.732 V   [V AN_POS dtmroc 6]
  RANGE: 3.50  -  3.70
ELMB Channel 44:   -3.559 V   [V AN_NEG dtmroc 1]
ELMB Channel 45:   -3.598 V   [V AN_NEG dtmroc 2]
ELMB Channel 46:   -3.599 V   [V AN_NEG dtmroc 3]
ELMB Channel 47:   -3.587 V   [V AN_NEG dtmroc 4]
ELMB Channel 48:   -3.580 V   [V AN_NEG dtmroc 5]
ELMB Channel 49:   -3.598 V   [V AN_NEG dtmroc 5]
ELMB Channel 50:   -3.558 V   [V AN_NEG dtmroc 6]
ELMB Channel 51:   -3.558 V   [V AN_NEG dtmroc 6]
  RANGE: 3.10  -  3.30
ELMB Channel 52:   3.209 V   [V DIGI dtmroc 9]
ELMB Channel 53:   3.265 V   [V DIGI dtmroc 10]
ELMB Channel 54:   3.252 V   [V DIGI dtmroc 11]
ELMB Channel 55:   3.222 V   [V DIGI dtmroc 12]
ELMB Channel 56:   3.212 V   [V DIGI dtmroc 13]
ELMB Channel 57:   3.190 V   [V DIGI dtmroc 13]
ELMB Channel 58:   3.225 V   [V DIGI dtmroc 14]
ELMB Channel 59:   3.224 V   [V DIGI dtmroc 14]

Temperature channels:
Channel 60, temperature 45.43
Channel 61, temperature 46.41
Channel 62, temperature 46.31
Channel 63, temperature 45.11

 Loop: 7
DAC Settings:

Analog Positive 
                     DAC I1       DAC I2     Delta (DAC I1 - DAC I2)

Supply Channel 1:           128 [80]    135 [87]             -7
Supply Channel 2:           128 [80]    121 [79]             7
Supply Channel 3:           128 [80]    121 [79]             7
Supply Channel 4:           128 [80]    135 [87]             -7
Supply Channel 5:           128 [80]    125 [7D]             3
Supply Channel 6:           128 [80]    129 [81]             -1

Analog Negative 
                     DAC I1       DAC I2     Delta (DAC I1 - DAC I2)

Supply Channel 1:   128 [80]     129 [81]             -1
Supply Channel 2:   128 [80]     121 [79]             7
Supply Channel 3:   128 [80]     135 [87]             -7
Supply Channel 4:   128 [80]     121 [79]             7
Supply Channel 5:   128 [80]     121 [79]             7
Supply Channel 6:   128 [80]     127 [7F]             1

Digital 
                     DAC I1       DAC I2     Delta (DAC I1 - DAC I2)

Supply Channel 1:   128 [80]     135 [87]             -7
Supply Channel 2:   128 [80]     127 [7F]             1
Supply Channel 3:   128 [80]     125 [7D]             3
Supply Channel 4:   128 [80]     131 [83]             -3
Supply Channel 5:   128 [80]     131 [83]             -3
Supply Channel 6:   128 [80]     135 [87]             -7

Current channels
  RANGE: 0.65  -  0.85
******** 0. 0.008849    1. 0.772959  || 0.781809 
******** 2. 0.446145    3. 0.333152  || 0.779297 
******** 4. 0.576769    5. 0.223119  || 0.799889 
******** 6. 0.031146    7. 0.738879  || 0.770025 
******** 8. 0.362933    9. 0.431167  || 0.794100 
******** 10. 0.394341    11. 0.333615  || 0.727956 
  RANGE: 0.65  -  0.85
******** 12. 0.332807    13. 0.427681  || 0.760487 
******** 14. 0.020320    15. 0.698601  || 0.718920 
******** 16. 0.716965    17. 0.035710  || 0.752675 
******** 18. 0.002286    19. 0.727550  || 0.729835 
******** 20. 0.012741    21. 0.738731  || 0.751472 
******** 22. 0.314646    23. 0.414450  || 0.729096 
  RANGE: 0.55  -  0.75
******** 24. 0.363895    25. 0.276949  || 0.640844 
******** 26. 0.265167    27. 0.360411  || 0.625579 
******** 28. 0.307137    29. 0.342853  || 0.649991 
******** 30. 0.268133    31. 0.364306  || 0.632439 
******** 32. 0.252232    33. 0.378793  || 0.631025 
******** 34. 0.210119    35. 0.437046  || 0.647165 

Voltage channels:
  RANGE: 3.65  -  3.85
ELMB Channel 36:   3.753 V   [V AN_POS dtmroc 1]
ELMB Channel 37:   3.771 V   [V AN_POS dtmroc 2]
ELMB Channel 38:   3.762 V   [V AN_POS dtmroc 3]
ELMB Channel 39:   3.745 V   [V AN_POS dtmroc 4]
ELMB Channel 40:   3.765 V   [V AN_POS dtmroc 5]
ELMB Channel 41:   3.768 V   [V AN_POS dtmroc 5]
ELMB Channel 42:   3.742 V   [V AN_POS dtmroc 6]
ELMB Channel 43:   3.731 V   [V AN_POS dtmroc 6]
  RANGE: 3.50  -  3.70
ELMB Channel 44:   -3.561 V   [V AN_NEG dtmroc 1]
ELMB Channel 45:   -3.595 V   [V AN_NEG dtmroc 2]
ELMB Channel 46:   -3.600 V   [V AN_NEG dtmroc 3]
ELMB Channel 47:   -3.584 V   [V AN_NEG dtmroc 4]
ELMB Channel 48:   -3.578 V   [V AN_NEG dtmroc 5]
ELMB Channel 49:   -3.596 V   [V AN_NEG dtmroc 5]
ELMB Channel 50:   -3.560 V   [V AN_NEG dtmroc 6]
ELMB Channel 51:   -3.561 V   [V AN_NEG dtmroc 6]
  RANGE: 3.10  -  3.30
ELMB Channel 52:   3.208 V   [V DIGI dtmroc 9]
ELMB Channel 53:   3.267 V   [V DIGI dtmroc 10]
ELMB Channel 54:   3.254 V   [V DIGI dtmroc 11]
ELMB Channel 55:   3.223 V   [V DIGI dtmroc 12]
ELMB Channel 56:   3.214 V   [V DIGI dtmroc 13]
ELMB Channel 57:   3.193 V   [V DIGI dtmroc 13]
ELMB Channel 58:   3.224 V   [V DIGI dtmroc 14]
ELMB Channel 59:   3.221 V   [V DIGI dtmroc 14]

Temperature channels:
Channel 60, temperature 45.80
Channel 61, temperature 46.82
Channel 62, temperature 46.69
Channel 63, temperature 45.51

 Loop: 8
DAC Settings:

Analog Positive 
                     DAC I1       DAC I2     Delta (DAC I1 - DAC I2)

Supply Channel 1:           128 [80]    136 [88]             -8
Supply Channel 2:           128 [80]    120 [78]             8
Supply Channel 3:           128 [80]    120 [78]             8
Supply Channel 4:           128 [80]    136 [88]             -8
Supply Channel 5:           128 [80]    126 [7E]             2
Supply Channel 6:           128 [80]    128 [80]             0

Analog Negative 
                     DAC I1       DAC I2     Delta (DAC I1 - DAC I2)

Supply Channel 1:   128 [80]     128 [80]             0
Supply Channel 2:   128 [80]     120 [78]             8
Supply Channel 3:   128 [80]     136 [88]             -8
Supply Channel 4:   128 [80]     120 [78]             8
Supply Channel 5:   128 [80]     120 [78]             8
Supply Channel 6:   128 [80]     126 [7E]             2

Digital 
                     DAC I1       DAC I2     Delta (DAC I1 - DAC I2)

Supply Channel 1:   128 [80]     134 [86]             -6
Supply Channel 2:   128 [80]     128 [80]             0
Supply Channel 3:   128 [80]     126 [7E]             2
Supply Channel 4:   128 [80]     132 [84]             -4
Supply Channel 5:   128 [80]     132 [84]             -4
Supply Channel 6:   128 [80]     136 [88]             -8

Current channels
  RANGE: 0.65  -  0.85
******** 0. 0.005625    1. 0.772988  || 0.778613 
******** 2. 0.397298    3. 0.384894  || 0.782191 
******** 4. 0.527919    5. 0.271880  || 0.799799 
******** 6. 0.070860    7. 0.696270  || 0.767130 
******** 8. 0.411713    9. 0.385588  || 0.797302 
******** 10. 0.345388    11. 0.385388  || 0.730776 
  RANGE: 0.65  -  0.85
******** 12. 0.393751    13. 0.366609  || 0.760360 
******** 14. 0.020738    15. 0.698913  || 0.719651 
******** 16. 0.716841    17. 0.035628  || 0.752469 
******** 18. 0.001845    19. 0.727724  || 0.729569 
******** 20. 0.012595    21. 0.738627  || 0.751222 
******** 22. 0.369662    23. 0.359575  || 0.729237 
  RANGE: 0.55  -  0.75
******** 24. 0.275353    25. 0.368360  || 0.643713 
******** 26. 0.365841    27. 0.259788  || 0.625629 
******** 28. 0.392666    29. 0.257375  || 0.650041 
******** 30. 0.344242    31. 0.287986  || 0.632229 
******** 32. 0.325486    33. 0.303223  || 0.628709 
******** 34. 0.292494    35. 0.357837  || 0.650331 

Voltage channels:
  RANGE: 3.65  -  3.85
ELMB Channel 36:   3.751 V   [V AN_POS dtmroc 1]
ELMB Channel 37:   3.773 V   [V AN_POS dtmroc 2]
ELMB Channel 38:   3.764 V   [V AN_POS dtmroc 3]
ELMB Channel 39:   3.745 V   [V AN_POS dtmroc 4]
ELMB Channel 40:   3.764 V   [V AN_POS dtmroc 5]
ELMB Channel 41:   3.766 V   [V AN_POS dtmroc 5]
ELMB Channel 42:   3.743 V   [V AN_POS dtmroc 6]
ELMB Channel 43:   3.732 V   [V AN_POS dtmroc 6]
  RANGE: 3.50  -  3.70
ELMB Channel 44:   -3.560 V   [V AN_NEG dtmroc 1]
ELMB Channel 45:   -3.592 V   [V AN_NEG dtmroc 2]
ELMB Channel 46:   -3.601 V   [V AN_NEG dtmroc 3]
ELMB Channel 47:   -3.581 V   [V AN_NEG dtmroc 4]
ELMB Channel 48:   -3.575 V   [V AN_NEG dtmroc 5]
ELMB Channel 49:   -3.593 V   [V AN_NEG dtmroc 5]
ELMB Channel 50:   -3.559 V   [V AN_NEG dtmroc 6]
ELMB Channel 51:   -3.560 V   [V AN_NEG dtmroc 6]
  RANGE: 3.10  -  3.30
ELMB Channel 52:   3.210 V   [V DIGI dtmroc 9]
ELMB Channel 53:   3.265 V   [V DIGI dtmroc 10]
ELMB Channel 54:   3.252 V   [V DIGI dtmroc 11]
ELMB Channel 55:   3.222 V   [V DIGI dtmroc 12]
ELMB Channel 56:   3.213 V   [V DIGI dtmroc 13]
ELMB Channel 57:   3.190 V   [V DIGI dtmroc 13]
ELMB Channel 58:   3.223 V   [V DIGI dtmroc 14]
ELMB Channel 59:   3.218 V   [V DIGI dtmroc 14]

Temperature channels:
Channel 60, temperature 46.13
Channel 61, temperature 47.16
Channel 62, temperature 47.03
Channel 63, temperature 45.87

 Loop: 9
DAC Settings:

Analog Positive 
                     DAC I1       DAC I2     Delta (DAC I1 - DAC I2)

Supply Channel 1:           128 [80]    137 [89]             -9
Supply Channel 2:           128 [80]    119 [77]             9
Supply Channel 3:           128 [80]    119 [77]             9
Supply Channel 4:           128 [80]    137 [89]             -9
Supply Channel 5:           128 [80]    125 [7D]             3
Supply Channel 6:           128 [80]    129 [81]             -1

Analog Negative 
                     DAC I1       DAC I2     Delta (DAC I1 - DAC I2)

Supply Channel 1:   128 [80]     129 [81]             -1
Supply Channel 2:   128 [80]     119 [77]             9
Supply Channel 3:   128 [80]     137 [89]             -9
Supply Channel 4:   128 [80]     119 [77]             9
Supply Channel 5:   128 [80]     119 [77]             9
Supply Channel 6:   128 [80]     127 [7F]             1

Digital 
                     DAC I1       DAC I2     Delta (DAC I1 - DAC I2)

Supply Channel 1:   128 [80]     135 [87]             -7
Supply Channel 2:   128 [80]     127 [7F]             1
Supply Channel 3:   128 [80]     125 [7D]             3
Supply Channel 4:   128 [80]     131 [83]             -3
Supply Channel 5:   128 [80]     131 [83]             -3
Supply Channel 6:   128 [80]     137 [89]             -9

Current channels
  RANGE: 0.65  -  0.85
******** 0. 0.005501    1. 0.769917  || 0.775418 
******** 2. 0.348474    3. 0.436764  || 0.785239 
******** 4. 0.482106    5. 0.317670  || 0.799777 
******** 6. 0.116667    7. 0.653614  || 0.770281 
******** 8. 0.365926    9. 0.431167  || 0.797093 
******** 10. 0.391241    11. 0.336741  || 0.727982 
  RANGE: 0.65  -  0.85
******** 12. 0.329725    13. 0.427672  || 0.757397 
******** 14. 0.021276    15. 0.696313  || 0.717589 
******** 16. 0.710677    17. 0.029486  || 0.740164 
******** 18. 0.001626    19. 0.727810  || 0.729436 
******** 20. 0.012385    21. 0.738478  || 0.750863 
******** 22. 0.308372    23. 0.423588  || 0.731960 
  RANGE: 0.55  -  0.75
******** 24. 0.363874    25. 0.279905  || 0.643779 
******** 26. 0.268272    27. 0.357298  || 0.625570 
******** 28. 0.310232    29. 0.339749  || 0.649981 
******** 30. 0.265094    31. 0.367319  || 0.632412 
******** 32. 0.252232    33. 0.381893  || 0.634125 
******** 34. 0.368769    35. 0.281617  || 0.650386 

Voltage channels:
  RANGE: 3.65  -  3.85
ELMB Channel 36:   3.749 V   [V AN_POS dtmroc 1]
ELMB Channel 37:   3.774 V   [V AN_POS dtmroc 2]
ELMB Channel 38:   3.764 V   [V AN_POS dtmroc 3]
ELMB Channel 39:   3.744 V   [V AN_POS dtmroc 4]
ELMB Channel 40:   3.764 V   [V AN_POS dtmroc 5]
ELMB Channel 41:   3.768 V   [V AN_POS dtmroc 5]
ELMB Channel 42:   3.742 V   [V AN_POS dtmroc 6]
ELMB Channel 43:   3.730 V   [V AN_POS dtmroc 6]
  RANGE: 3.50  -  3.70
ELMB Channel 44:   -3.561 V   [V AN_NEG dtmroc 1]
ELMB Channel 45:   -3.589 V   [V AN_NEG dtmroc 2]
ELMB Channel 46:   -3.601 V   [V AN_NEG dtmroc 3]
ELMB Channel 47:   -3.579 V   [V AN_NEG dtmroc 4]
ELMB Channel 48:   -3.572 V   [V AN_NEG dtmroc 5]
ELMB Channel 49:   -3.590 V   [V AN_NEG dtmroc 5]
ELMB Channel 50:   -3.561 V   [V AN_NEG dtmroc 6]
ELMB Channel 51:   -3.562 V   [V AN_NEG dtmroc 6]
  RANGE: 3.10  -  3.30
ELMB Channel 52:   3.209 V   [V DIGI dtmroc 9]
ELMB Channel 53:   3.267 V   [V DIGI dtmroc 10]
ELMB Channel 54:   3.254 V   [V DIGI dtmroc 11]
ELMB Channel 55:   3.224 V   [V DIGI dtmroc 12]
ELMB Channel 56:   3.214 V   [V DIGI dtmroc 13]
ELMB Channel 57:   3.193 V   [V DIGI dtmroc 13]
ELMB Channel 58:   3.222 V   [V DIGI dtmroc 14]
ELMB Channel 59:   3.215 V   [V DIGI dtmroc 14]

Temperature channels:
Channel 60, temperature 46.44
Channel 61, temperature 47.50
Channel 62, temperature 47.35
Channel 63, temperature 46.17

 Loop: 10
DAC Settings:

Analog Positive 
                     DAC I1       DAC I2     Delta (DAC I1 - DAC I2)

Supply Channel 1:           128 [80]    138 [8A]             -10
Supply Channel 2:           128 [80]    120 [78]             8
Supply Channel 3:           128 [80]    118 [76]             10
Supply Channel 4:           128 [80]    138 [8A]             -10
Supply Channel 5:           128 [80]    126 [7E]             2
Supply Channel 6:           128 [80]    128 [80]             0

Analog Negative 
                     DAC I1       DAC I2     Delta (DAC I1 - DAC I2)

Supply Channel 1:   128 [80]     128 [80]             0
Supply Channel 2:   128 [80]     118 [76]             10
Supply Channel 3:   128 [80]     138 [8A]             -10
Supply Channel 4:   128 [80]     118 [76]             10
Supply Channel 5:   128 [80]     118 [76]             10
Supply Channel 6:   128 [80]     126 [7E]             2

Digital 
                     DAC I1       DAC I2     Delta (DAC I1 - DAC I2)

Supply Channel 1:   128 [80]     134 [86]             -6
Supply Channel 2:   128 [80]     128 [80]             0
Supply Channel 3:   128 [80]     126 [7E]             2
Supply Channel 4:   128 [80]     132 [84]             -4
Supply Channel 5:   128 [80]     132 [84]             -4
Supply Channel 6:   128 [80]     136 [88]             -8

Current channels
  RANGE: 0.65  -  0.85
******** 0. 0.008373    1. 0.769971  || 0.778343 
******** 2. 0.397298    3. 0.384894  || 0.782191 
******** 4. 0.439381    5. 0.363451  || 0.802832 
******** 6. 0.156295    7. 0.611092  || 0.767387 
******** 8. 0.414820    9. 0.382515  || 0.797334 
******** 10. 0.342288    11. 0.385388  || 0.727676 
  RANGE: 0.65  -  0.85
******** 12. 0.390807    13. 0.369681  || 0.760487 
******** 14. 0.018752    15. 0.696669  || 0.715421 
******** 16. 0.664567    17. 0.019518  || 0.684085 
******** 18. 0.026037    19. 0.697314  || 0.723351 
******** 20. 0.042823    21. 0.707919  || 0.750741 
******** 22. 0.372703    23. 0.356450  || 0.729153 
  RANGE: 0.55  -  0.75
******** 24. 0.275360    25. 0.371475  || 0.646835 
******** 26. 0.365854    27. 0.259749  || 0.625604 
******** 28. 0.395649    29. 0.254362  || 0.650011 
******** 30. 0.341142    31. 0.290986  || 0.632129 
******** 32. 0.325522    33. 0.303077  || 0.628599 
******** 34. 0.292500    35. 0.357837  || 0.650337 

Voltage channels:
  RANGE: 3.65  -  3.85
ELMB Channel 36:   3.745 V   [V AN_POS dtmroc 1]
ELMB Channel 37:   3.773 V   [V AN_POS dtmroc 2]
ELMB Channel 38:   3.765 V   [V AN_POS dtmroc 3]
ELMB Channel 39:   3.743 V   [V AN_POS dtmroc 4]
ELMB Channel 40:   3.764 V   [V AN_POS dtmroc 5]
ELMB Channel 41:   3.767 V   [V AN_POS dtmroc 5]
ELMB Channel 42:   3.743 V   [V AN_POS dtmroc 6]
ELMB Channel 43:   3.732 V   [V AN_POS dtmroc 6]
  RANGE: 3.50  -  3.70
ELMB Channel 44:   -3.561 V   [V AN_NEG dtmroc 1]
ELMB Channel 45:   -3.587 V   [V AN_NEG dtmroc 2]
ELMB Channel 46:   -3.603 V   [V AN_NEG dtmroc 3]
ELMB Channel 47:   -3.577 V   [V AN_NEG dtmroc 4]
ELMB Channel 48:   -3.571 V   [V AN_NEG dtmroc 5]
ELMB Channel 49:   -3.589 V   [V AN_NEG dtmroc 5]
ELMB Channel 50:   -3.560 V   [V AN_NEG dtmroc 6]
ELMB Channel 51:   -3.561 V   [V AN_NEG dtmroc 6]
  RANGE: 3.10  -  3.30
ELMB Channel 52:   3.210 V   [V DIGI dtmroc 9]
ELMB Channel 53:   3.266 V   [V DIGI dtmroc 10]
ELMB Channel 54:   3.253 V   [V DIGI dtmroc 11]
ELMB Channel 55:   3.222 V   [V DIGI dtmroc 12]
ELMB Channel 56:   3.213 V   [V DIGI dtmroc 13]
ELMB Channel 57:   3.190 V   [V DIGI dtmroc 13]
ELMB Channel 58:   3.223 V   [V DIGI dtmroc 14]
ELMB Channel 59:   3.218 V   [V DIGI dtmroc 14]

Temperature channels:
Channel 60, temperature 46.71
Channel 61, temperature 47.82
Channel 62, temperature 47.62
Channel 63, temperature 46.44

 Loop: 11
DAC Settings:

Analog Positive 
                     DAC I1       DAC I2     Delta (DAC I1 - DAC I2)

Supply Channel 1:           128 [80]    139 [8B]             -11
Supply Channel 2:           128 [80]    119 [77]             9
Supply Channel 3:           128 [80]    117 [75]             11
Supply Channel 4:           128 [80]    139 [8B]             -11
Supply Channel 5:           128 [80]    125 [7D]             3
Supply Channel 6:           128 [80]    129 [81]             -1

Analog Negative 
                     DAC I1       DAC I2     Delta (DAC I1 - DAC I2)

Supply Channel 1:   128 [80]     129 [81]             -1
Supply Channel 2:   128 [80]     117 [75]             11
Supply Channel 3:   128 [80]     139 [8B]             -11
Supply Channel 4:   128 [80]     117 [75]             11
Supply Channel 5:   128 [80]     117 [75]             11
Supply Channel 6:   128 [80]     125 [7D]             3

Digital 
                     DAC I1       DAC I2     Delta (DAC I1 - DAC I2)

Supply Channel 1:   128 [80]     135 [87]             -7
Supply Channel 2:   128 [80]     127 [7F]             1
Supply Channel 3:   128 [80]     125 [7D]             3
Supply Channel 4:   128 [80]     131 [83]             -3
Supply Channel 5:   128 [80]     131 [83]             -3
Supply Channel 6:   128 [80]     137 [89]             -9

Current channels
  RANGE: 0.65  -  0.85
******** 0. 0.008269    1. 0.769995  || 0.778264 
******** 2. 0.348482    3. 0.436774  || 0.785256 
******** 4. 0.393544    5. 0.409221  || 0.802765 
******** 6. 0.199109    7. 0.571481  || 0.770590 
******** 8. 0.369039    9. 0.431167  || 0.800206 
******** 10. 0.388241    11. 0.336741  || 0.724982 
  RANGE: 0.65  -  0.85
******** 12. 0.329780    13. 0.430644  || 0.760424 
******** 14. 0.019349    15. 0.694014  || 0.713362 
******** 16. 0.606317    17. 0.074582  || 0.680900 
******** 18. 0.078070    19. 0.648566  || 0.726636 
******** 20. 0.094659    21. 0.655900  || 0.750560 
******** 22. 0.433762    23. 0.295525  || 0.729286 
  RANGE: 0.55  -  0.75
******** 24. 0.363888    25. 0.279934  || 0.643822 
******** 26. 0.268272    27. 0.360398  || 0.628670 
******** 28. 0.310237    29. 0.339753  || 0.649991 
******** 30. 0.265094    31. 0.367319  || 0.632412 
******** 32. 0.249150    33. 0.381893  || 0.631042 
******** 34. 0.365669    35. 0.281617  || 0.647286 

Voltage channels:
  RANGE: 3.65  -  3.85
ELMB Channel 36:   3.743 V   [V AN_POS dtmroc 1]
ELMB Channel 37:   3.773 V   [V AN_POS dtmroc 2]
ELMB Channel 38:   3.766 V   [V AN_POS dtmroc 3]
ELMB Channel 39:   3.742 V   [V AN_POS dtmroc 4]
ELMB Channel 40:   3.765 V   [V AN_POS dtmroc 5]
ELMB Channel 41:   3.768 V   [V AN_POS dtmroc 5]
ELMB Channel 42:   3.742 V   [V AN_POS dtmroc 6]
ELMB Channel 43:   3.730 V   [V AN_POS dtmroc 6]
  RANGE: 3.50  -  3.70
ELMB Channel 44:   -3.562 V   [V AN_NEG dtmroc 1]
ELMB Channel 45:   -3.583 V   [V AN_NEG dtmroc 2]
ELMB Channel 46:   -3.604 V   [V AN_NEG dtmroc 3]
ELMB Channel 47:   -3.576 V   [V AN_NEG dtmroc 4]
ELMB Channel 48:   -3.570 V   [V AN_NEG dtmroc 5]
ELMB Channel 49:   -3.586 V   [V AN_NEG dtmroc 5]
ELMB Channel 50:   -3.559 V   [V AN_NEG dtmroc 6]
ELMB Channel 51:   -3.559 V   [V AN_NEG dtmroc 6]
  RANGE: 3.10  -  3.30
ELMB Channel 52:   3.208 V   [V DIGI dtmroc 9]
ELMB Channel 53:   3.267 V   [V DIGI dtmroc 10]
ELMB Channel 54:   3.254 V   [V DIGI dtmroc 11]
ELMB Channel 55:   3.224 V   [V DIGI dtmroc 12]
ELMB Channel 56:   3.214 V   [V DIGI dtmroc 13]
ELMB Channel 57:   3.193 V   [V DIGI dtmroc 13]
ELMB Channel 58:   3.222 V   [V DIGI dtmroc 14]
ELMB Channel 59:   3.215 V   [V DIGI dtmroc 14]

Temperature channels:
Channel 60, temperature 46.96
Channel 61, temperature 48.04
Channel 62, temperature 47.88
Channel 63, temperature 46.71

 Loop: 12
DAC Settings:

Analog Positive 
                     DAC I1       DAC I2     Delta (DAC I1 - DAC I2)

Supply Channel 1:           128 [80]    140 [8C]             -12
Supply Channel 2:           128 [80]    120 [78]             8
Supply Channel 3:           128 [80]    118 [76]             10
Supply Channel 4:           128 [80]    140 [8C]             -12
Supply Channel 5:           128 [80]    126 [7E]             2
Supply Channel 6:           128 [80]    128 [80]             0

Analog Negative 
                     DAC I1       DAC I2     Delta (DAC I1 - DAC I2)

Supply Channel 1:   128 [80]     128 [80]             0
Supply Channel 2:   128 [80]     116 [74]             12
Supply Channel 3:   128 [80]     140 [8C]             -12
Supply Channel 4:   128 [80]     116 [74]             12
Supply Channel 5:   128 [80]     116 [74]             12
Supply Channel 6:   128 [80]     126 [7E]             2

Digital 
                     DAC I1       DAC I2     Delta (DAC I1 - DAC I2)

Supply Channel 1:   128 [80]     134 [86]             -6
Supply Channel 2:   128 [80]     128 [80]             0
Supply Channel 3:   128 [80]     126 [7E]             2
Supply Channel 4:   128 [80]     132 [84]             -4
Supply Channel 5:   128 [80]     132 [84]             -4
Supply Channel 6:   128 [80]     136 [88]             -8

Current channels
  RANGE: 0.65  -  0.85
******** 0. 0.008125    1. 0.770028  || 0.778153 
******** 2. 0.397313    3. 0.388013  || 0.785327 
******** 4. 0.439356    5. 0.363431  || 0.802788 
******** 6. 0.241830    7. 0.525815  || 0.767646 
******** 8. 0.414813    9. 0.385515  || 0.800328 
******** 10. 0.339327    11. 0.388513  || 0.727840 
  RANGE: 0.65  -  0.85
******** 12. 0.387725    13. 0.369672  || 0.757397 
******** 14. 0.019767    15. 0.694325  || 0.714092 
******** 16. 0.554230    17. 0.129706  || 0.683935 
******** 18. 0.130058    19. 0.596700  || 0.726758 
******** 20. 0.146518    21. 0.603926  || 0.750444 
******** 22. 0.369372    23. 0.359550  || 0.728922 
  RANGE: 0.55  -  0.75
******** 24. 0.275339    25. 0.371431  || 0.646770 
******** 26. 0.365850    27. 0.259762  || 0.625612 
******** 28. 0.395649    29. 0.254362  || 0.650011 
******** 30. 0.338203    31. 0.294099  || 0.632302 
******** 32. 0.322422    33. 0.306177  || 0.628599 
******** 34. 0.292513    35. 0.354707  || 0.647219 

Voltage channels:
  RANGE: 3.65  -  3.85
ELMB Channel 36:   3.741 V   [V AN_POS dtmroc 1]
ELMB Channel 37:   3.772 V   [V AN_POS dtmroc 2]
ELMB Channel 38:   3.765 V   [V AN_POS dtmroc 3]
ELMB Channel 39:   3.741 V   [V AN_POS dtmroc 4]
ELMB Channel 40:   3.764 V   [V AN_POS dtmroc 5]
ELMB Channel 41:   3.767 V   [V AN_POS dtmroc 5]
ELMB Channel 42:   3.743 V   [V AN_POS dtmroc 6]
ELMB Channel 43:   3.732 V   [V AN_POS dtmroc 6]
  RANGE: 3.50  -  3.70
ELMB Channel 44:   -3.561 V   [V AN_NEG dtmroc 1]
ELMB Channel 45:   -3.581 V   [V AN_NEG dtmroc 2]
ELMB Channel 46:   -3.605 V   [V AN_NEG dtmroc 3]
ELMB Channel 47:   -3.576 V   [V AN_NEG dtmroc 4]
ELMB Channel 48:   -3.569 V   [V AN_NEG dtmroc 5]
ELMB Channel 49:   -3.584 V   [V AN_NEG dtmroc 5]
ELMB Channel 50:   -3.561 V   [V AN_NEG dtmroc 6]
ELMB Channel 51:   -3.561 V   [V AN_NEG dtmroc 6]
  RANGE: 3.10  -  3.30
ELMB Channel 52:   3.211 V   [V DIGI dtmroc 9]
ELMB Channel 53:   3.265 V   [V DIGI dtmroc 10]
ELMB Channel 54:   3.253 V   [V DIGI dtmroc 11]
ELMB Channel 55:   3.223 V   [V DIGI dtmroc 12]
ELMB Channel 56:   3.213 V   [V DIGI dtmroc 13]
ELMB Channel 57:   3.190 V   [V DIGI dtmroc 13]
ELMB Channel 58:   3.224 V   [V DIGI dtmroc 14]
ELMB Channel 59:   3.219 V   [V DIGI dtmroc 14]

Temperature channels:
Channel 60, temperature 47.19
Channel 61, temperature 48.25
Channel 62, temperature 48.10
Channel 63, temperature 46.96

 Loop: 13
DAC Settings:

Analog Positive 
                     DAC I1       DAC I2     Delta (DAC I1 - DAC I2)

Supply Channel 1:           128 [80]    141 [8D]             -13
Supply Channel 2:           128 [80]    119 [77]             9
Supply Channel 3:           128 [80]    117 [75]             11
Supply Channel 4:           128 [80]    141 [8D]             -13
Supply Channel 5:           128 [80]    125 [7D]             3
Supply Channel 6:           128 [80]    129 [81]             -1

Analog Negative 
                     DAC I1       DAC I2     Delta (DAC I1 - DAC I2)

Supply Channel 1:   128 [80]     129 [81]             -1
Supply Channel 2:   128 [80]     115 [73]             13
Supply Channel 3:   128 [80]     141 [8D]             -13
Supply Channel 4:   128 [80]     115 [73]             13
Supply Channel 5:   128 [80]     115 [73]             13
Supply Channel 6:   128 [80]     125 [7D]             3

Digital 
                     DAC I1       DAC I2     Delta (DAC I1 - DAC I2)

Supply Channel 1:   128 [80]     135 [87]             -7
Supply Channel 2:   128 [80]     127 [7F]             1
Supply Channel 3:   128 [80]     125 [7D]             3
Supply Channel 4:   128 [80]     131 [83]             -3
Supply Channel 5:   128 [80]     131 [83]             -3
Supply Channel 6:   128 [80]     137 [89]             -9

Current channels
  RANGE: 0.65  -  0.85
******** 0. 0.022558    1. 0.739548  || 0.762106 
******** 2. 0.345382    3. 0.439874  || 0.785256 
******** 4. 0.390556    5. 0.409231  || 0.799788 
******** 6. 0.284551    7. 0.486248  || 0.770799 
******** 8. 0.369033    9. 0.431167  || 0.800200 
******** 10. 0.388203    11. 0.339690  || 0.727893 
  RANGE: 0.65  -  0.85
******** 12. 0.329817    13. 0.430626  || 0.760443 
******** 14. 0.017203    15. 0.694725  || 0.711927 
******** 16. 0.492980    17. 0.187770  || 0.680750 
******** 18. 0.182089    19. 0.538752  || 0.720841 
******** 20. 0.198255    21. 0.548922  || 0.747177 
******** 22. 0.427546    23. 0.304712  || 0.732258 
  RANGE: 0.55  -  0.75
******** 24. 0.363888    25. 0.283034  || 0.646922 
******** 26. 0.268285    27. 0.357260  || 0.625545 
******** 28. 0.316332    29. 0.336749  || 0.653081 
******** 30. 0.262063    31. 0.370412  || 0.632475 
******** 32. 0.249096    33. 0.381818  || 0.630915 
******** 34. 0.368775    35. 0.281617  || 0.650393 

Voltage channels:
  RANGE: 3.65  -  3.85
ELMB Channel 36:   3.740 V   [V AN_POS dtmroc 1]
ELMB Channel 37:   3.773 V   [V AN_POS dtmroc 2]
ELMB Channel 38:   3.765 V   [V AN_POS dtmroc 3]
ELMB Channel 39:   3.740 V   [V AN_POS dtmroc 4]
ELMB Channel 40:   3.765 V   [V AN_POS dtmroc 5]
ELMB Channel 41:   3.768 V   [V AN_POS dtmroc 5]
ELMB Channel 42:   3.742 V   [V AN_POS dtmroc 6]
ELMB Channel 43:   3.731 V   [V AN_POS dtmroc 6]
  RANGE: 3.50  -  3.70
ELMB Channel 44:   -3.563 V   [V AN_NEG dtmroc 1]
ELMB Channel 45:   -3.578 V   [V AN_NEG dtmroc 2]
ELMB Channel 46:   -3.606 V   [V AN_NEG dtmroc 3]
ELMB Channel 47:   -3.575 V   [V AN_NEG dtmroc 4]
ELMB Channel 48:   -3.568 V   [V AN_NEG dtmroc 5]
ELMB Channel 49:   -3.582 V   [V AN_NEG dtmroc 5]
ELMB Channel 50:   -3.560 V   [V AN_NEG dtmroc 6]
ELMB Channel 51:   -3.559 V   [V AN_NEG dtmroc 6]
  RANGE: 3.10  -  3.30
ELMB Channel 52:   3.208 V   [V DIGI dtmroc 9]
ELMB Channel 53:   3.268 V   [V DIGI dtmroc 10]
ELMB Channel 54:   3.254 V   [V DIGI dtmroc 11]
ELMB Channel 55:   3.223 V   [V DIGI dtmroc 12]
ELMB Channel 56:   3.215 V   [V DIGI dtmroc 13]
ELMB Channel 57:   3.193 V   [V DIGI dtmroc 13]
ELMB Channel 58:   3.222 V   [V DIGI dtmroc 14]
ELMB Channel 59:   3.215 V   [V DIGI dtmroc 14]

Temperature channels:
Channel 60, temperature 47.40
Channel 61, temperature 48.42
Channel 62, temperature 48.36
Channel 63, temperature 47.19

 Loop: 14
DAC Settings:

Analog Positive 
                     DAC I1       DAC I2     Delta (DAC I1 - DAC I2)

Supply Channel 1:           128 [80]    142 [8E]             -14
Supply Channel 2:           128 [80]    120 [78]             8
Supply Channel 3:           128 [80]    118 [76]             10
Supply Channel 4:           128 [80]    142 [8E]             -14
Supply Channel 5:           128 [80]    126 [7E]             2
Supply Channel 6:           128 [80]    128 [80]             0

Analog Negative 
                     DAC I1       DAC I2     Delta (DAC I1 - DAC I2)

Supply Channel 1:   128 [80]     128 [80]             0
Supply Channel 2:   128 [80]     114 [72]             14
Supply Channel 3:   128 [80]     142 [8E]             -14
Supply Channel 4:   128 [80]     114 [72]             14
Supply Channel 5:   128 [80]     114 [72]             14
Supply Channel 6:   128 [80]     126 [7E]             2

Digital 
                     DAC I1       DAC I2     Delta (DAC I1 - DAC I2)

Supply Channel 1:   128 [80]     134 [86]             -6
Supply Channel 2:   128 [80]     128 [80]             0
Supply Channel 3:   128 [80]     126 [7E]             2
Supply Channel 4:   128 [80]     132 [84]             -4
Supply Channel 5:   128 [80]     132 [84]             -4
Supply Channel 6:   128 [80]     136 [88]             -8

Current channels
  RANGE: 0.65  -  0.85
******** 0. 0.068300    1. 0.693857  || 0.762157 
******** 2. 0.397298    3. 0.387994  || 0.785291 
******** 4. 0.439369    5. 0.363441  || 0.802810 
******** 6. 0.324273    7. 0.440682  || 0.764955 
******** 8. 0.414833    9. 0.382552  || 0.797385 
******** 10. 0.333188    11. 0.391513  || 0.724701 
  RANGE: 0.65  -  0.85
******** 12. 0.387762    13. 0.369654  || 0.757415 
******** 14. 0.063360    15. 0.649192  || 0.712552 
******** 16. 0.437770    17. 0.242975  || 0.680744 
******** 18. 0.237164    19. 0.487021  || 0.724186 
******** 20. 0.253113    21. 0.496933  || 0.750047 
******** 22. 0.366256    23. 0.365601  || 0.731857 
  RANGE: 0.55  -  0.75
******** 24. 0.275353    25. 0.371460  || 0.646813 
******** 26. 0.368954    27. 0.256649  || 0.625604 
******** 28. 0.398743    29. 0.254358  || 0.653101 
******** 30. 0.335163    31. 0.294112  || 0.629275 
******** 32. 0.325504    33. 0.306177  || 0.631681 
******** 34. 0.292500    35. 0.357807  || 0.650307 

Voltage channels:
  RANGE: 3.65  -  3.85
ELMB Channel 36:   3.739 V   [V AN_POS dtmroc 1]
ELMB Channel 37:   3.773 V   [V AN_POS dtmroc 2]
ELMB Channel 38:   3.765 V   [V AN_POS dtmroc 3]
ELMB Channel 39:   3.739 V   [V AN_POS dtmroc 4]
ELMB Channel 40:   3.765 V   [V AN_POS dtmroc 5]
ELMB Channel 41:   3.767 V   [V AN_POS dtmroc 5]
ELMB Channel 42:   3.743 V   [V AN_POS dtmroc 6]
ELMB Channel 43:   3.732 V   [V AN_POS dtmroc 6]
  RANGE: 3.50  -  3.70
ELMB Channel 44:   -3.562 V   [V AN_NEG dtmroc 1]
ELMB Channel 45:   -3.576 V   [V AN_NEG dtmroc 2]
ELMB Channel 46:   -3.608 V   [V AN_NEG dtmroc 3]
ELMB Channel 47:   -3.573 V   [V AN_NEG dtmroc 4]
ELMB Channel 48:   -3.568 V   [V AN_NEG dtmroc 5]
ELMB Channel 49:   -3.580 V   [V AN_NEG dtmroc 5]
ELMB Channel 50:   -3.562 V   [V AN_NEG dtmroc 6]
ELMB Channel 51:   -3.562 V   [V AN_NEG dtmroc 6]
  RANGE: 3.10  -  3.30
ELMB Channel 52:   3.210 V   [V DIGI dtmroc 9]
ELMB Channel 53:   3.266 V   [V DIGI dtmroc 10]
ELMB Channel 54:   3.253 V   [V DIGI dtmroc 11]
ELMB Channel 55:   3.223 V   [V DIGI dtmroc 12]
ELMB Channel 56:   3.213 V   [V DIGI dtmroc 13]
ELMB Channel 57:   3.190 V   [V DIGI dtmroc 13]
ELMB Channel 58:   3.223 V   [V DIGI dtmroc 14]
ELMB Channel 59:   3.219 V   [V DIGI dtmroc 14]

Temperature channels:
Channel 60, temperature 47.57
Channel 61, temperature 48.58
Channel 62, temperature 48.52
Channel 63, temperature 47.35

 Loop: 15
DAC Settings:

Analog Positive 
                     DAC I1       DAC I2     Delta (DAC I1 - DAC I2)

Supply Channel 1:           128 [80]    143 [8F]             -15
Supply Channel 2:           128 [80]    119 [77]             9
Supply Channel 3:           128 [80]    117 [75]             11
Supply Channel 4:           128 [80]    143 [8F]             -15
Supply Channel 5:           128 [80]    125 [7D]             3
Supply Channel 6:           128 [80]    129 [81]             -1

Analog Negative 
                     DAC I1       DAC I2     Delta (DAC I1 - DAC I2)

Supply Channel 1:   128 [80]     129 [81]             -1
Supply Channel 2:   128 [80]     113 [71]             15
Supply Channel 3:   128 [80]     143 [8F]             -15
Supply Channel 4:   128 [80]     113 [71]             15
Supply Channel 5:   128 [80]     113 [71]             15
Supply Channel 6:   128 [80]     127 [7F]             1

Digital 
                     DAC I1       DAC I2     Delta (DAC I1 - DAC I2)

Supply Channel 1:   128 [80]     135 [87]             -7
Supply Channel 2:   128 [80]     127 [7F]             1
Supply Channel 3:   128 [80]     125 [7D]             3
Supply Channel 4:   128 [80]     131 [83]             -3
Supply Channel 5:   128 [80]     131 [83]             -3
Supply Channel 6:   128 [80]     137 [89]             -9

Current channels
  RANGE: 0.65  -  0.85
******** 0. 0.114182    1. 0.644977  || 0.759159 
******** 2. 0.345374    3. 0.439864  || 0.785239 
******** 4. 0.390531    5. 0.412212  || 0.802743 
******** 6. 0.366980    7. 0.401026  || 0.768006 
******** 8. 0.369039    9. 0.431167  || 0.800206 
******** 10. 0.385103    11. 0.342790  || 0.727893 
  RANGE: 0.65  -  0.85
******** 12. 0.329835    13. 0.430617  || 0.760452 
******** 14. 0.115499    15. 0.597469  || 0.712968 
******** 16. 0.382519    17. 0.301140  || 0.683659 
******** 18. 0.289109    19. 0.432039  || 0.721148 
******** 20. 0.304850    21. 0.444944  || 0.749794 
******** 22. 0.308025    23. 0.423514  || 0.731539 
  RANGE: 0.55  -  0.75
******** 24. 0.363881    25. 0.283020  || 0.646901 
******** 26. 0.268285    27. 0.357260  || 0.625545 
******** 28. 0.316320    29. 0.336741  || 0.653061 
******** 30. 0.258994    31. 0.373419  || 0.632412 
******** 32. 0.249096    33. 0.381600  || 0.630697 
******** 34. 0.368769    35. 0.281597  || 0.650366 

Voltage channels:
  RANGE: 3.65  -  3.85
ELMB Channel 36:   3.738 V   [V AN_POS dtmroc 1]
ELMB Channel 37:   3.774 V   [V AN_POS dtmroc 2]
ELMB Channel 38:   3.766 V   [V AN_POS dtmroc 3]
ELMB Channel 39:   3.739 V   [V AN_POS dtmroc 4]
ELMB Channel 40:   3.765 V   [V AN_POS dtmroc 5]
ELMB Channel 41:   3.768 V   [V AN_POS dtmroc 5]
ELMB Channel 42:   3.742 V   [V AN_POS dtmroc 6]
ELMB Channel 43:   3.731 V   [V AN_POS dtmroc 6]
  RANGE: 3.50  -  3.70
ELMB Channel 44:   -3.563 V   [V AN_NEG dtmroc 1]
ELMB Channel 45:   -3.575 V   [V AN_NEG dtmroc 2]
ELMB Channel 46:   -3.609 V   [V AN_NEG dtmroc 3]
ELMB Channel 47:   -3.573 V   [V AN_NEG dtmroc 4]
ELMB Channel 48:   -3.567 V   [V AN_NEG dtmroc 5]
ELMB Channel 49:   -3.578 V   [V AN_NEG dtmroc 5]
ELMB Channel 50:   -3.563 V   [V AN_NEG dtmroc 6]
ELMB Channel 51:   -3.564 V   [V AN_NEG dtmroc 6]
  RANGE: 3.10  -  3.30
ELMB Channel 52:   3.209 V   [V DIGI dtmroc 9]
ELMB Channel 53:   3.268 V   [V DIGI dtmroc 10]
ELMB Channel 54:   3.255 V   [V DIGI dtmroc 11]
ELMB Channel 55:   3.224 V   [V DIGI dtmroc 12]
ELMB Channel 56:   3.215 V   [V DIGI dtmroc 13]
ELMB Channel 57:   3.194 V   [V DIGI dtmroc 13]
ELMB Channel 58:   3.222 V   [V DIGI dtmroc 14]
ELMB Channel 59:   3.216 V   [V DIGI dtmroc 14]

Temperature channels:
Channel 60, temperature 47.72
Channel 61, temperature 48.71
Channel 62, temperature 48.64
Channel 63, temperature 47.51

 Loop: 16
DAC Settings:

Analog Positive 
                     DAC I1       DAC I2     Delta (DAC I1 - DAC I2)

Supply Channel 1:           128 [80]    144 [90]             -16
Supply Channel 2:           128 [80]    120 [78]             8
Supply Channel 3:           128 [80]    118 [76]             10
Supply Channel 4:           128 [80]    144 [90]             -16
Supply Channel 5:           128 [80]    126 [7E]             2
Supply Channel 6:           128 [80]    128 [80]             0

Analog Negative 
                     DAC I1       DAC I2     Delta (DAC I1 - DAC I2)

Supply Channel 1:   128 [80]     128 [80]             0
Supply Channel 2:   128 [80]     112 [70]             16
Supply Channel 3:   128 [80]     144 [90]             -16
Supply Channel 4:   128 [80]     112 [70]             16
Supply Channel 5:   128 [80]     112 [70]             16
Supply Channel 6:   128 [80]     126 [7E]             2

Digital 
                     DAC I1       DAC I2     Delta (DAC I1 - DAC I2)

Supply Channel 1:   128 [80]     134 [86]             -6
Supply Channel 2:   128 [80]     128 [80]             0
Supply Channel 3:   128 [80]     126 [7E]             2
Supply Channel 4:   128 [80]     132 [84]             -4
Supply Channel 5:   128 [80]     132 [84]             -4
Supply Channel 6:   128 [80]     136 [88]             -8

Current channels
  RANGE: 0.65  -  0.85
******** 0. 0.163045    1. 0.596191  || 0.759236 
******** 2. 0.394190    3. 0.391084  || 0.785274 
******** 4. 0.439356    5. 0.366431  || 0.805788 
******** 6. 0.409694    7. 0.358415  || 0.768109 
******** 8. 0.417833    9. 0.385515  || 0.803347 
******** 10. 0.336227    11. 0.394562  || 0.730789 
  RANGE: 0.65  -  0.85
******** 12. 0.387835    13. 0.369617  || 0.757452 
******** 14. 0.170518    15. 0.542658  || 0.713176 
******** 16. 0.324433    17. 0.359262  || 0.683695 
******** 18. 0.344141    19. 0.377191  || 0.721333 
******** 20. 0.359808    21. 0.389970  || 0.749778 
******** 22. 0.366199    23. 0.362488  || 0.728688 
  RANGE: 0.55  -  0.75
******** 24. 0.272232    25. 0.371416  || 0.643648 
******** 26. 0.368954    27. 0.256649  || 0.625604 
******** 28. 0.401755    29. 0.251266  || 0.653021 
******** 30. 0.332103    31. 0.297099  || 0.629202 
******** 32. 0.325450    33. 0.306177  || 0.631627 
******** 34. 0.292513    35. 0.354717  || 0.647229 

Voltage channels:
  RANGE: 3.65  -  3.85
ELMB Channel 36:   3.737 V   [V AN_POS dtmroc 1]
ELMB Channel 37:   3.773 V   [V AN_POS dtmroc 2]
ELMB Channel 38:   3.765 V   [V AN_POS dtmroc 3]
ELMB Channel 39:   3.738 V   [V AN_POS dtmroc 4]
ELMB Channel 40:   3.765 V   [V AN_POS dtmroc 5]
ELMB Channel 41:   3.767 V   [V AN_POS dtmroc 5]
ELMB Channel 42:   3.743 V   [V AN_POS dtmroc 6]
ELMB Channel 43:   3.733 V   [V AN_POS dtmroc 6]
  RANGE: 3.50  -  3.70
ELMB Channel 44:   -3.563 V   [V AN_NEG dtmroc 1]
ELMB Channel 45:   -3.574 V   [V AN_NEG dtmroc 2]
ELMB Channel 46:   -3.610 V   [V AN_NEG dtmroc 3]
ELMB Channel 47:   -3.572 V   [V AN_NEG dtmroc 4]
ELMB Channel 48:   -3.566 V   [V AN_NEG dtmroc 5]
ELMB Channel 49:   -3.576 V   [V AN_NEG dtmroc 5]
ELMB Channel 50:   -3.562 V   [V AN_NEG dtmroc 6]
ELMB Channel 51:   -3.562 V   [V AN_NEG dtmroc 6]
  RANGE: 3.10  -  3.30
ELMB Channel 52:   3.211 V   [V DIGI dtmroc 9]
ELMB Channel 53:   3.266 V   [V DIGI dtmroc 10]
ELMB Channel 54:   3.253 V   [V DIGI dtmroc 11]
ELMB Channel 55:   3.223 V   [V DIGI dtmroc 12]
ELMB Channel 56:   3.214 V   [V DIGI dtmroc 13]
ELMB Channel 57:   3.190 V   [V DIGI dtmroc 13]
ELMB Channel 58:   3.224 V   [V DIGI dtmroc 14]
ELMB Channel 59:   3.219 V   [V DIGI dtmroc 14]

Temperature channels:
Channel 60, temperature 47.86
Channel 61, temperature 48.84
Channel 62, temperature 48.80
Channel 63, temperature 47.69

 Loop: 17
DAC Settings:

Analog Positive 
                     DAC I1       DAC I2     Delta (DAC I1 - DAC I2)

Supply Channel 1:           128 [80]    145 [91]             -17
Supply Channel 2:           128 [80]    119 [77]             9
Supply Channel 3:           128 [80]    117 [75]             11
Supply Channel 4:           128 [80]    143 [8F]             -15
Supply Channel 5:           128 [80]    125 [7D]             3
Supply Channel 6:           128 [80]    129 [81]             -1

Analog Negative 
                     DAC I1       DAC I2     Delta (DAC I1 - DAC I2)

Supply Channel 1:   128 [80]     129 [81]             -1
Supply Channel 2:   128 [80]     111 [6F]             17
Supply Channel 3:   128 [80]     143 [8F]             -15
Supply Channel 4:   128 [80]     111 [6F]             17
Supply Channel 5:   128 [80]     111 [6F]             17
Supply Channel 6:   128 [80]     125 [7D]             3

Digital 
                     DAC I1       DAC I2     Delta (DAC I1 - DAC I2)

Supply Channel 1:   128 [80]     135 [87]             -7
Supply Channel 2:   128 [80]     127 [7F]             1
Supply Channel 3:   128 [80]     125 [7D]             3
Supply Channel 4:   128 [80]     131 [83]             -3
Supply Channel 5:   128 [80]     131 [83]             -3
Supply Channel 6:   128 [80]     137 [89]             -9

Current channels
  RANGE: 0.65  -  0.85
******** 0. 0.208886    1. 0.550401  || 0.759287 
******** 2. 0.345366    3. 0.439855  || 0.785221 
******** 4. 0.390544    5. 0.415321  || 0.805865 
******** 6. 0.363973    7. 0.400982  || 0.764955 
******** 8. 0.369046    9. 0.431131  || 0.800177 
******** 10. 0.385103    11. 0.345815  || 0.730918 
  RANGE: 0.65  -  0.85
******** 12. 0.329891    13. 0.430589  || 0.760480 
******** 14. 0.228817    15. 0.481881  || 0.710698 
******** 16. 0.376482    17. 0.304098  || 0.680580 
******** 18. 0.402272    19. 0.319243  || 0.721515 
******** 20. 0.411646    21. 0.337951  || 0.749597 
******** 22. 0.424372    23. 0.301563  || 0.725934 
  RANGE: 0.55  -  0.75
******** 24. 0.363881    25. 0.283020  || 0.646901 
******** 26. 0.268281    27. 0.357272  || 0.625553 
******** 28. 0.316326    29. 0.336745  || 0.653071 
******** 30. 0.259023    31. 0.376525  || 0.635548 
******** 32. 0.246096    33. 0.381747  || 0.627843 
******** 34. 0.368762    35. 0.281628  || 0.650390 

Voltage channels:
  RANGE: 3.65  -  3.85
ELMB Channel 36:   3.736 V   [V AN_POS dtmroc 1]
ELMB Channel 37:   3.774 V   [V AN_POS dtmroc 2]
ELMB Channel 38:   3.766 V   [V AN_POS dtmroc 3]
ELMB Channel 39:   3.739 V   [V AN_POS dtmroc 4]
ELMB Channel 40:   3.765 V   [V AN_POS dtmroc 5]
ELMB Channel 41:   3.769 V   [V AN_POS dtmroc 5]
ELMB Channel 42:   3.742 V   [V AN_POS dtmroc 6]
ELMB Channel 43:   3.731 V   [V AN_POS dtmroc 6]
  RANGE: 3.50  -  3.70
ELMB Channel 44:   -3.564 V   [V AN_NEG dtmroc 1]
ELMB Channel 45:   -3.572 V   [V AN_NEG dtmroc 2]
ELMB Channel 46:   -3.609 V   [V AN_NEG dtmroc 3]
ELMB Channel 47:   -3.571 V   [V AN_NEG dtmroc 4]
ELMB Channel 48:   -3.565 V   [V AN_NEG dtmroc 5]
ELMB Channel 49:   -3.574 V   [V AN_NEG dtmroc 5]
ELMB Channel 50:   -3.561 V   [V AN_NEG dtmroc 6]
ELMB Channel 51:   -3.560 V   [V AN_NEG dtmroc 6]
  RANGE: 3.10  -  3.30
ELMB Channel 52:   3.209 V   [V DIGI dtmroc 9]
ELMB Channel 53:   3.268 V   [V DIGI dtmroc 10]
ELMB Channel 54:   3.254 V   [V DIGI dtmroc 11]
ELMB Channel 55:   3.224 V   [V DIGI dtmroc 12]
ELMB Channel 56:   3.215 V   [V DIGI dtmroc 13]
ELMB Channel 57:   3.194 V   [V DIGI dtmroc 13]
ELMB Channel 58:   3.221 V   [V DIGI dtmroc 14]
ELMB Channel 59:   3.215 V   [V DIGI dtmroc 14]

Temperature channels:
Channel 60, temperature 47.99
Channel 61, temperature 48.95
Channel 62, temperature 48.91
Channel 63, temperature 47.78

 Loop: 18
DAC Settings:

Analog Positive 
                     DAC I1       DAC I2     Delta (DAC I1 - DAC I2)

Supply Channel 1:           128 [80]    146 [92]             -18
Supply Channel 2:           128 [80]    120 [78]             8
Supply Channel 3:           128 [80]    118 [76]             10
Supply Channel 4:           128 [80]    144 [90]             -16
Supply Channel 5:           128 [80]    126 [7E]             2
Supply Channel 6:           128 [80]    128 [80]             0

Analog Negative 
                     DAC I1       DAC I2     Delta (DAC I1 - DAC I2)

Supply Channel 1:   128 [80]     128 [80]             0
Supply Channel 2:   128 [80]     110 [6E]             18
Supply Channel 3:   128 [80]     144 [90]             -16
Supply Channel 4:   128 [80]     112 [70]             16
Supply Channel 5:   128 [80]     112 [70]             16
Supply Channel 6:   128 [80]     126 [7E]             2

Digital 
                     DAC I1       DAC I2     Delta (DAC I1 - DAC I2)

Supply Channel 1:   128 [80]     134 [86]             -6
Supply Channel 2:   128 [80]     128 [80]             0
Supply Channel 3:   128 [80]     126 [7E]             2
Supply Channel 4:   128 [80]     132 [84]             -4
Supply Channel 5:   128 [80]     132 [84]             -4
Supply Channel 6:   128 [80]     136 [88]             -8

Current channels
  RANGE: 0.65  -  0.85
******** 0. 0.257728    1. 0.498511  || 0.756238 
******** 2. 0.394198    3. 0.391094  || 0.785291 
******** 4. 0.436269    5. 0.366441  || 0.802710 
******** 6. 0.406694    7. 0.358415  || 0.765109 
******** 8. 0.417820    9. 0.385515  || 0.803334 
******** 10. 0.333227    11. 0.394588  || 0.727815 
  RANGE: 0.65  -  0.85
******** 12. 0.387817    13. 0.372626  || 0.760443 
******** 14. 0.286817    15. 0.426881  || 0.713698 
******** 16. 0.327308    17. 0.356245  || 0.683553 
******** 18. 0.344141    19. 0.374091  || 0.718233 
******** 20. 0.356708    21. 0.392970  || 0.749678 
******** 22. 0.363041    23. 0.368676  || 0.731717 
  RANGE: 0.55  -  0.75
******** 24. 0.275339    25. 0.371431  || 0.646770 
******** 26. 0.368959    27. 0.256637  || 0.625595 
******** 28. 0.401749    29. 0.251262  || 0.653011 
******** 30. 0.332103    31. 0.300199  || 0.632302 
******** 32. 0.322422    33. 0.306105  || 0.628527 
******** 34. 0.292500    35. 0.357827  || 0.650327 

Voltage channels:
  RANGE: 3.65  -  3.85
ELMB Channel 36:   3.735 V   [V AN_POS dtmroc 1]
ELMB Channel 37:   3.773 V   [V AN_POS dtmroc 2]
ELMB Channel 38:   3.765 V   [V AN_POS dtmroc 3]
ELMB Channel 39:   3.738 V   [V AN_POS dtmroc 4]
ELMB Channel 40:   3.764 V   [V AN_POS dtmroc 5]
ELMB Channel 41:   3.767 V   [V AN_POS dtmroc 5]
ELMB Channel 42:   3.743 V   [V AN_POS dtmroc 6]
ELMB Channel 43:   3.732 V   [V AN_POS dtmroc 6]
  RANGE: 3.50  -  3.70
ELMB Channel 44:   -3.563 V   [V AN_NEG dtmroc 1]
ELMB Channel 45:   -3.572 V   [V AN_NEG dtmroc 2]
ELMB Channel 46:   -3.611 V   [V AN_NEG dtmroc 3]
ELMB Channel 47:   -3.572 V   [V AN_NEG dtmroc 4]
ELMB Channel 48:   -3.566 V   [V AN_NEG dtmroc 5]
ELMB Channel 49:   -3.576 V   [V AN_NEG dtmroc 5]
ELMB Channel 50:   -3.562 V   [V AN_NEG dtmroc 6]
ELMB Channel 51:   -3.563 V   [V AN_NEG dtmroc 6]
  RANGE: 3.10  -  3.30
ELMB Channel 52:   3.211 V   [V DIGI dtmroc 9]
ELMB Channel 53:   3.266 V   [V DIGI dtmroc 10]
ELMB Channel 54:   3.253 V   [V DIGI dtmroc 11]
ELMB Channel 55:   3.223 V   [V DIGI dtmroc 12]
ELMB Channel 56:   3.213 V   [V DIGI dtmroc 13]
ELMB Channel 57:   3.191 V   [V DIGI dtmroc 13]
ELMB Channel 58:   3.223 V   [V DIGI dtmroc 14]
ELMB Channel 59:   3.218 V   [V DIGI dtmroc 14]

Temperature channels:
Channel 60, temperature 48.08
Channel 61, temperature 49.06
Channel 62, temperature 49.02
Channel 63, temperature 47.90

 Loop: 19
DAC Settings:

Analog Positive 
                     DAC I1       DAC I2     Delta (DAC I1 - DAC I2)

Supply Channel 1:           128 [80]    147 [93]             -19
Supply Channel 2:           128 [80]    119 [77]             9
Supply Channel 3:           128 [80]    117 [75]             11
Supply Channel 4:           128 [80]    143 [8F]             -15
Supply Channel 5:           128 [80]    125 [7D]             3
Supply Channel 6:           128 [80]    129 [81]             -1

Analog Negative 
                     DAC I1       DAC I2     Delta (DAC I1 - DAC I2)

Supply Channel 1:   128 [80]     129 [81]             -1
Supply Channel 2:   128 [80]     109 [6D]             19
Supply Channel 3:   128 [80]     143 [8F]             -15
Supply Channel 4:   128 [80]     111 [6F]             17
Supply Channel 5:   128 [80]     111 [6F]             17
Supply Channel 6:   128 [80]     127 [7F]             1

Digital 
                     DAC I1       DAC I2     Delta (DAC I1 - DAC I2)

Supply Channel 1:   128 [80]     135 [87]             -7
Supply Channel 2:   128 [80]     127 [7F]             1
Supply Channel 3:   128 [80]     125 [7D]             3
Supply Channel 4:   128 [80]     131 [83]             -3
Supply Channel 5:   128 [80]     131 [83]             -3
Supply Channel 6:   128 [80]     137 [89]             -9

Current channels
  RANGE: 0.65  -  0.85
******** 0. 0.309669    1. 0.449720  || 0.759389 
******** 2. 0.345366    3. 0.439855  || 0.785221 
******** 4. 0.390544    5. 0.412221  || 0.802765 
******** 6. 0.363973    7. 0.400982  || 0.764955 
******** 8. 0.372033    9. 0.431167  || 0.803200 
******** 10. 0.379003    11. 0.342841  || 0.721844 
  RANGE: 0.65  -  0.85
******** 12. 0.333009    13. 0.427580  || 0.760589 
******** 14. 0.348116    15. 0.363104  || 0.711220 
******** 16. 0.382394    17. 0.301222  || 0.683616 
******** 18. 0.396129    19. 0.325326  || 0.721455 
******** 20. 0.414624    21. 0.334981  || 0.749605 
******** 22. 0.307910    23. 0.423476  || 0.731386 
  RANGE: 0.55  -  0.75
******** 24. 0.363867    25. 0.282990  || 0.646857 
******** 26. 0.268281    27. 0.357272  || 0.625553 
******** 28. 0.319326    29. 0.336745  || 0.656071 
******** 30. 0.256023    31. 0.376525  || 0.632548 
******** 32. 0.249114    33. 0.381747  || 0.630860 
******** 34. 0.368775    35. 0.278508  || 0.647283 

Voltage channels:
  RANGE: 3.65  -  3.85
ELMB Channel 36:   3.735 V   [V AN_POS dtmroc 1]
ELMB Channel 37:   3.774 V   [V AN_POS dtmroc 2]
ELMB Channel 38:   3.766 V   [V AN_POS dtmroc 3]
ELMB Channel 39:   3.739 V   [V AN_POS dtmroc 4]
ELMB Channel 40:   3.765 V   [V AN_POS dtmroc 5]
ELMB Channel 41:   3.768 V   [V AN_POS dtmroc 5]
ELMB Channel 42:   3.742 V   [V AN_POS dtmroc 6]
ELMB Channel 43:   3.730 V   [V AN_POS dtmroc 6]
  RANGE: 3.50  -  3.70
ELMB Channel 44:   -3.565 V   [V AN_NEG dtmroc 1]
ELMB Channel 45:   -3.571 V   [V AN_NEG dtmroc 2]
ELMB Channel 46:   -3.610 V   [V AN_NEG dtmroc 3]
ELMB Channel 47:   -3.571 V   [V AN_NEG dtmroc 4]
ELMB Channel 48:   -3.564 V   [V AN_NEG dtmroc 5]
ELMB Channel 49:   -3.574 V   [V AN_NEG dtmroc 5]
ELMB Channel 50:   -3.564 V   [V AN_NEG dtmroc 6]
ELMB Channel 51:   -3.566 V   [V AN_NEG dtmroc 6]
  RANGE: 3.10  -  3.30
ELMB Channel 52:   3.209 V   [V DIGI dtmroc 9]
ELMB Channel 53:   3.268 V   [V DIGI dtmroc 10]
ELMB Channel 54:   3.254 V   [V DIGI dtmroc 11]
ELMB Channel 55:   3.224 V   [V DIGI dtmroc 12]
ELMB Channel 56:   3.215 V   [V DIGI dtmroc 13]
ELMB Channel 57:   3.194 V   [V DIGI dtmroc 13]
ELMB Channel 58:   3.222 V   [V DIGI dtmroc 14]
ELMB Channel 59:   3.216 V   [V DIGI dtmroc 14]

Temperature channels:
Channel 60, temperature 48.18
Channel 61, temperature 49.15
Channel 62, temperature 49.20
Channel 63, temperature 48.02

 Loop: 20
DAC Settings:

Analog Positive 
                     DAC I1       DAC I2     Delta (DAC I1 - DAC I2)

Supply Channel 1:           128 [80]    148 [94]             -20
Supply Channel 2:           128 [80]    120 [78]             8
Supply Channel 3:           128 [80]    118 [76]             10
Supply Channel 4:           128 [80]    144 [90]             -16
Supply Channel 5:           128 [80]    126 [7E]             2
Supply Channel 6:           128 [80]    128 [80]             0

Analog Negative 
                     DAC I1       DAC I2     Delta (DAC I1 - DAC I2)

Supply Channel 1:   128 [80]     128 [80]             0
Supply Channel 2:   128 [80]     108 [6C]             20
Supply Channel 3:   128 [80]     144 [90]             -16
Supply Channel 4:   128 [80]     112 [70]             16
Supply Channel 5:   128 [80]     112 [70]             16
Supply Channel 6:   128 [80]     126 [7E]             2

Digital 
                     DAC I1       DAC I2     Delta (DAC I1 - DAC I2)

Supply Channel 1:   128 [80]     134 [86]             -6
Supply Channel 2:   128 [80]     128 [80]             0
Supply Channel 3:   128 [80]     126 [7E]             2
Supply Channel 4:   128 [80]     132 [84]             -4
Supply Channel 5:   128 [80]     132 [84]             -4
Supply Channel 6:   128 [80]     136 [88]             -8

Current channels
  RANGE: 0.65  -  0.85
******** 0. 0.352511    1. 0.403930  || 0.756441 
******** 2. 0.394182    3. 0.391074  || 0.785256 
******** 4. 0.436269    5. 0.366441  || 0.802710 
******** 6. 0.406694    7. 0.361415  || 0.768109 
******** 8. 0.417820    9. 0.382515  || 0.800334 
******** 10. 0.333227    11. 0.394562  || 0.727789 
  RANGE: 0.65  -  0.85
******** 12. 0.390935    13. 0.369617  || 0.760552 
******** 14. 0.406235    15. 0.302093  || 0.708329 
******** 16. 0.327184    17. 0.356327  || 0.683510 
******** 18. 0.341141    19. 0.380191  || 0.721333 
******** 20. 0.359829    21. 0.390000  || 0.749829 
******** 22. 0.362868    23. 0.365576  || 0.728444 
  RANGE: 0.55  -  0.75
******** 24. 0.275339    25. 0.371431  || 0.646770 
******** 26. 0.368959    27. 0.256637  || 0.625595 
******** 28. 0.401761    29. 0.248271  || 0.650031 
******** 30. 0.332103    31. 0.300199  || 0.632302 
******** 32. 0.322404    33. 0.306105  || 0.628509 
******** 34. 0.292500    35. 0.354717  || 0.647217 

Voltage channels:
  RANGE: 3.65  -  3.85
ELMB Channel 36:   3.734 V   [V AN_POS dtmroc 1]
ELMB Channel 37:   3.773 V   [V AN_POS dtmroc 2]
ELMB Channel 38:   3.765 V   [V AN_POS dtmroc 3]
ELMB Channel 39:   3.738 V   [V AN_POS dtmroc 4]
ELMB Channel 40:   3.764 V   [V AN_POS dtmroc 5]
ELMB Channel 41:   3.767 V   [V AN_POS dtmroc 5]
ELMB Channel 42:   3.743 V   [V AN_POS dtmroc 6]
ELMB Channel 43:   3.733 V   [V AN_POS dtmroc 6]
  RANGE: 3.50  -  3.70
ELMB Channel 44:   -3.563 V   [V AN_NEG dtmroc 1]
ELMB Channel 45:   -3.570 V   [V AN_NEG dtmroc 2]
ELMB Channel 46:   -3.612 V   [V AN_NEG dtmroc 3]
ELMB Channel 47:   -3.572 V   [V AN_NEG dtmroc 4]
ELMB Channel 48:   -3.566 V   [V AN_NEG dtmroc 5]
ELMB Channel 49:   -3.577 V   [V AN_NEG dtmroc 5]
ELMB Channel 50:   -3.563 V   [V AN_NEG dtmroc 6]
ELMB Channel 51:   -3.563 V   [V AN_NEG dtmroc 6]
  RANGE: 3.10  -  3.30
ELMB Channel 52:   3.211 V   [V DIGI dtmroc 9]
ELMB Channel 53:   3.266 V   [V DIGI dtmroc 10]
ELMB Channel 54:   3.252 V   [V DIGI dtmroc 11]
ELMB Channel 55:   3.223 V   [V DIGI dtmroc 12]
ELMB Channel 56:   3.213 V   [V DIGI dtmroc 13]
ELMB Channel 57:   3.191 V   [V DIGI dtmroc 13]
ELMB Channel 58:   3.223 V   [V DIGI dtmroc 14]
ELMB Channel 59:   3.219 V   [V DIGI dtmroc 14]

Temperature channels:
Channel 60, temperature 48.28
Channel 61, temperature 49.27
Channel 62, temperature 49.24
Channel 63, temperature 48.14

 CARD 69: TEST is finished:  18.01.2011 22:52:58

 NO ERRORS  in   20 loops
