Calibration done: 27.03.2007 14:45:49,,
F487,,
Current channel, calibration factor,
0,-0.000117,-0.0427
1,0.001002,0.3753
2,-0.000715,-0.2685
3,0.001543,0.5798
4,-0.0001,-0.0366
5,0.000244,0.0915
6,0.00039,0.1495
7,0.000264,0.1007
8,0.000387,0.1464
9,-0.002022,-0.7629
10,-0.000215,-0.0823
11,-0.001757,-0.6653
12,-0.000162,0.0579
13,-0.000792,0.2838
14,0.000461,-0.1647
15,-0.00001,0.003
16,0.000812,-0.2929
17,-0.000259,0.0915
18,0.000675,-0.2441
19,0.001493,-0.5401
20,0.000764,-0.2746
21,-0.000948,0.3387
22,0.000029,-0.0122
23,0.000201,-0.0732
24,0.000354,0.1159
25,0.000094,0.0305
26,-0.000695,-0.2258
27,-0.000343,-0.1098
28,0.001397,0.4516
29,-0.000556,-0.18
30,-0.000871,-0.2807
31,0.000112,0.0366
32,-0.000717,-0.2319
33,-0.000213,-0.0701
34,-0.000047,-0.0152
35,-0.000008,-0.003
