=====================================================
Calibration: card TYPE Wheel A
=====================================================
Calibration File Name: C:\LVPP_TESTS\data\card_073\LVPP_CALIB_073.csv

Calibration started: 16.04.2007 12:26:56

Calibration file stored
Calibration started: 16.04.2007 12:28:18

