Calibration done: 14.05.2007 15:00:47,,
F766,,
Current channel, calibration factor,
0,-0.000022,-0.0122
1,0.000005,0
2,-0.000024,-0.0122
3,0.000007,0.003
4,0.000066,0.0244
5,-0.000001,-0.003
6,-0.000038,-0.0152
7,0,0
8,0.000048,0.0183
9,-0.000036,-0.0122
10,-0.000059,-0.0213
11,0.000024,0.0091
12,-0.000067,0.0244
13,0,0
14,-0.000053,0.0183
15,0,0
16,-0.00008,0.0274
17,-0.000004,0
18,-0.000089,0.0335
19,-0.000006,0
20,0.000029,-0.0122
21,0.00008,-0.0305
22,0.000062,-0.0244
23,0.000125,-0.0457
24,0.00001,0
25,0.000006,0.003
26,0.000001,-0.003
27,0.000001,0
28,0.000029,0.0122
29,-0.000001,0
30,-0.000007,0
31,0,0
32,0.000016,0.0091
33,0.000024,0.0061
34,-0.00027,-0.0793
35,-0.000051,-0.0152
