============================================
Check basic functions of a card TYPE A
============================================
Card Serial Number: 61
CALIBRATION FILE: C:\LVPP_TESTS\data\card_061\LVPP_CALIB_061.csv
Load: 5 ohms, valid current range: <0.520 A - 0.820 A> 
                temperature range: <15.10 C - 60.00 C> 

TEST is started: 14.10.2009 14:16:15

ELMB <7> init OK
ELMB NB: 7 Initializing of DTMROCS: 1 2 3 4 5 6 9 10 11 12 13 14 
Single Write/Read DACs 01 23 in all DTMROCS

Write to all DACs  - broadcast
Check set INHIBITS
Set all regulators ON one by one
Set all regulators OFF one by one
Set all regulators ON - BROADCAST
Set all regulators OFF - BROADCAST

Check ANALOG readout

Hard reset: all regulators are off, all DACs are set to 0xFF.

Current channels
******** 0. 0.003657    1. 0.002712  || 0.006369 
******** 2. 0.002604    3. 0.003473  || 0.006077 
******** 4. 0.000243    5. 0.000511  || 0.000754 
******** 6. 0.000091    7. 0.003111  || 0.003203 
******** 8. 0.000262    9. 0.003425  || 0.003687 
******** 10. 0.000097    11. 0.000188  || 0.000285 
******** 12. 0.000705    13. 0.000479  || 0.001184 
******** 14. 0.000124    15. 0.000138  || 0.000261 
******** 16. 0.009407    17. 0.003600  || 0.013007 
******** 18. 0.002700    19. 0.000064  || 0.002765 
******** 20. 0.002968    21. 0.009122  || 0.012090 
******** 22. 0.002990    23. 0.003035  || 0.006024 
******** 24. 0.003011    25. 0.002685  || 0.005696 
******** 26. 0.000216    27. 0.000269  || 0.000486 
******** 28. 0.000169    29. 0.000154  || 0.000322 
******** 30. 0.000181    31. 0.000358  || 0.000540 
******** 32. 0.002927    33. 0.002964  || 0.005891 
******** 34. 0.002713    35. 0.003093  || 0.005806 

Voltage channels:
ELMB Channel 36:   0.005 V   [V AN_POS dtmroc 1]
ELMB Channel 37:   0.005 V   [V AN_POS dtmroc 2]
ELMB Channel 38:   0.005 V   [V AN_POS dtmroc 3]
ELMB Channel 39:   0.004 V   [V AN_POS dtmroc 4]
ELMB Channel 40:   0.005 V   [V AN_POS dtmroc 5]
ELMB Channel 41:   0.004 V   [V AN_POS dtmroc 5]
ELMB Channel 42:   0.005 V   [V AN_POS dtmroc 6]
ELMB Channel 43:   0.005 V   [V AN_POS dtmroc 6]
ELMB Channel 44:   0.005 V   [V AN_NEG dtmroc 1]
ELMB Channel 45:   0.005 V   [V AN_NEG dtmroc 2]
ELMB Channel 46:   0.005 V   [V AN_NEG dtmroc 3]
ELMB Channel 47:   0.004 V   [V AN_NEG dtmroc 4]
ELMB Channel 48:   0.000 V   [V AN_NEG dtmroc 5]
ELMB Channel 49:   0.000 V   [V AN_NEG dtmroc 5]
ELMB Channel 50:   0.001 V   [V AN_NEG dtmroc 6]
ELMB Channel 51:   0.001 V   [V AN_NEG dtmroc 6]
ELMB Channel 52:   0.002 V   [V DIGI dtmroc 9]
ELMB Channel 53:   0.003 V   [V DIGI dtmroc 10]
ELMB Channel 54:   0.002 V   [V DIGI dtmroc 11]
ELMB Channel 55:   0.002 V   [V DIGI dtmroc 12]
ELMB Channel 56:   0.002 V   [V DIGI dtmroc 13]
ELMB Channel 57:   0.001 V   [V DIGI dtmroc 13]
ELMB Channel 58:   0.002 V   [V DIGI dtmroc 14]
ELMB Channel 59:   0.001 V   [V DIGI dtmroc 14]

Temperature channels:
Channel 60, temperature 43.65
Channel 61, temperature 44.01
Channel 62, temperature 44.81
Channel 63, temperature 43.19

Set all regulators ON

Current channels
******** 0. 0.747833    1. 0.002438  || 0.750271 
******** 2. 0.744474    3. 0.001257  || 0.745730 
******** 4. 0.749562    5. 0.001813  || 0.751375 
******** 6. 0.750101    7. 0.001223  || 0.751324 
******** 8. 0.748584    9. 0.002323  || 0.750907 
******** 10. 0.748051    11. 0.001032  || 0.749083 
******** 12. 0.743377    13. 0.000219  || 0.743596 
******** 14. 0.736003    15. 0.000737  || 0.736740 
******** 16. 0.737734    17. 0.000495  || 0.738229 
******** 18. 0.746431    19. 0.000115  || 0.746546 
******** 20. 0.752911    21. 0.000167  || 0.753078 
******** 22. 0.737913    23. 0.004705  || 0.742618 
******** 24. 0.750812    25. 0.021608  || 0.772419 
******** 26. 0.752581    27. 0.013830  || 0.766411 
******** 28. 0.757577    29. 0.011307  || 0.768885 
******** 30. 0.764968    31. 0.006574  || 0.771542 
******** 32. 0.764352    33. 0.004235  || 0.768587 
******** 34. 0.758757    35. 0.002932  || 0.761688 

Voltage channels:
ELMB Channel 36:   3.670 V   [V AN_POS dtmroc 1]
ELMB Channel 37:   3.657 V   [V AN_POS dtmroc 2]
ELMB Channel 38:   3.690 V   [V AN_POS dtmroc 3]
ELMB Channel 39:   3.662 V   [V AN_POS dtmroc 4]
ELMB Channel 40:   3.654 V   [V AN_POS dtmroc 5]
ELMB Channel 41:   3.634 V   [V AN_POS dtmroc 5]
ELMB Channel 42:   3.682 V   [V AN_POS dtmroc 6]
ELMB Channel 43:   3.677 V   [V AN_POS dtmroc 6]
ELMB Channel 44:   -3.620 V   [V AN_NEG dtmroc 1]
ELMB Channel 45:   -3.620 V   [V AN_NEG dtmroc 2]
ELMB Channel 46:   -3.633 V   [V AN_NEG dtmroc 3]
ELMB Channel 47:   -3.626 V   [V AN_NEG dtmroc 4]
ELMB Channel 48:   -3.704 V   [V AN_NEG dtmroc 5]
ELMB Channel 49:   -3.695 V   [V AN_NEG dtmroc 5]
ELMB Channel 50:   -3.627 V   [V AN_NEG dtmroc 6]
ELMB Channel 51:   -3.627 V   [V AN_NEG dtmroc 6]
ELMB Channel 52:   3.836 V   [V DIGI dtmroc 9]
ELMB Channel 53:   3.847 V   [V DIGI dtmroc 10]
ELMB Channel 54:   3.846 V   [V DIGI dtmroc 11]
ELMB Channel 55:   3.812 V   [V DIGI dtmroc 12]
ELMB Channel 56:   3.818 V   [V DIGI dtmroc 13]
ELMB Channel 57:   3.800 V   [V DIGI dtmroc 13]
ELMB Channel 58:   3.817 V   [V DIGI dtmroc 14]
ELMB Channel 59:   3.800 V   [V DIGI dtmroc 14]

Temperature channels:
Channel 60, temperature 43.61
Channel 61, temperature 43.79
Channel 62, temperature 44.59
Channel 63, temperature 43.03

Set all regulators ON

Current channels
******** 0. 0.000145    1. 0.751401  || 0.751546 
******** 2. 0.001528    3. 0.744317  || 0.745846 
******** 4. 0.000623    5. 0.746602  || 0.747225 
******** 6. 0.002168    7. 0.746660  || 0.748828 
******** 8. 0.001033    9. 0.740192  || 0.741225 
******** 10. 0.000890    11. 0.741832  || 0.742723 
******** 12. 0.001035    13. 0.748047  || 0.749081 
******** 14. 0.002139    15. 0.742474  || 0.744614 
******** 16. 0.001325    17. 0.733921  || 0.735246 
******** 18. 0.000210    19. 0.751709  || 0.751919 
******** 20. 0.000214    21. 0.737829  || 0.738043 
******** 22. 0.000705    23. 0.734580  || 0.735285 
******** 24. 0.009013    25. 0.745170  || 0.754183 
******** 26. 0.011455    27. 0.747556  || 0.759011 
******** 28. 0.012251    29. 0.753763  || 0.766013 
******** 30. 0.000205    31. 0.764189  || 0.764394 
******** 32. 0.010102    33. 0.764793  || 0.774894 
******** 34. 0.005058    35. 0.761453  || 0.766510 

Voltage channels:
ELMB Channel 36:   3.670 V   [V AN_POS dtmroc 1]
ELMB Channel 37:   3.637 V   [V AN_POS dtmroc 2]
ELMB Channel 38:   3.665 V   [V AN_POS dtmroc 3]
ELMB Channel 39:   3.673 V   [V AN_POS dtmroc 4]
ELMB Channel 40:   3.651 V   [V AN_POS dtmroc 5]
ELMB Channel 41:   3.644 V   [V AN_POS dtmroc 5]
ELMB Channel 42:   3.656 V   [V AN_POS dtmroc 6]
ELMB Channel 43:   3.659 V   [V AN_POS dtmroc 6]
ELMB Channel 44:   -3.618 V   [V AN_NEG dtmroc 1]
ELMB Channel 45:   -3.678 V   [V AN_NEG dtmroc 2]
ELMB Channel 46:   -3.618 V   [V AN_NEG dtmroc 3]
ELMB Channel 47:   -3.688 V   [V AN_NEG dtmroc 4]
ELMB Channel 48:   -3.629 V   [V AN_NEG dtmroc 5]
ELMB Channel 49:   -3.637 V   [V AN_NEG dtmroc 5]
ELMB Channel 50:   -3.634 V   [V AN_NEG dtmroc 6]
ELMB Channel 51:   -3.644 V   [V AN_NEG dtmroc 6]
ELMB Channel 52:   3.831 V   [V DIGI dtmroc 9]
ELMB Channel 53:   3.833 V   [V DIGI dtmroc 10]
ELMB Channel 54:   3.815 V   [V DIGI dtmroc 11]
ELMB Channel 55:   3.822 V   [V DIGI dtmroc 12]
ELMB Channel 56:   3.801 V   [V DIGI dtmroc 13]
ELMB Channel 57:   3.803 V   [V DIGI dtmroc 13]
ELMB Channel 58:   3.823 V   [V DIGI dtmroc 14]
ELMB Channel 59:   3.821 V   [V DIGI dtmroc 14]

Temperature channels:
Channel 60, temperature 43.57
Channel 61, temperature 43.79
Channel 62, temperature 44.59
Channel 63, temperature 43.03

Set all regulators ON

Current channels
******** 0. 0.747790    1. 0.002419  || 0.750209 
******** 2. 0.744446    3. 0.001223  || 0.745669 
******** 4. 0.749579    5. 0.001250  || 0.750829 
******** 6. 0.750108    7. 0.001231  || 0.751340 
******** 8. 0.748584    9. 0.002323  || 0.750907 
******** 10. 0.748051    11. 0.001032  || 0.749083 
******** 12. 0.743377    13. 0.002781  || 0.746158 
******** 14. 0.736012    15. 0.000728  || 0.736739 
******** 16. 0.740755    17. 0.000537  || 0.741292 
******** 18. 0.743431    19. 0.002985  || 0.746416 
******** 20. 0.752814    21. 0.000234  || 0.753048 
******** 22. 0.737903    23. 0.004688  || 0.742590 
******** 24. 0.750812    25. 0.024608  || 0.775419 
******** 26. 0.752581    27. 0.016930  || 0.769511 
******** 28. 0.757601    29. 0.011286  || 0.768887 
******** 30. 0.764968    31. 0.009574  || 0.774542 
******** 32. 0.764337    33. 0.007244  || 0.771581 
******** 34. 0.758757    35. 0.002932  || 0.761688 

Voltage channels:
ELMB Channel 36:   3.670 V   [V AN_POS dtmroc 1]
ELMB Channel 37:   3.658 V   [V AN_POS dtmroc 2]
ELMB Channel 38:   3.691 V   [V AN_POS dtmroc 3]
ELMB Channel 39:   3.662 V   [V AN_POS dtmroc 4]
ELMB Channel 40:   3.654 V   [V AN_POS dtmroc 5]
ELMB Channel 41:   3.634 V   [V AN_POS dtmroc 5]
ELMB Channel 42:   3.682 V   [V AN_POS dtmroc 6]
ELMB Channel 43:   3.677 V   [V AN_POS dtmroc 6]
ELMB Channel 44:   -3.620 V   [V AN_NEG dtmroc 1]
ELMB Channel 45:   -3.620 V   [V AN_NEG dtmroc 2]
ELMB Channel 46:   -3.633 V   [V AN_NEG dtmroc 3]
ELMB Channel 47:   -3.626 V   [V AN_NEG dtmroc 4]
ELMB Channel 48:   -3.705 V   [V AN_NEG dtmroc 5]
ELMB Channel 49:   -3.696 V   [V AN_NEG dtmroc 5]
ELMB Channel 50:   -3.627 V   [V AN_NEG dtmroc 6]
ELMB Channel 51:   -3.627 V   [V AN_NEG dtmroc 6]
ELMB Channel 52:   3.836 V   [V DIGI dtmroc 9]
ELMB Channel 53:   3.847 V   [V DIGI dtmroc 10]
ELMB Channel 54:   3.846 V   [V DIGI dtmroc 11]
ELMB Channel 55:   3.812 V   [V DIGI dtmroc 12]
ELMB Channel 56:   3.818 V   [V DIGI dtmroc 13]
ELMB Channel 57:   3.800 V   [V DIGI dtmroc 13]
ELMB Channel 58:   3.817 V   [V DIGI dtmroc 14]
ELMB Channel 59:   3.800 V   [V DIGI dtmroc 14]

Temperature channels:
Channel 60, temperature 43.64
Channel 61, temperature 44.27
Channel 62, temperature 44.79
Channel 63, temperature 43.25

Current channels
******** 0. 0.000145    1. 0.751401  || 0.751546 
******** 2. 0.001500    3. 0.744283  || 0.745783 
******** 4. 0.000606    5. 0.746565  || 0.747170 
******** 6. 0.002161    7. 0.749768  || 0.751930 
******** 8. 0.001052    9. 0.740160  || 0.741212 
******** 10. 0.002110    11. 0.738732  || 0.740842 
******** 12. 0.001129    13. 0.747983  || 0.749111 
******** 14. 0.002148    15. 0.742484  || 0.744632 
******** 16. 0.001347    17. 0.733963  || 0.735310 
******** 18. 0.003236    19. 0.751725  || 0.754960 
******** 20. 0.000150    21. 0.740951  || 0.741101 
******** 22. 0.002290    23. 0.734598  || 0.736888 
******** 24. 0.012113    25. 0.745170  || 0.757283 
******** 26. 0.011455    27. 0.747556  || 0.759011 
******** 28. 0.009151    29. 0.756863  || 0.766013 
******** 30. 0.000205    31. 0.764189  || 0.764394 
******** 32. 0.007087    33. 0.764802  || 0.771889 
******** 34. 0.005058    35. 0.761429  || 0.766487 

Voltage channels:
ELMB Channel 36:   3.670 V   [V AN_POS dtmroc 1]
ELMB Channel 37:   3.637 V   [V AN_POS dtmroc 2]
ELMB Channel 38:   3.664 V   [V AN_POS dtmroc 3]
ELMB Channel 39:   3.673 V   [V AN_POS dtmroc 4]
ELMB Channel 40:   3.651 V   [V AN_POS dtmroc 5]
ELMB Channel 41:   3.644 V   [V AN_POS dtmroc 5]
ELMB Channel 42:   3.656 V   [V AN_POS dtmroc 6]
ELMB Channel 43:   3.659 V   [V AN_POS dtmroc 6]
ELMB Channel 44:   -3.619 V   [V AN_NEG dtmroc 1]
ELMB Channel 45:   -3.679 V   [V AN_NEG dtmroc 2]
ELMB Channel 46:   -3.618 V   [V AN_NEG dtmroc 3]
ELMB Channel 47:   -3.689 V   [V AN_NEG dtmroc 4]
ELMB Channel 48:   -3.630 V   [V AN_NEG dtmroc 5]
ELMB Channel 49:   -3.638 V   [V AN_NEG dtmroc 5]
ELMB Channel 50:   -3.635 V   [V AN_NEG dtmroc 6]
ELMB Channel 51:   -3.644 V   [V AN_NEG dtmroc 6]
ELMB Channel 52:   3.831 V   [V DIGI dtmroc 9]
ELMB Channel 53:   3.833 V   [V DIGI dtmroc 10]
ELMB Channel 54:   3.815 V   [V DIGI dtmroc 11]
ELMB Channel 55:   3.822 V   [V DIGI dtmroc 12]
ELMB Channel 56:   3.800 V   [V DIGI dtmroc 13]
ELMB Channel 57:   3.802 V   [V DIGI dtmroc 13]
ELMB Channel 58:   3.823 V   [V DIGI dtmroc 14]
ELMB Channel 59:   3.821 V   [V DIGI dtmroc 14]

Temperature channels:
Channel 60, temperature 43.64
Channel 61, temperature 44.31
Channel 62, temperature 44.85
Channel 63, temperature 43.32

Current channels
******** 0. 0.266874    1. 0.485363  || 0.752237 
******** 2. 0.646733    3. 0.093512  || 0.740244 
******** 4. 0.746562    5. 0.004813  || 0.751375 
******** 6. 0.044826    7. 0.704011  || 0.748837 
******** 8. 0.305635    9. 0.441649  || 0.747285 
******** 10. 0.748051    11. 0.001032  || 0.749083 
******** 12. 0.296458    13. 0.451023  || 0.747481 
******** 14. 0.002148    15. 0.742484  || 0.744632 
******** 16. 0.524363    17. 0.220839  || 0.745201 
******** 18. 0.003236    19. 0.751725  || 0.754960 
******** 20. 0.752814    21. 0.000234  || 0.753048 
******** 22. 0.148708    23. 0.588254  || 0.736962 
******** 24. 0.369347    25. 0.365000  || 0.734347 
******** 26. 0.527006    27. 0.212374  || 0.739380 
******** 28. 0.757577    29. 0.011307  || 0.768885 
******** 30. 0.076355    31. 0.687375  || 0.763730 
******** 32. 0.495532    33. 0.264050  || 0.759582 
******** 34. 0.143680    35. 0.615138  || 0.758818 

Voltage channels:
ELMB Channel 36:   3.679 V   [V AN_POS dtmroc 1]
ELMB Channel 37:   3.659 V   [V AN_POS dtmroc 2]
ELMB Channel 38:   3.690 V   [V AN_POS dtmroc 3]
ELMB Channel 39:   3.675 V   [V AN_POS dtmroc 4]
ELMB Channel 40:   3.662 V   [V AN_POS dtmroc 5]
ELMB Channel 41:   3.650 V   [V AN_POS dtmroc 5]
ELMB Channel 42:   3.682 V   [V AN_POS dtmroc 6]
ELMB Channel 43:   3.677 V   [V AN_POS dtmroc 6]
ELMB Channel 44:   -3.629 V   [V AN_NEG dtmroc 1]
ELMB Channel 45:   -3.679 V   [V AN_NEG dtmroc 2]
ELMB Channel 46:   -3.638 V   [V AN_NEG dtmroc 3]
ELMB Channel 47:   -3.689 V   [V AN_NEG dtmroc 4]
ELMB Channel 48:   -3.705 V   [V AN_NEG dtmroc 5]
ELMB Channel 49:   -3.696 V   [V AN_NEG dtmroc 5]
ELMB Channel 50:   -3.640 V   [V AN_NEG dtmroc 6]
ELMB Channel 51:   -3.647 V   [V AN_NEG dtmroc 6]
ELMB Channel 52:   3.843 V   [V DIGI dtmroc 9]
ELMB Channel 53:   3.851 V   [V DIGI dtmroc 10]
ELMB Channel 54:   3.846 V   [V DIGI dtmroc 11]
ELMB Channel 55:   3.825 V   [V DIGI dtmroc 12]
ELMB Channel 56:   3.823 V   [V DIGI dtmroc 13]
ELMB Channel 57:   3.812 V   [V DIGI dtmroc 13]
ELMB Channel 58:   3.829 V   [V DIGI dtmroc 14]
ELMB Channel 59:   3.824 V   [V DIGI dtmroc 14]

Temperature channels:
Channel 60, temperature 43.66
Channel 61, temperature 44.40
Channel 62, temperature 44.96
Channel 63, temperature 43.40

Current channels
******** 0. 0.747833    1. 0.002438  || 0.750271 
******** 2. 0.744474    3. 0.001743  || 0.746217 
******** 4. 0.749562    5. 0.001813  || 0.751375 
******** 6. 0.750101    7. 0.001223  || 0.751324 
******** 8. 0.748584    9. 0.002323  || 0.750907 
******** 10. 0.748051    11. 0.001032  || 0.749083 
******** 12. 0.743329    13. 0.002814  || 0.746143 
******** 14. 0.736021    15. 0.000718  || 0.736738 
******** 16. 0.740799    17. 0.000623  || 0.741422 
******** 18. 0.743381    19. 0.000126  || 0.743506 
******** 20. 0.752749    21. 0.000278  || 0.753028 
******** 22. 0.737892    23. 0.001652  || 0.739545 
******** 24. 0.753812    25. 0.021608  || 0.775419 
******** 26. 0.752581    27. 0.013830  || 0.766411 
******** 28. 0.757577    29. 0.011307  || 0.768885 
******** 30. 0.768068    31. 0.006574  || 0.774642 
******** 32. 0.764337    33. 0.007244  || 0.771581 
******** 34. 0.761757    35. 0.002955  || 0.764712 

Voltage channels:
ELMB Channel 36:   3.670 V   [V AN_POS dtmroc 1]
ELMB Channel 37:   3.657 V   [V AN_POS dtmroc 2]
ELMB Channel 38:   3.690 V   [V AN_POS dtmroc 3]
ELMB Channel 39:   3.662 V   [V AN_POS dtmroc 4]
ELMB Channel 40:   3.654 V   [V AN_POS dtmroc 5]
ELMB Channel 41:   3.634 V   [V AN_POS dtmroc 5]
ELMB Channel 42:   3.682 V   [V AN_POS dtmroc 6]
ELMB Channel 43:   3.677 V   [V AN_POS dtmroc 6]
ELMB Channel 44:   -3.620 V   [V AN_NEG dtmroc 1]
ELMB Channel 45:   -3.621 V   [V AN_NEG dtmroc 2]
ELMB Channel 46:   -3.634 V   [V AN_NEG dtmroc 3]
ELMB Channel 47:   -3.627 V   [V AN_NEG dtmroc 4]
ELMB Channel 48:   -3.706 V   [V AN_NEG dtmroc 5]
ELMB Channel 49:   -3.697 V   [V AN_NEG dtmroc 5]
ELMB Channel 50:   -3.628 V   [V AN_NEG dtmroc 6]
ELMB Channel 51:   -3.628 V   [V AN_NEG dtmroc 6]
ELMB Channel 52:   3.836 V   [V DIGI dtmroc 9]
ELMB Channel 53:   3.847 V   [V DIGI dtmroc 10]
ELMB Channel 54:   3.846 V   [V DIGI dtmroc 11]
ELMB Channel 55:   3.812 V   [V DIGI dtmroc 12]
ELMB Channel 56:   3.818 V   [V DIGI dtmroc 13]
ELMB Channel 57:   3.800 V   [V DIGI dtmroc 13]
ELMB Channel 58:   3.817 V   [V DIGI dtmroc 14]
ELMB Channel 59:   3.799 V   [V DIGI dtmroc 14]

Temperature channels:
Channel 60, temperature 43.86
Channel 61, temperature 44.80
Channel 62, temperature 45.13
Channel 63, temperature 43.83

Current channels
******** 0. 0.002855    1. 0.754401  || 0.757255 
******** 2. 0.001500    3. 0.744283  || 0.745783 
******** 4. 0.000606    5. 0.746565  || 0.747170 
******** 6. 0.000939    7. 0.746668  || 0.747607 
******** 8. 0.001052    9. 0.740160  || 0.741212 
******** 10. 0.002110    11. 0.738732  || 0.740842 
******** 12. 0.001177    13. 0.747950  || 0.749127 
******** 14. 0.002166    15. 0.742504  || 0.744669 
******** 16. 0.001391    17. 0.734051  || 0.735442 
******** 18. 0.000086    19. 0.751735  || 0.751821 
******** 20. 0.000086    21. 0.741017  || 0.741103 
******** 22. 0.002280    23. 0.734615  || 0.736894 
******** 24. 0.009013    25. 0.745170  || 0.754183 
******** 26. 0.011455    27. 0.747556  || 0.759011 
******** 28. 0.012251    29. 0.753763  || 0.766013 
******** 30. 0.000205    31. 0.764189  || 0.764394 
******** 32. 0.007102    33. 0.764802  || 0.771904 
******** 34. 0.008010    35. 0.761429  || 0.769440 

Voltage channels:
ELMB Channel 36:   3.670 V   [V AN_POS dtmroc 1]
ELMB Channel 37:   3.637 V   [V AN_POS dtmroc 2]
ELMB Channel 38:   3.664 V   [V AN_POS dtmroc 3]
ELMB Channel 39:   3.673 V   [V AN_POS dtmroc 4]
ELMB Channel 40:   3.651 V   [V AN_POS dtmroc 5]
ELMB Channel 41:   3.644 V   [V AN_POS dtmroc 5]
ELMB Channel 42:   3.656 V   [V AN_POS dtmroc 6]
ELMB Channel 43:   3.659 V   [V AN_POS dtmroc 6]
ELMB Channel 44:   -3.619 V   [V AN_NEG dtmroc 1]
ELMB Channel 45:   -3.679 V   [V AN_NEG dtmroc 2]
ELMB Channel 46:   -3.619 V   [V AN_NEG dtmroc 3]
ELMB Channel 47:   -3.690 V   [V AN_NEG dtmroc 4]
ELMB Channel 48:   -3.631 V   [V AN_NEG dtmroc 5]
ELMB Channel 49:   -3.639 V   [V AN_NEG dtmroc 5]
ELMB Channel 50:   -3.635 V   [V AN_NEG dtmroc 6]
ELMB Channel 51:   -3.644 V   [V AN_NEG dtmroc 6]
ELMB Channel 52:   3.831 V   [V DIGI dtmroc 9]
ELMB Channel 53:   3.833 V   [V DIGI dtmroc 10]
ELMB Channel 54:   3.815 V   [V DIGI dtmroc 11]
ELMB Channel 55:   3.822 V   [V DIGI dtmroc 12]
ELMB Channel 56:   3.801 V   [V DIGI dtmroc 13]
ELMB Channel 57:   3.802 V   [V DIGI dtmroc 13]
ELMB Channel 58:   3.823 V   [V DIGI dtmroc 14]
ELMB Channel 59:   3.821 V   [V DIGI dtmroc 14]

Temperature channels:
Channel 60, temperature 43.88
Channel 61, temperature 44.82
Channel 62, temperature 45.18
Channel 63, temperature 43.88

Current channels
******** 0. 0.269974    1. 0.485363  || 0.755337 
******** 2. 0.649733    3. 0.096512  || 0.746244 
******** 4. 0.746579    5. 0.004850  || 0.751430 
******** 6. 0.047926    7. 0.704011  || 0.751937 
******** 8. 0.305616    9. 0.441617  || 0.747233 
******** 10. 0.745051    11. 0.001032  || 0.746083 
******** 12. 0.299463    13. 0.447860  || 0.747323 
******** 14. 0.000825    15. 0.745614  || 0.746439 
******** 16. 0.521406    17. 0.220925  || 0.742331 
******** 18. 0.000086    19. 0.751735  || 0.751821 
******** 20. 0.755749    21. 0.000278  || 0.756028 
******** 22. 0.151802    23. 0.588306  || 0.740108 
******** 24. 0.369347    25. 0.368100  || 0.737447 
******** 26. 0.530132    27. 0.209307  || 0.739440 
******** 28. 0.757577    29. 0.011307  || 0.768885 
******** 30. 0.076381    31. 0.690323  || 0.766704 
******** 32. 0.495532    33. 0.264041  || 0.759573 
******** 34. 0.143680    35. 0.615138  || 0.758818 

Voltage channels:
ELMB Channel 36:   3.679 V   [V AN_POS dtmroc 1]
ELMB Channel 37:   3.659 V   [V AN_POS dtmroc 2]
ELMB Channel 38:   3.691 V   [V AN_POS dtmroc 3]
ELMB Channel 39:   3.675 V   [V AN_POS dtmroc 4]
ELMB Channel 40:   3.662 V   [V AN_POS dtmroc 5]
ELMB Channel 41:   3.650 V   [V AN_POS dtmroc 5]
ELMB Channel 42:   3.682 V   [V AN_POS dtmroc 6]
ELMB Channel 43:   3.677 V   [V AN_POS dtmroc 6]
ELMB Channel 44:   -3.630 V   [V AN_NEG dtmroc 1]
ELMB Channel 45:   -3.680 V   [V AN_NEG dtmroc 2]
ELMB Channel 46:   -3.639 V   [V AN_NEG dtmroc 3]
ELMB Channel 47:   -3.690 V   [V AN_NEG dtmroc 4]
ELMB Channel 48:   -3.706 V   [V AN_NEG dtmroc 5]
ELMB Channel 49:   -3.697 V   [V AN_NEG dtmroc 5]
ELMB Channel 50:   -3.640 V   [V AN_NEG dtmroc 6]
ELMB Channel 51:   -3.648 V   [V AN_NEG dtmroc 6]
ELMB Channel 52:   3.843 V   [V DIGI dtmroc 9]
ELMB Channel 53:   3.852 V   [V DIGI dtmroc 10]
ELMB Channel 54:   3.846 V   [V DIGI dtmroc 11]
ELMB Channel 55:   3.825 V   [V DIGI dtmroc 12]
ELMB Channel 56:   3.823 V   [V DIGI dtmroc 13]
ELMB Channel 57:   3.812 V   [V DIGI dtmroc 13]
ELMB Channel 58:   3.829 V   [V DIGI dtmroc 14]
ELMB Channel 59:   3.824 V   [V DIGI dtmroc 14]

Temperature channels:
Channel 60, temperature 43.92
Channel 61, temperature 44.86
Channel 62, temperature 45.26
Channel 63, temperature 43.97

Current channels
******** 0. 0.747833    1. 0.002438  || 0.750271 
******** 2. 0.744474    3. 0.001743  || 0.746217 
******** 4. 0.749579    5. 0.001250  || 0.750829 
******** 6. 0.747001    7. 0.001223  || 0.748224 
******** 8. 0.748603    9. 0.002356  || 0.750958 
******** 10. 0.748051    11. 0.002068  || 0.750118 
******** 12. 0.743283    13. 0.000155  || 0.743438 
******** 14. 0.736029    15. 0.000708  || 0.736737 
******** 16. 0.740843    17. 0.000709  || 0.741551 
******** 18. 0.743356    19. 0.000131  || 0.743487 
******** 20. 0.755654    21. 0.000323  || 0.755976 
******** 22. 0.740987    23. 0.001618  || 0.742605 
******** 24. 0.753812    25. 0.024608  || 0.778419 
******** 26. 0.752581    27. 0.013830  || 0.766411 
******** 28. 0.757577    29. 0.011307  || 0.768885 
******** 30. 0.764968    31. 0.006574  || 0.771542 
******** 32. 0.764337    33. 0.007244  || 0.771581 
******** 34. 0.758804    35. 0.002955  || 0.761759 

Voltage channels:
ELMB Channel 36:   3.670 V   [V AN_POS dtmroc 1]
ELMB Channel 37:   3.657 V   [V AN_POS dtmroc 2]
ELMB Channel 38:   3.691 V   [V AN_POS dtmroc 3]
ELMB Channel 39:   3.662 V   [V AN_POS dtmroc 4]
ELMB Channel 40:   3.653 V   [V AN_POS dtmroc 5]
ELMB Channel 41:   3.634 V   [V AN_POS dtmroc 5]
ELMB Channel 42:   3.682 V   [V AN_POS dtmroc 6]
ELMB Channel 43:   3.677 V   [V AN_POS dtmroc 6]
ELMB Channel 44:   -3.620 V   [V AN_NEG dtmroc 1]
ELMB Channel 45:   -3.621 V   [V AN_NEG dtmroc 2]
ELMB Channel 46:   -3.635 V   [V AN_NEG dtmroc 3]
ELMB Channel 47:   -3.627 V   [V AN_NEG dtmroc 4]
ELMB Channel 48:   -3.707 V   [V AN_NEG dtmroc 5]
ELMB Channel 49:   -3.698 V   [V AN_NEG dtmroc 5]
ELMB Channel 50:   -3.628 V   [V AN_NEG dtmroc 6]
ELMB Channel 51:   -3.628 V   [V AN_NEG dtmroc 6]
ELMB Channel 52:   3.836 V   [V DIGI dtmroc 9]
ELMB Channel 53:   3.847 V   [V DIGI dtmroc 10]
ELMB Channel 54:   3.846 V   [V DIGI dtmroc 11]
ELMB Channel 55:   3.812 V   [V DIGI dtmroc 12]
ELMB Channel 56:   3.818 V   [V DIGI dtmroc 13]
ELMB Channel 57:   3.800 V   [V DIGI dtmroc 13]
ELMB Channel 58:   3.817 V   [V DIGI dtmroc 14]
ELMB Channel 59:   3.799 V   [V DIGI dtmroc 14]

Temperature channels:
Channel 60, temperature 44.13
Channel 61, temperature 45.18
Channel 62, temperature 45.38
Channel 63, temperature 44.33

Current channels
******** 0. 0.000145    1. 0.754401  || 0.754546 
******** 2. 0.001500    3. 0.744283  || 0.745783 
******** 4. 0.002394    5. 0.749565  || 0.751959 
******** 6. 0.000939    7. 0.749768  || 0.750707 
******** 8. 0.001052    9. 0.740192  || 0.741244 
******** 10. 0.002110    11. 0.741832  || 0.743942 
******** 12. 0.001223    13. 0.747919  || 0.749142 
******** 14. 0.002175    15. 0.742514  || 0.744688 
******** 16. 0.001435    17. 0.734136  || 0.735571 
******** 18. 0.000060    19. 0.751741  || 0.751801 
******** 20. 0.000053    21. 0.741039  || 0.741092 
******** 22. 0.000731    23. 0.737767  || 0.738498 
******** 24. 0.012113    25. 0.745170  || 0.757283 
******** 26. 0.011455    27. 0.747556  || 0.759011 
******** 28. 0.012251    29. 0.753763  || 0.766013 
******** 30. 0.000205    31. 0.764189  || 0.764394 
******** 32. 0.007087    33. 0.764802  || 0.771889 
******** 34. 0.008010    35. 0.761429  || 0.769440 

Voltage channels:
ELMB Channel 36:   3.670 V   [V AN_POS dtmroc 1]
ELMB Channel 37:   3.637 V   [V AN_POS dtmroc 2]
ELMB Channel 38:   3.664 V   [V AN_POS dtmroc 3]
ELMB Channel 39:   3.673 V   [V AN_POS dtmroc 4]
ELMB Channel 40:   3.651 V   [V AN_POS dtmroc 5]
ELMB Channel 41:   3.644 V   [V AN_POS dtmroc 5]
ELMB Channel 42:   3.656 V   [V AN_POS dtmroc 6]
ELMB Channel 43:   3.659 V   [V AN_POS dtmroc 6]
ELMB Channel 44:   -3.620 V   [V AN_NEG dtmroc 1]
ELMB Channel 45:   -3.680 V   [V AN_NEG dtmroc 2]
ELMB Channel 46:   -3.619 V   [V AN_NEG dtmroc 3]
ELMB Channel 47:   -3.690 V   [V AN_NEG dtmroc 4]
ELMB Channel 48:   -3.631 V   [V AN_NEG dtmroc 5]
ELMB Channel 49:   -3.639 V   [V AN_NEG dtmroc 5]
ELMB Channel 50:   -3.636 V   [V AN_NEG dtmroc 6]
ELMB Channel 51:   -3.645 V   [V AN_NEG dtmroc 6]
ELMB Channel 52:   3.831 V   [V DIGI dtmroc 9]
ELMB Channel 53:   3.833 V   [V DIGI dtmroc 10]
ELMB Channel 54:   3.815 V   [V DIGI dtmroc 11]
ELMB Channel 55:   3.822 V   [V DIGI dtmroc 12]
ELMB Channel 56:   3.800 V   [V DIGI dtmroc 13]
ELMB Channel 57:   3.802 V   [V DIGI dtmroc 13]
ELMB Channel 58:   3.823 V   [V DIGI dtmroc 14]
ELMB Channel 59:   3.821 V   [V DIGI dtmroc 14]

Temperature channels:
Channel 60, temperature 44.13
Channel 61, temperature 45.21
Channel 62, temperature 45.42
Channel 63, temperature 44.40

Current channels
******** 0. 0.269974    1. 0.482263  || 0.752237 
******** 2. 0.646733    3. 0.096512  || 0.743244 
******** 4. 0.746579    5. 0.004850  || 0.751430 
******** 6. 0.041826    7. 0.704011  || 0.745837 
******** 8. 0.302635    9. 0.441617  || 0.744252 
******** 10. 0.745058    11. 0.001019  || 0.746077 
******** 12. 0.296317    13. 0.450928  || 0.747245 
******** 14. 0.000817    15. 0.745623  || 0.746440 
******** 16. 0.518328    17. 0.224067  || 0.742395 
******** 18. 0.000060    19. 0.751741  || 0.751801 
******** 20. 0.752654    21. 0.000323  || 0.752976 
******** 22. 0.151787    23. 0.588341  || 0.740128 
******** 24. 0.369345    25. 0.365044  || 0.734389 
******** 26. 0.530106    27. 0.212374  || 0.742480 
******** 28. 0.757577    29. 0.011307  || 0.768885 
******** 30. 0.076355    31. 0.687375  || 0.763730 
******** 32. 0.495532    33. 0.260950  || 0.756482 
******** 34. 0.143728    35. 0.615138  || 0.758866 

Voltage channels:
ELMB Channel 36:   3.679 V   [V AN_POS dtmroc 1]
ELMB Channel 37:   3.659 V   [V AN_POS dtmroc 2]
ELMB Channel 38:   3.691 V   [V AN_POS dtmroc 3]
ELMB Channel 39:   3.675 V   [V AN_POS dtmroc 4]
ELMB Channel 40:   3.662 V   [V AN_POS dtmroc 5]
ELMB Channel 41:   3.650 V   [V AN_POS dtmroc 5]
ELMB Channel 42:   3.682 V   [V AN_POS dtmroc 6]
ELMB Channel 43:   3.676 V   [V AN_POS dtmroc 6]
ELMB Channel 44:   -3.630 V   [V AN_NEG dtmroc 1]
ELMB Channel 45:   -3.680 V   [V AN_NEG dtmroc 2]
ELMB Channel 46:   -3.639 V   [V AN_NEG dtmroc 3]
ELMB Channel 47:   -3.690 V   [V AN_NEG dtmroc 4]
ELMB Channel 48:   -3.707 V   [V AN_NEG dtmroc 5]
ELMB Channel 49:   -3.698 V   [V AN_NEG dtmroc 5]
ELMB Channel 50:   -3.641 V   [V AN_NEG dtmroc 6]
ELMB Channel 51:   -3.649 V   [V AN_NEG dtmroc 6]
ELMB Channel 52:   3.843 V   [V DIGI dtmroc 9]
ELMB Channel 53:   3.851 V   [V DIGI dtmroc 10]
ELMB Channel 54:   3.846 V   [V DIGI dtmroc 11]
ELMB Channel 55:   3.825 V   [V DIGI dtmroc 12]
ELMB Channel 56:   3.823 V   [V DIGI dtmroc 13]
ELMB Channel 57:   3.812 V   [V DIGI dtmroc 13]
ELMB Channel 58:   3.829 V   [V DIGI dtmroc 14]
ELMB Channel 59:   3.824 V   [V DIGI dtmroc 14]

Temperature channels:
Channel 60, temperature 44.18
Channel 61, temperature 45.29
Channel 62, temperature 45.52
Channel 63, temperature 44.49

Current channels
******** 0. 0.750890    1. 0.002419  || 0.753309 
******** 2. 0.744474    3. 0.001257  || 0.745730 
******** 4. 0.749579    5. 0.001850  || 0.751430 
******** 6. 0.747001    7. 0.001223  || 0.748224 
******** 8. 0.748603    9. 0.002356  || 0.750958 
******** 10. 0.748051    11. 0.002068  || 0.750118 
******** 12. 0.746289    13. 0.000091  || 0.746380 
******** 14. 0.736038    15. 0.000698  || 0.736736 
******** 16. 0.740865    17. 0.000752  || 0.741617 
******** 18. 0.743306    19. 0.000142  || 0.743447 
******** 20. 0.755589    21. 0.000389  || 0.755978 
******** 22. 0.740982    23. 0.001601  || 0.742583 
******** 24. 0.750812    25. 0.024608  || 0.775419 
******** 26. 0.755581    27. 0.013830  || 0.769411 
******** 28. 0.757577    29. 0.011307  || 0.768885 
******** 30. 0.764968    31. 0.009574  || 0.774542 
******** 32. 0.764337    33. 0.004244  || 0.768581 
******** 34. 0.758804    35. 0.002955  || 0.761759 

Voltage channels:
ELMB Channel 36:   3.670 V   [V AN_POS dtmroc 1]
ELMB Channel 37:   3.657 V   [V AN_POS dtmroc 2]
ELMB Channel 38:   3.691 V   [V AN_POS dtmroc 3]
ELMB Channel 39:   3.662 V   [V AN_POS dtmroc 4]
ELMB Channel 40:   3.653 V   [V AN_POS dtmroc 5]
ELMB Channel 41:   3.634 V   [V AN_POS dtmroc 5]
ELMB Channel 42:   3.682 V   [V AN_POS dtmroc 6]
ELMB Channel 43:   3.677 V   [V AN_POS dtmroc 6]
ELMB Channel 44:   -3.621 V   [V AN_NEG dtmroc 1]
ELMB Channel 45:   -3.621 V   [V AN_NEG dtmroc 2]
ELMB Channel 46:   -3.635 V   [V AN_NEG dtmroc 3]
ELMB Channel 47:   -3.628 V   [V AN_NEG dtmroc 4]
ELMB Channel 48:   -3.708 V   [V AN_NEG dtmroc 5]
ELMB Channel 49:   -3.699 V   [V AN_NEG dtmroc 5]
ELMB Channel 50:   -3.629 V   [V AN_NEG dtmroc 6]
ELMB Channel 51:   -3.629 V   [V AN_NEG dtmroc 6]
ELMB Channel 52:   3.836 V   [V DIGI dtmroc 9]
ELMB Channel 53:   3.847 V   [V DIGI dtmroc 10]
ELMB Channel 54:   3.846 V   [V DIGI dtmroc 11]
ELMB Channel 55:   3.812 V   [V DIGI dtmroc 12]
ELMB Channel 56:   3.818 V   [V DIGI dtmroc 13]
ELMB Channel 57:   3.800 V   [V DIGI dtmroc 13]
ELMB Channel 58:   3.817 V   [V DIGI dtmroc 14]
ELMB Channel 59:   3.799 V   [V DIGI dtmroc 14]

Temperature channels:
Channel 60, temperature 44.37
Channel 61, temperature 45.59
Channel 62, temperature 45.55
Channel 63, temperature 44.73

Current channels
******** 0. 0.002855    1. 0.754401  || 0.757255 
******** 2. 0.001528    3. 0.747317  || 0.748846 
******** 4. 0.002377    5. 0.746602  || 0.748979 
******** 6. 0.000939    7. 0.749768  || 0.750707 
******** 8. 0.001948    9. 0.743160  || 0.745108 
******** 10. 0.002110    11. 0.741832  || 0.743942 
******** 12. 0.001729    13. 0.747886  || 0.749616 
******** 14. 0.000817    15. 0.745623  || 0.746440 
******** 16. 0.001457    17. 0.734178  || 0.735635 
******** 18. 0.000010    19. 0.754852  || 0.754862 
******** 20. 0.000011    21. 0.741084  || 0.741095 
******** 22. 0.000736    23. 0.737785  || 0.738521 
******** 24. 0.009013    25. 0.745170  || 0.754183 
******** 26. 0.011455    27. 0.750656  || 0.762111 
******** 28. 0.012251    29. 0.753763  || 0.766013 
******** 30. 0.000205    31. 0.764189  || 0.764394 
******** 32. 0.007087    33. 0.764802  || 0.771889 
******** 34. 0.005010    35. 0.761429  || 0.766440 

Voltage channels:
ELMB Channel 36:   3.670 V   [V AN_POS dtmroc 1]
ELMB Channel 37:   3.637 V   [V AN_POS dtmroc 2]
ELMB Channel 38:   3.665 V   [V AN_POS dtmroc 3]
ELMB Channel 39:   3.673 V   [V AN_POS dtmroc 4]
ELMB Channel 40:   3.651 V   [V AN_POS dtmroc 5]
ELMB Channel 41:   3.644 V   [V AN_POS dtmroc 5]
ELMB Channel 42:   3.656 V   [V AN_POS dtmroc 6]
ELMB Channel 43:   3.659 V   [V AN_POS dtmroc 6]
ELMB Channel 44:   -3.620 V   [V AN_NEG dtmroc 1]
ELMB Channel 45:   -3.680 V   [V AN_NEG dtmroc 2]
ELMB Channel 46:   -3.620 V   [V AN_NEG dtmroc 3]
ELMB Channel 47:   -3.691 V   [V AN_NEG dtmroc 4]
ELMB Channel 48:   -3.632 V   [V AN_NEG dtmroc 5]
ELMB Channel 49:   -3.640 V   [V AN_NEG dtmroc 5]
ELMB Channel 50:   -3.636 V   [V AN_NEG dtmroc 6]
ELMB Channel 51:   -3.646 V   [V AN_NEG dtmroc 6]
ELMB Channel 52:   3.831 V   [V DIGI dtmroc 9]
ELMB Channel 53:   3.833 V   [V DIGI dtmroc 10]
ELMB Channel 54:   3.815 V   [V DIGI dtmroc 11]
ELMB Channel 55:   3.822 V   [V DIGI dtmroc 12]
ELMB Channel 56:   3.800 V   [V DIGI dtmroc 13]
ELMB Channel 57:   3.802 V   [V DIGI dtmroc 13]
ELMB Channel 58:   3.823 V   [V DIGI dtmroc 14]
ELMB Channel 59:   3.821 V   [V DIGI dtmroc 14]

Temperature channels:
Channel 60, temperature 44.37
Channel 61, temperature 45.61
Channel 62, temperature 45.58
Channel 63, temperature 44.75

Current channels
******** 0. 0.269974    1. 0.482263  || 0.752237 
******** 2. 0.649733    3. 0.096512  || 0.746244 
******** 4. 0.746579    5. 0.004850  || 0.751430 
******** 6. 0.044826    7. 0.704011  || 0.748837 
******** 8. 0.299535    9. 0.441649  || 0.741185 
******** 10. 0.745051    11. 0.002081  || 0.747132 
******** 12. 0.302369    13. 0.444796  || 0.747165 
******** 14. 0.002192    15. 0.742533  || 0.744725 
******** 16. 0.521472    17. 0.221052  || 0.742524 
******** 18. 0.000015    19. 0.751757  || 0.751772 
******** 20. 0.755621    21. 0.003467  || 0.759088 
******** 22. 0.151782    23. 0.591458  || 0.743240 
******** 24. 0.369347    25. 0.365000  || 0.734347 
******** 26. 0.530132    27. 0.212407  || 0.742540 
******** 28. 0.757577    29. 0.014307  || 0.771885 
******** 30. 0.073381    31. 0.690323  || 0.763704 
******** 32. 0.498632    33. 0.260941  || 0.759573 
******** 34. 0.143728    35. 0.615138  || 0.758866 

Voltage channels:
ELMB Channel 36:   3.679 V   [V AN_POS dtmroc 1]
ELMB Channel 37:   3.659 V   [V AN_POS dtmroc 2]
ELMB Channel 38:   3.691 V   [V AN_POS dtmroc 3]
ELMB Channel 39:   3.675 V   [V AN_POS dtmroc 4]
ELMB Channel 40:   3.662 V   [V AN_POS dtmroc 5]
ELMB Channel 41:   3.650 V   [V AN_POS dtmroc 5]
ELMB Channel 42:   3.682 V   [V AN_POS dtmroc 6]
ELMB Channel 43:   3.676 V   [V AN_POS dtmroc 6]
ELMB Channel 44:   -3.630 V   [V AN_NEG dtmroc 1]
ELMB Channel 45:   -3.680 V   [V AN_NEG dtmroc 2]
ELMB Channel 46:   -3.640 V   [V AN_NEG dtmroc 3]
ELMB Channel 47:   -3.691 V   [V AN_NEG dtmroc 4]
ELMB Channel 48:   -3.708 V   [V AN_NEG dtmroc 5]
ELMB Channel 49:   -3.698 V   [V AN_NEG dtmroc 5]
ELMB Channel 50:   -3.642 V   [V AN_NEG dtmroc 6]
ELMB Channel 51:   -3.649 V   [V AN_NEG dtmroc 6]
ELMB Channel 52:   3.843 V   [V DIGI dtmroc 9]
ELMB Channel 53:   3.852 V   [V DIGI dtmroc 10]
ELMB Channel 54:   3.846 V   [V DIGI dtmroc 11]
ELMB Channel 55:   3.825 V   [V DIGI dtmroc 12]
ELMB Channel 56:   3.823 V   [V DIGI dtmroc 13]
ELMB Channel 57:   3.812 V   [V DIGI dtmroc 13]
ELMB Channel 58:   3.829 V   [V DIGI dtmroc 14]
ELMB Channel 59:   3.824 V   [V DIGI dtmroc 14]

Temperature channels:
Channel 60, temperature 44.41
Channel 61, temperature 45.66
Channel 62, temperature 45.67
Channel 63, temperature 44.77

Current channels
******** 0. 0.747833    1. 0.000562  || 0.748395 
******** 2. 0.744446    3. 0.001777  || 0.746222 
******** 4. 0.749597    5. 0.001887  || 0.751484 
******** 6. 0.747001    7. 0.001223  || 0.748224 
******** 8. 0.748603    9. 0.002356  || 0.750958 
******** 10. 0.745044    11. 0.002054  || 0.747098 
******** 12. 0.746335    13. 0.000123  || 0.746458 
******** 14. 0.736047    15. 0.000688  || 0.736735 
******** 16. 0.740865    17. 0.000752  || 0.741617 
******** 18. 0.743281    19. 0.000147  || 0.743428 
******** 20. 0.755557    21. 0.000389  || 0.755945 
******** 22. 0.740972    23. 0.001534  || 0.742506 
******** 24. 0.753812    25. 0.024608  || 0.778419 
******** 26. 0.752581    27. 0.013830  || 0.766411 
******** 28. 0.760677    29. 0.014307  || 0.774985 
******** 30. 0.764968    31. 0.009574  || 0.774542 
******** 32. 0.767337    33. 0.004244  || 0.771581 
******** 34. 0.758804    35. 0.002955  || 0.761759 

Voltage channels:
ELMB Channel 36:   3.670 V   [V AN_POS dtmroc 1]
ELMB Channel 37:   3.658 V   [V AN_POS dtmroc 2]
ELMB Channel 38:   3.691 V   [V AN_POS dtmroc 3]
ELMB Channel 39:   3.662 V   [V AN_POS dtmroc 4]
ELMB Channel 40:   3.653 V   [V AN_POS dtmroc 5]
ELMB Channel 41:   3.634 V   [V AN_POS dtmroc 5]
ELMB Channel 42:   3.682 V   [V AN_POS dtmroc 6]
ELMB Channel 43:   3.677 V   [V AN_POS dtmroc 6]
ELMB Channel 44:   -3.621 V   [V AN_NEG dtmroc 1]
ELMB Channel 45:   -3.622 V   [V AN_NEG dtmroc 2]
ELMB Channel 46:   -3.635 V   [V AN_NEG dtmroc 3]
ELMB Channel 47:   -3.628 V   [V AN_NEG dtmroc 4]
ELMB Channel 48:   -3.708 V   [V AN_NEG dtmroc 5]
ELMB Channel 49:   -3.699 V   [V AN_NEG dtmroc 5]
ELMB Channel 50:   -3.629 V   [V AN_NEG dtmroc 6]
ELMB Channel 51:   -3.629 V   [V AN_NEG dtmroc 6]
ELMB Channel 52:   3.836 V   [V DIGI dtmroc 9]
ELMB Channel 53:   3.847 V   [V DIGI dtmroc 10]
ELMB Channel 54:   3.846 V   [V DIGI dtmroc 11]
ELMB Channel 55:   3.812 V   [V DIGI dtmroc 12]
ELMB Channel 56:   3.818 V   [V DIGI dtmroc 13]
ELMB Channel 57:   3.800 V   [V DIGI dtmroc 13]
ELMB Channel 58:   3.817 V   [V DIGI dtmroc 14]
ELMB Channel 59:   3.799 V   [V DIGI dtmroc 14]

Temperature channels:
Channel 60, temperature 44.62
Channel 61, temperature 45.87
Channel 62, temperature 45.73
Channel 63, temperature 44.98

Current channels
******** 0. 0.000145    1. 0.754401  || 0.754546 
******** 2. 0.001500    3. 0.747283  || 0.748783 
******** 4. 0.002394    5. 0.749565  || 0.751959 
******** 6. 0.000939    7. 0.749768  || 0.750707 
******** 8. 0.001052    9. 0.743160  || 0.744212 
******** 10. 0.002110    11. 0.741832  || 0.743942 
******** 12. 0.001317    13. 0.747855  || 0.749172 
******** 14. 0.002201    15. 0.745643  || 0.747844 
******** 16. 0.001479    17. 0.734222  || 0.735701 
******** 18. 0.000015    19. 0.754857  || 0.754872 
******** 20. 0.000043    21. 0.741106  || 0.741149 
******** 22. 0.002259    23. 0.737802  || 0.740061 
******** 24. 0.012113    25. 0.745170  || 0.757283 
******** 26. 0.011455    27. 0.747556  || 0.759011 
******** 28. 0.009151    29. 0.753763  || 0.762913 
******** 30. 0.000205    31. 0.764189  || 0.764394 
******** 32. 0.007087    33. 0.767811  || 0.774898 
******** 34. 0.005010    35. 0.761429  || 0.766440 

Voltage channels:
ELMB Channel 36:   3.670 V   [V AN_POS dtmroc 1]
ELMB Channel 37:   3.637 V   [V AN_POS dtmroc 2]
ELMB Channel 38:   3.664 V   [V AN_POS dtmroc 3]
ELMB Channel 39:   3.673 V   [V AN_POS dtmroc 4]
ELMB Channel 40:   3.651 V   [V AN_POS dtmroc 5]
ELMB Channel 41:   3.644 V   [V AN_POS dtmroc 5]
ELMB Channel 42:   3.656 V   [V AN_POS dtmroc 6]
ELMB Channel 43:   3.659 V   [V AN_POS dtmroc 6]
ELMB Channel 44:   -3.620 V   [V AN_NEG dtmroc 1]
ELMB Channel 45:   -3.681 V   [V AN_NEG dtmroc 2]
ELMB Channel 46:   -3.620 V   [V AN_NEG dtmroc 3]
ELMB Channel 47:   -3.691 V   [V AN_NEG dtmroc 4]
ELMB Channel 48:   -3.632 V   [V AN_NEG dtmroc 5]
ELMB Channel 49:   -3.640 V   [V AN_NEG dtmroc 5]
ELMB Channel 50:   -3.637 V   [V AN_NEG dtmroc 6]
ELMB Channel 51:   -3.646 V   [V AN_NEG dtmroc 6]
ELMB Channel 52:   3.831 V   [V DIGI dtmroc 9]
ELMB Channel 53:   3.833 V   [V DIGI dtmroc 10]
ELMB Channel 54:   3.815 V   [V DIGI dtmroc 11]
ELMB Channel 55:   3.822 V   [V DIGI dtmroc 12]
ELMB Channel 56:   3.800 V   [V DIGI dtmroc 13]
ELMB Channel 57:   3.802 V   [V DIGI dtmroc 13]
ELMB Channel 58:   3.823 V   [V DIGI dtmroc 14]
ELMB Channel 59:   3.821 V   [V DIGI dtmroc 14]

Temperature channels:
Channel 60, temperature 44.62
Channel 61, temperature 45.87
Channel 62, temperature 45.76
Channel 63, temperature 45.01

Current channels
******** 0. 0.272974    1. 0.482263  || 0.755237 
******** 2. 0.649704    3. 0.096546  || 0.746250 
******** 4. 0.746579    5. 0.004850  || 0.751430 
******** 6. 0.041819    7. 0.707120  || 0.748939 
******** 8. 0.302635    9. 0.441617  || 0.744252 
******** 10. 0.745058    11. 0.002068  || 0.747126 
******** 12. 0.299369    13. 0.447796  || 0.747165 
******** 14. 0.002201    15. 0.742543  || 0.744744 
******** 16. 0.518372    17. 0.224152  || 0.742524 
******** 18. 0.000015    19. 0.754857  || 0.754872 
******** 20. 0.755557    21. 0.000389  || 0.755945 
******** 22. 0.145677    23. 0.591475  || 0.737152 
******** 24. 0.369347    25. 0.365000  || 0.734347 
******** 26. 0.527032    27. 0.212407  || 0.739440 
******** 28. 0.757577    29. 0.011307  || 0.768885 
******** 30. 0.076381    31. 0.687323  || 0.763704 
******** 32. 0.498632    33. 0.260950  || 0.759582 
******** 34. 0.143728    35. 0.615138  || 0.758866 

Voltage channels:
ELMB Channel 36:   3.679 V   [V AN_POS dtmroc 1]
ELMB Channel 37:   3.660 V   [V AN_POS dtmroc 2]
ELMB Channel 38:   3.691 V   [V AN_POS dtmroc 3]
ELMB Channel 39:   3.675 V   [V AN_POS dtmroc 4]
ELMB Channel 40:   3.662 V   [V AN_POS dtmroc 5]
ELMB Channel 41:   3.650 V   [V AN_POS dtmroc 5]
ELMB Channel 42:   3.682 V   [V AN_POS dtmroc 6]
ELMB Channel 43:   3.677 V   [V AN_POS dtmroc 6]
ELMB Channel 44:   -3.630 V   [V AN_NEG dtmroc 1]
ELMB Channel 45:   -3.681 V   [V AN_NEG dtmroc 2]
ELMB Channel 46:   -3.640 V   [V AN_NEG dtmroc 3]
ELMB Channel 47:   -3.691 V   [V AN_NEG dtmroc 4]
ELMB Channel 48:   -3.708 V   [V AN_NEG dtmroc 5]
ELMB Channel 49:   -3.699 V   [V AN_NEG dtmroc 5]
ELMB Channel 50:   -3.642 V   [V AN_NEG dtmroc 6]
ELMB Channel 51:   -3.649 V   [V AN_NEG dtmroc 6]
ELMB Channel 52:   3.843 V   [V DIGI dtmroc 9]
ELMB Channel 53:   3.852 V   [V DIGI dtmroc 10]
ELMB Channel 54:   3.846 V   [V DIGI dtmroc 11]
ELMB Channel 55:   3.825 V   [V DIGI dtmroc 12]
ELMB Channel 56:   3.823 V   [V DIGI dtmroc 13]
ELMB Channel 57:   3.812 V   [V DIGI dtmroc 13]
ELMB Channel 58:   3.829 V   [V DIGI dtmroc 14]
ELMB Channel 59:   3.824 V   [V DIGI dtmroc 14]

Temperature channels:
Channel 60, temperature 44.65
Channel 61, temperature 45.92
Channel 62, temperature 45.84
Channel 63, temperature 45.09

Current channels
******** 0. 0.747833    1. 0.002438  || 0.750271 
******** 2. 0.744446    3. 0.001777  || 0.746222 
******** 4. 0.749597    5. 0.001887  || 0.751484 
******** 6. 0.747001    7. 0.001877  || 0.748878 
******** 8. 0.748603    9. 0.002356  || 0.750958 
******** 10. 0.748051    11. 0.002068  || 0.750118 
******** 12. 0.746289    13. 0.000091  || 0.746380 
******** 14. 0.736056    15. 0.000678  || 0.736734 
******** 16. 0.740909    17. 0.003838  || 0.744747 
******** 18. 0.743281    19. 0.000147  || 0.743428 
******** 20. 0.752525    21. 0.000433  || 0.752958 
******** 22. 0.740967    23. 0.001566  || 0.742533 
******** 24. 0.753812    25. 0.024608  || 0.778419 
******** 26. 0.755581    27. 0.013830  || 0.769411 
******** 28. 0.757577    29. 0.014307  || 0.771885 
******** 30. 0.764968    31. 0.009574  || 0.774542 
******** 32. 0.764337    33. 0.007244  || 0.771581 
******** 34. 0.761804    35. 0.002932  || 0.764735 

Voltage channels:
ELMB Channel 36:   3.670 V   [V AN_POS dtmroc 1]
ELMB Channel 37:   3.658 V   [V AN_POS dtmroc 2]
ELMB Channel 38:   3.691 V   [V AN_POS dtmroc 3]
ELMB Channel 39:   3.662 V   [V AN_POS dtmroc 4]
ELMB Channel 40:   3.653 V   [V AN_POS dtmroc 5]
ELMB Channel 41:   3.634 V   [V AN_POS dtmroc 5]
ELMB Channel 42:   3.682 V   [V AN_POS dtmroc 6]
ELMB Channel 43:   3.677 V   [V AN_POS dtmroc 6]
ELMB Channel 44:   -3.621 V   [V AN_NEG dtmroc 1]
ELMB Channel 45:   -3.622 V   [V AN_NEG dtmroc 2]
ELMB Channel 46:   -3.636 V   [V AN_NEG dtmroc 3]
ELMB Channel 47:   -3.628 V   [V AN_NEG dtmroc 4]
ELMB Channel 48:   -3.709 V   [V AN_NEG dtmroc 5]
ELMB Channel 49:   -3.699 V   [V AN_NEG dtmroc 5]
ELMB Channel 50:   -3.630 V   [V AN_NEG dtmroc 6]
ELMB Channel 51:   -3.629 V   [V AN_NEG dtmroc 6]
ELMB Channel 52:   3.836 V   [V DIGI dtmroc 9]
ELMB Channel 53:   3.847 V   [V DIGI dtmroc 10]
ELMB Channel 54:   3.846 V   [V DIGI dtmroc 11]
ELMB Channel 55:   3.812 V   [V DIGI dtmroc 12]
ELMB Channel 56:   3.818 V   [V DIGI dtmroc 13]
ELMB Channel 57:   3.800 V   [V DIGI dtmroc 13]
ELMB Channel 58:   3.817 V   [V DIGI dtmroc 14]
ELMB Channel 59:   3.800 V   [V DIGI dtmroc 14]

Temperature channels:
Channel 60, temperature 44.83
Channel 61, temperature 46.17
Channel 62, temperature 45.85
Channel 63, temperature 45.28

Current channels
******** 0. 0.000145    1. 0.754401  || 0.754546 
******** 2. 0.001500    3. 0.747283  || 0.748783 
******** 4. 0.002377    5. 0.749602  || 0.751979 
******** 6. 0.000939    7. 0.749768  || 0.750707 
******** 8. 0.001948    9. 0.743160  || 0.745108 
******** 10. 0.002110    11. 0.741832  || 0.743942 
******** 12. 0.001317    13. 0.747855  || 0.749172 
******** 14. 0.000790    15. 0.745653  || 0.746443 
******** 16. 0.001500    17. 0.737264  || 0.738765 
******** 18. 0.000065    19. 0.754868  || 0.754933 
******** 20. 0.000075    21. 0.744128  || 0.744203 
******** 22. 0.000751    23. 0.740819  || 0.741571 
******** 24. 0.009013    25. 0.745170  || 0.754183 
******** 26. 0.011429    27. 0.750689  || 0.762118 
******** 28. 0.012251    29. 0.753763  || 0.766013 
******** 30. 0.003179    31. 0.764137  || 0.767315 
******** 32. 0.007087    33. 0.764811  || 0.771898 
******** 34. 0.005010    35. 0.761429  || 0.766440 

Voltage channels:
ELMB Channel 36:   3.670 V   [V AN_POS dtmroc 1]
ELMB Channel 37:   3.637 V   [V AN_POS dtmroc 2]
ELMB Channel 38:   3.665 V   [V AN_POS dtmroc 3]
ELMB Channel 39:   3.673 V   [V AN_POS dtmroc 4]
ELMB Channel 40:   3.651 V   [V AN_POS dtmroc 5]
ELMB Channel 41:   3.644 V   [V AN_POS dtmroc 5]
ELMB Channel 42:   3.656 V   [V AN_POS dtmroc 6]
ELMB Channel 43:   3.659 V   [V AN_POS dtmroc 6]
ELMB Channel 44:   -3.620 V   [V AN_NEG dtmroc 1]
ELMB Channel 45:   -3.681 V   [V AN_NEG dtmroc 2]
ELMB Channel 46:   -3.620 V   [V AN_NEG dtmroc 3]
ELMB Channel 47:   -3.692 V   [V AN_NEG dtmroc 4]
ELMB Channel 48:   -3.632 V   [V AN_NEG dtmroc 5]
ELMB Channel 49:   -3.640 V   [V AN_NEG dtmroc 5]
ELMB Channel 50:   -3.637 V   [V AN_NEG dtmroc 6]
ELMB Channel 51:   -3.646 V   [V AN_NEG dtmroc 6]
ELMB Channel 52:   3.831 V   [V DIGI dtmroc 9]
ELMB Channel 53:   3.833 V   [V DIGI dtmroc 10]
ELMB Channel 54:   3.815 V   [V DIGI dtmroc 11]
ELMB Channel 55:   3.822 V   [V DIGI dtmroc 12]
ELMB Channel 56:   3.800 V   [V DIGI dtmroc 13]
ELMB Channel 57:   3.802 V   [V DIGI dtmroc 13]
ELMB Channel 58:   3.823 V   [V DIGI dtmroc 14]
ELMB Channel 59:   3.821 V   [V DIGI dtmroc 14]

Temperature channels:
Channel 60, temperature 44.83
Channel 61, temperature 46.16
Channel 62, temperature 45.85
Channel 63, temperature 45.30

Current channels
******** 0. 0.272974    1. 0.482263  || 0.755237 
******** 2. 0.649733    3. 0.096512  || 0.746244 
******** 4. 0.746579    5. 0.001850  || 0.748430 
******** 6. 0.041819    7. 0.704020  || 0.745839 
******** 8. 0.302635    9. 0.444717  || 0.747352 
******** 10. 0.745051    11. 0.002068  || 0.747118 
******** 12. 0.296223    13. 0.453864  || 0.750087 
******** 14. 0.000790    15. 0.745653  || 0.746443 
******** 16. 0.521494    17. 0.221096  || 0.742590 
******** 18. 0.000039    19. 0.754862  || 0.754902 
******** 20. 0.755525    21. 0.000433  || 0.755958 
******** 22. 0.148672    23. 0.591493  || 0.740165 
******** 24. 0.369347    25. 0.365000  || 0.734347 
******** 26. 0.530132    27. 0.212407  || 0.742540 
******** 28. 0.757577    29. 0.011307  || 0.768885 
******** 30. 0.073381    31. 0.690323  || 0.763704 
******** 32. 0.498632    33. 0.257950  || 0.756582 
******** 34. 0.143728    35. 0.615115  || 0.758843 

Voltage channels:
ELMB Channel 36:   3.679 V   [V AN_POS dtmroc 1]
ELMB Channel 37:   3.659 V   [V AN_POS dtmroc 2]
ELMB Channel 38:   3.691 V   [V AN_POS dtmroc 3]
ELMB Channel 39:   3.675 V   [V AN_POS dtmroc 4]
ELMB Channel 40:   3.662 V   [V AN_POS dtmroc 5]
ELMB Channel 41:   3.650 V   [V AN_POS dtmroc 5]
ELMB Channel 42:   3.682 V   [V AN_POS dtmroc 6]
ELMB Channel 43:   3.677 V   [V AN_POS dtmroc 6]
ELMB Channel 44:   -3.631 V   [V AN_NEG dtmroc 1]
ELMB Channel 45:   -3.681 V   [V AN_NEG dtmroc 2]
ELMB Channel 46:   -3.640 V   [V AN_NEG dtmroc 3]
ELMB Channel 47:   -3.691 V   [V AN_NEG dtmroc 4]
ELMB Channel 48:   -3.709 V   [V AN_NEG dtmroc 5]
ELMB Channel 49:   -3.699 V   [V AN_NEG dtmroc 5]
ELMB Channel 50:   -3.642 V   [V AN_NEG dtmroc 6]
ELMB Channel 51:   -3.650 V   [V AN_NEG dtmroc 6]
ELMB Channel 52:   3.843 V   [V DIGI dtmroc 9]
ELMB Channel 53:   3.852 V   [V DIGI dtmroc 10]
ELMB Channel 54:   3.846 V   [V DIGI dtmroc 11]
ELMB Channel 55:   3.825 V   [V DIGI dtmroc 12]
ELMB Channel 56:   3.823 V   [V DIGI dtmroc 13]
ELMB Channel 57:   3.812 V   [V DIGI dtmroc 13]
ELMB Channel 58:   3.829 V   [V DIGI dtmroc 14]
ELMB Channel 59:   3.824 V   [V DIGI dtmroc 14]

Temperature channels:
Channel 60, temperature 44.87
Channel 61, temperature 46.18
Channel 62, temperature 45.94
Channel 63, temperature 45.34

Current channels
******** 0. 0.003657    1. 0.002712  || 0.006369 
ERROR: curr not in range ON  (0.004 A): ELMB channel 0 [I AN_POS dtmroc 1]
******** 2. 0.002576    3. 0.000506  || 0.003082 
ERROR: curr not in range ON  (0.003 A): ELMB channel 2 [I AN_POS dtmroc 2]
******** 4. 0.000243    5. 0.003511  || 0.003754 
ERROR: curr not in range ON  (0.000 A): ELMB channel 4 [I AN_POS dtmroc 3]
******** 6. 0.000091    7. 0.003111  || 0.003203 
ERROR: curr not in range ON  (0.000 A): ELMB channel 6 [I AN_POS dtmroc 4]
******** 8. 0.002738    9. 0.003458  || 0.006197 
ERROR: curr not in range ON  (0.003 A): ELMB channel 8 [I AN_POS dtmroc 5]
******** 10. 0.000104    11. 0.000188  || 0.000292 
ERROR: curr not in range ON  (0.000 A): ELMB channel 10 [I AN_POS dtmroc 6]
******** 12. 0.000705    13. 0.000479  || 0.001184 
ERROR: curr not in range ON  (0.001 A): ELMB channel 12 [I AN_NEG dtmroc 1]
******** 14. 0.000124    15. 0.000138  || 0.000261 
ERROR: curr not in range ON  (0.000 A): ELMB channel 14 [I AN_NEG dtmroc 2]
******** 16. 0.009384    17. 0.003557  || 0.012941 
ERROR: curr not in range ON  (0.009 A): ELMB channel 16 [I AN_NEG dtmroc 3]
******** 18. 0.002676    19. 0.003070  || 0.005746 
ERROR: curr not in range ON  (0.003 A): ELMB channel 18 [I AN_NEG dtmroc 4]
******** 20. 0.002968    21. 0.009122  || 0.012090 
ERROR: curr not in range ON  (0.003 A): ELMB channel 20 [I AN_NEG dtmroc 5]
******** 22. 0.000010    23. 0.003017  || 0.003027 
ERROR: curr not in range ON  (0.000 A): ELMB channel 22 [I AN_NEG dtmroc 6]
******** 24. 0.000010    25. 0.000271  || 0.000280 
ERROR: curr not in range ON  (0.000 A): ELMB channel 24 [I DIGI dtmroc 9]
******** 26. 0.000162    27. 0.000202  || 0.000364 
ERROR: curr not in range ON  (0.000 A): ELMB channel 26 [I DIGI dtmroc 10]
******** 28. 0.000145    29. 0.000132  || 0.000277 
ERROR: curr not in range ON  (0.000 A): ELMB channel 28 [I DIGI dtmroc 11]
******** 30. 0.000156    31. 0.000308  || 0.000464 
ERROR: curr not in range ON  (0.000 A): ELMB channel 30 [I DIGI dtmroc 12]
******** 32. 0.000073    33. 0.002973  || 0.003046 
ERROR: curr not in range ON  (0.000 A): ELMB channel 32 [I DIGI dtmroc 13]
******** 34. 0.002762    35. 0.003069  || 0.005831 
ERROR: curr not in range ON  (0.003 A): ELMB channel 34 [I DIGI dtmroc 14]

Voltage channels:
ELMB Channel 36:   0.005 V   [V AN_POS dtmroc 1]
ERROR: voltage too LOW (0.005 V) in ELMB channel 36 [V AN_POS dtmroc 1]
ELMB Channel 37:   0.005 V   [V AN_POS dtmroc 2]
ERROR: voltage too LOW (0.005 V) in ELMB channel 37 [V AN_POS dtmroc 2]
ELMB Channel 38:   0.005 V   [V AN_POS dtmroc 3]
ERROR: voltage too LOW (0.005 V) in ELMB channel 38 [V AN_POS dtmroc 3]
ELMB Channel 39:   0.004 V   [V AN_POS dtmroc 4]
ERROR: voltage too LOW (0.004 V) in ELMB channel 39 [V AN_POS dtmroc 4]
ELMB Channel 40:   0.005 V   [V AN_POS dtmroc 5]
ERROR: voltage too LOW (0.005 V) in ELMB channel 40 [V AN_POS dtmroc 5]
ELMB Channel 41:   0.005 V   [V AN_POS dtmroc 5]
ERROR: voltage too LOW (0.005 V) in ELMB channel 41 [V AN_POS dtmroc 5]
ELMB Channel 42:   0.005 V   [V AN_POS dtmroc 6]
ERROR: voltage too LOW (0.005 V) in ELMB channel 42 [V AN_POS dtmroc 6]
ELMB Channel 43:   0.005 V   [V AN_POS dtmroc 6]
ERROR: voltage too LOW (0.005 V) in ELMB channel 43 [V AN_POS dtmroc 6]
ELMB Channel 44:   0.005 V   [V AN_NEG dtmroc 1]
ERROR: voltage too LOW (0.005 V) in ELMB channel 44 [V AN_NEG dtmroc 1]
ELMB Channel 45:   0.005 V   [V AN_NEG dtmroc 2]
ERROR: voltage too LOW (0.005 V) in ELMB channel 45 [V AN_NEG dtmroc 2]
ELMB Channel 46:   0.004 V   [V AN_NEG dtmroc 3]
ERROR: voltage too LOW (0.004 V) in ELMB channel 46 [V AN_NEG dtmroc 3]
ELMB Channel 47:   0.004 V   [V AN_NEG dtmroc 4]
ERROR: voltage too LOW (0.004 V) in ELMB channel 47 [V AN_NEG dtmroc 4]
ELMB Channel 48:   0.000 V   [V AN_NEG dtmroc 5]
ERROR: voltage too LOW (0.000 V) in ELMB channel 48 [V AN_NEG dtmroc 5]
ELMB Channel 49:   0.000 V   [V AN_NEG dtmroc 5]
ERROR: voltage too LOW (0.000 V) in ELMB channel 49 [V AN_NEG dtmroc 5]
ELMB Channel 50:   0.001 V   [V AN_NEG dtmroc 6]
ERROR: voltage too LOW (0.001 V) in ELMB channel 50 [V AN_NEG dtmroc 6]
ELMB Channel 51:   0.000 V   [V AN_NEG dtmroc 6]
ERROR: voltage too LOW (0.000 V) in ELMB channel 51 [V AN_NEG dtmroc 6]
ELMB Channel 52:   0.002 V   [V DIGI dtmroc 9]
ERROR: voltage too LOW (0.002 V) in ELMB channel 52 [V DIGI dtmroc 9]
ELMB Channel 53:   0.002 V   [V DIGI dtmroc 10]
ERROR: voltage too LOW (0.002 V) in ELMB channel 53 [V DIGI dtmroc 10]
ELMB Channel 54:   0.002 V   [V DIGI dtmroc 11]
ERROR: voltage too LOW (0.002 V) in ELMB channel 54 [V DIGI dtmroc 11]
ELMB Channel 55:   0.002 V   [V DIGI dtmroc 12]
ERROR: voltage too LOW (0.002 V) in ELMB channel 55 [V DIGI dtmroc 12]
ELMB Channel 56:   0.002 V   [V DIGI dtmroc 13]
ERROR: voltage too LOW (0.002 V) in ELMB channel 56 [V DIGI dtmroc 13]
ELMB Channel 57:   0.001 V   [V DIGI dtmroc 13]
ERROR: voltage too LOW (0.001 V) in ELMB channel 57 [V DIGI dtmroc 13]
ELMB Channel 58:   0.002 V   [V DIGI dtmroc 14]
ERROR: voltage too LOW (0.002 V) in ELMB channel 58 [V DIGI dtmroc 14]
ELMB Channel 59:   0.001 V   [V DIGI dtmroc 14]
ERROR: voltage too LOW (0.001 V) in ELMB channel 59 [V DIGI dtmroc 14]

Temperature channels:
Channel 60, temperature 44.87
Channel 61, temperature 45.82
Channel 62, temperature 45.57
Channel 63, temperature 45.00

Current channels
******** 0. 0.003657    1. 0.002712  || 0.006369 
ERROR: curr not in range ON  (0.003 A): ELMB channel 1 [I AN_POS dtmroc 1]
******** 2. 0.002604    3. 0.000473  || 0.003077 
ERROR: curr not in range ON  (0.000 A): ELMB channel 3 [I AN_POS dtmroc 2]
******** 4. 0.000243    5. 0.000511  || 0.000754 
ERROR: curr not in range ON  (0.001 A): ELMB channel 5 [I AN_POS dtmroc 3]
******** 6. 0.002901    7. 0.000120  || 0.003021 
ERROR: curr not in range ON  (0.000 A): ELMB channel 7 [I AN_POS dtmroc 4]
******** 8. 0.002738    9. 0.000458  || 0.003197 
ERROR: curr not in range ON  (0.000 A): ELMB channel 9 [I AN_POS dtmroc 5]
******** 10. 0.002896    11. 0.000188  || 0.003085 
ERROR: curr not in range ON  (0.000 A): ELMB channel 11 [I AN_POS dtmroc 6]
******** 12. 0.000705    13. 0.000479  || 0.001184 
ERROR: curr not in range ON  (0.000 A): ELMB channel 13 [I AN_NEG dtmroc 1]
******** 14. 0.000124    15. 0.000138  || 0.000261 
ERROR: curr not in range ON  (0.000 A): ELMB channel 15 [I AN_NEG dtmroc 2]
******** 16. 0.006407    17. 0.003600  || 0.010007 
ERROR: curr not in range ON  (0.004 A): ELMB channel 17 [I AN_NEG dtmroc 3]
******** 18. 0.000324    19. 0.003070  || 0.003394 
ERROR: curr not in range ON  (0.003 A): ELMB channel 19 [I AN_NEG dtmroc 4]
******** 20. 0.002968    21. 0.012222  || 0.015190 
ERROR: curr not in range ON  (0.012 A): ELMB channel 21 [I AN_NEG dtmroc 5]
******** 22. 0.002990    23. 0.000035  || 0.003024 
ERROR: curr not in range ON  (0.000 A): ELMB channel 23 [I AN_NEG dtmroc 6]
******** 24. 0.003011    25. 0.000315  || 0.003326 
ERROR: curr not in range ON  (0.000 A): ELMB channel 25 [I DIGI dtmroc 9]
******** 26. 0.003162    27. 0.000202  || 0.003364 
ERROR: curr not in range ON  (0.000 A): ELMB channel 27 [I DIGI dtmroc 10]
******** 28. 0.000145    29. 0.000132  || 0.000277 
ERROR: curr not in range ON  (0.000 A): ELMB channel 29 [I DIGI dtmroc 11]
******** 30. 0.003156    31. 0.000308  || 0.003464 
ERROR: curr not in range ON  (0.000 A): ELMB channel 31 [I DIGI dtmroc 12]
******** 32. 0.002927    33. 0.002964  || 0.005891 
ERROR: curr not in range ON  (0.003 A): ELMB channel 33 [I DIGI dtmroc 13]
******** 34. 0.000238    35. 0.003069  || 0.003308 
ERROR: curr not in range ON  (0.003 A): ELMB channel 35 [I DIGI dtmroc 14]

Voltage channels:
ELMB Channel 36:   0.005 V   [V AN_POS dtmroc 1]
ERROR: voltage too LOW (0.005 V) in ELMB channel 36 [V AN_POS dtmroc 1]
ELMB Channel 37:   0.005 V   [V AN_POS dtmroc 2]
ERROR: voltage too LOW (0.005 V) in ELMB channel 37 [V AN_POS dtmroc 2]
ELMB Channel 38:   0.005 V   [V AN_POS dtmroc 3]
ERROR: voltage too LOW (0.005 V) in ELMB channel 38 [V AN_POS dtmroc 3]
ELMB Channel 39:   0.005 V   [V AN_POS dtmroc 4]
ERROR: voltage too LOW (0.005 V) in ELMB channel 39 [V AN_POS dtmroc 4]
ELMB Channel 40:   0.005 V   [V AN_POS dtmroc 5]
ERROR: voltage too LOW (0.005 V) in ELMB channel 40 [V AN_POS dtmroc 5]
ELMB Channel 41:   0.005 V   [V AN_POS dtmroc 5]
ERROR: voltage too LOW (0.005 V) in ELMB channel 41 [V AN_POS dtmroc 5]
ELMB Channel 42:   0.005 V   [V AN_POS dtmroc 6]
ERROR: voltage too LOW (0.005 V) in ELMB channel 42 [V AN_POS dtmroc 6]
ELMB Channel 43:   0.005 V   [V AN_POS dtmroc 6]
ERROR: voltage too LOW (0.005 V) in ELMB channel 43 [V AN_POS dtmroc 6]
ELMB Channel 44:   0.005 V   [V AN_NEG dtmroc 1]
ERROR: voltage too LOW (0.005 V) in ELMB channel 44 [V AN_NEG dtmroc 1]
ELMB Channel 45:   0.005 V   [V AN_NEG dtmroc 2]
ERROR: voltage too LOW (0.005 V) in ELMB channel 45 [V AN_NEG dtmroc 2]
ELMB Channel 46:   0.005 V   [V AN_NEG dtmroc 3]
ERROR: voltage too LOW (0.005 V) in ELMB channel 46 [V AN_NEG dtmroc 3]
ELMB Channel 47:   0.004 V   [V AN_NEG dtmroc 4]
ERROR: voltage too LOW (0.004 V) in ELMB channel 47 [V AN_NEG dtmroc 4]
ELMB Channel 48:   0.000 V   [V AN_NEG dtmroc 5]
ERROR: voltage too LOW (0.000 V) in ELMB channel 48 [V AN_NEG dtmroc 5]
ELMB Channel 49:   0.000 V   [V AN_NEG dtmroc 5]
ERROR: voltage too LOW (0.000 V) in ELMB channel 49 [V AN_NEG dtmroc 5]
ELMB Channel 50:   0.001 V   [V AN_NEG dtmroc 6]
ERROR: voltage too LOW (0.001 V) in ELMB channel 50 [V AN_NEG dtmroc 6]
ELMB Channel 51:   0.001 V   [V AN_NEG dtmroc 6]
ERROR: voltage too LOW (0.001 V) in ELMB channel 51 [V AN_NEG dtmroc 6]
ELMB Channel 52:   0.002 V   [V DIGI dtmroc 9]
ERROR: voltage too LOW (0.002 V) in ELMB channel 52 [V DIGI dtmroc 9]
ELMB Channel 53:   0.002 V   [V DIGI dtmroc 10]
ERROR: voltage too LOW (0.002 V) in ELMB channel 53 [V DIGI dtmroc 10]
ELMB Channel 54:   0.002 V   [V DIGI dtmroc 11]
ERROR: voltage too LOW (0.002 V) in ELMB channel 54 [V DIGI dtmroc 11]
ELMB Channel 55:   0.002 V   [V DIGI dtmroc 12]
ERROR: voltage too LOW (0.002 V) in ELMB channel 55 [V DIGI dtmroc 12]
ELMB Channel 56:   0.002 V   [V DIGI dtmroc 13]
ERROR: voltage too LOW (0.002 V) in ELMB channel 56 [V DIGI dtmroc 13]
ELMB Channel 57:   0.001 V   [V DIGI dtmroc 13]
ERROR: voltage too LOW (0.001 V) in ELMB channel 57 [V DIGI dtmroc 13]
ELMB Channel 58:   0.002 V   [V DIGI dtmroc 14]
ERROR: voltage too LOW (0.002 V) in ELMB channel 58 [V DIGI dtmroc 14]
ELMB Channel 59:   0.001 V   [V DIGI dtmroc 14]
ERROR: voltage too LOW (0.001 V) in ELMB channel 59 [V DIGI dtmroc 14]

Temperature channels:
Channel 60, temperature 44.80
Channel 61, temperature 45.61
Channel 62, temperature 45.37
Channel 63, temperature 44.85

Current channels
******** 0. 0.003701    1. 0.002693  || 0.006394 
ERROR: not in range ON  (0.006 A): ELMB channels 0 1 [I AN_POS dtmroc 1]
******** 2. 0.002576    3. 0.003506  || 0.006082 
ERROR: not in range ON  (0.006 A): ELMB channels 2 3 [I AN_POS dtmroc 2]
******** 4. 0.003260    5. 0.000547  || 0.003807 
ERROR: not in range ON  (0.004 A): ELMB channels 4 5 [I AN_POS dtmroc 3]
******** 6. 0.002901    7. 0.003120  || 0.006021 
ERROR: not in range ON  (0.006 A): ELMB channels 6 7 [I AN_POS dtmroc 4]
******** 8. 0.002738    9. 0.000458  || 0.003197 
ERROR: not in range ON  (0.003 A): ELMB channels 8 9 [I AN_POS dtmroc 5]
******** 10. 0.000104    11. 0.000202  || 0.000305 
ERROR: not in range ON  (0.000 A): ELMB channels 10 11 [I AN_POS dtmroc 6]
******** 12. 0.000705    13. 0.000479  || 0.001184 
ERROR: not in range ON  (0.001 A): ELMB channels 12 13 [I AN_NEG dtmroc 1]
******** 14. 0.000124    15. 0.000138  || 0.000261 
ERROR: not in range ON  (0.000 A): ELMB channels 14 15 [I AN_NEG dtmroc 2]
******** 16. 0.006407    17. 0.003600  || 0.010007 
ERROR: not in range ON  (0.010 A): ELMB channels 16 17 [I AN_NEG dtmroc 3]
******** 18. 0.000324    19. 0.003070  || 0.003394 
ERROR: not in range ON  (0.003 A): ELMB channels 18 19 [I AN_NEG dtmroc 4]
******** 20. 0.002968    21. 0.009122  || 0.012090 
ERROR: not in range ON  (0.012 A): ELMB channels 20 21 [I AN_NEG dtmroc 5]
******** 22. 0.002990    23. 0.000035  || 0.003024 
ERROR: not in range ON  (0.003 A): ELMB channels 22 23 [I AN_NEG dtmroc 6]
******** 24. 0.003011    25. 0.002685  || 0.005696 
ERROR: not in range ON  (0.006 A): ELMB channels 24 25 [I DIGI dtmroc 9]
******** 26. 0.000189    27. 0.003235  || 0.003424 
ERROR: not in range ON  (0.003 A): ELMB channels 26 27 [I DIGI dtmroc 10]
******** 28. 0.000145    29. 0.000132  || 0.000277 
ERROR: not in range ON  (0.000 A): ELMB channels 28 29 [I DIGI dtmroc 11]
******** 30. 0.003156    31. 0.000308  || 0.003464 
ERROR: not in range ON  (0.003 A): ELMB channels 30 31 [I DIGI dtmroc 12]
******** 32. 0.002927    33. 0.002964  || 0.005891 
ERROR: not in range ON  (0.006 A): ELMB channels 32 33 [I DIGI dtmroc 13]
******** 34. 0.002762    35. 0.003069  || 0.005831 
ERROR: not in range ON  (0.006 A): ELMB channels 34 35 [I DIGI dtmroc 14]

Voltage channels:
ELMB Channel 36:   0.005 V   [V AN_POS dtmroc 1]
ERROR: voltage too LOW (0.005 V) in ELMB channel 36 [V AN_POS dtmroc 1]
ELMB Channel 37:   0.005 V   [V AN_POS dtmroc 2]
ERROR: voltage too LOW (0.005 V) in ELMB channel 37 [V AN_POS dtmroc 2]
ELMB Channel 38:   0.005 V   [V AN_POS dtmroc 3]
ERROR: voltage too LOW (0.005 V) in ELMB channel 38 [V AN_POS dtmroc 3]
ELMB Channel 39:   0.005 V   [V AN_POS dtmroc 4]
ERROR: voltage too LOW (0.005 V) in ELMB channel 39 [V AN_POS dtmroc 4]
ELMB Channel 40:   0.005 V   [V AN_POS dtmroc 5]
ERROR: voltage too LOW (0.005 V) in ELMB channel 40 [V AN_POS dtmroc 5]
ELMB Channel 41:   0.005 V   [V AN_POS dtmroc 5]
ERROR: voltage too LOW (0.005 V) in ELMB channel 41 [V AN_POS dtmroc 5]
ELMB Channel 42:   0.005 V   [V AN_POS dtmroc 6]
ERROR: voltage too LOW (0.005 V) in ELMB channel 42 [V AN_POS dtmroc 6]
ELMB Channel 43:   0.005 V   [V AN_POS dtmroc 6]
ERROR: voltage too LOW (0.005 V) in ELMB channel 43 [V AN_POS dtmroc 6]
ELMB Channel 44:   0.005 V   [V AN_NEG dtmroc 1]
ERROR: voltage too LOW (0.005 V) in ELMB channel 44 [V AN_NEG dtmroc 1]
ELMB Channel 45:   0.005 V   [V AN_NEG dtmroc 2]
ERROR: voltage too LOW (0.005 V) in ELMB channel 45 [V AN_NEG dtmroc 2]
ELMB Channel 46:   0.005 V   [V AN_NEG dtmroc 3]
ERROR: voltage too LOW (0.005 V) in ELMB channel 46 [V AN_NEG dtmroc 3]
ELMB Channel 47:   0.004 V   [V AN_NEG dtmroc 4]
ERROR: voltage too LOW (0.004 V) in ELMB channel 47 [V AN_NEG dtmroc 4]
ELMB Channel 48:   0.000 V   [V AN_NEG dtmroc 5]
ERROR: voltage too LOW (0.000 V) in ELMB channel 48 [V AN_NEG dtmroc 5]
ELMB Channel 49:   0.000 V   [V AN_NEG dtmroc 5]
ERROR: voltage too LOW (0.000 V) in ELMB channel 49 [V AN_NEG dtmroc 5]
ELMB Channel 50:   0.001 V   [V AN_NEG dtmroc 6]
ERROR: voltage too LOW (0.001 V) in ELMB channel 50 [V AN_NEG dtmroc 6]
ELMB Channel 51:   0.001 V   [V AN_NEG dtmroc 6]
ERROR: voltage too LOW (0.001 V) in ELMB channel 51 [V AN_NEG dtmroc 6]
ELMB Channel 52:   0.002 V   [V DIGI dtmroc 9]
ERROR: voltage too LOW (0.002 V) in ELMB channel 52 [V DIGI dtmroc 9]
ELMB Channel 53:   0.002 V   [V DIGI dtmroc 10]
ERROR: voltage too LOW (0.002 V) in ELMB channel 53 [V DIGI dtmroc 10]
ELMB Channel 54:   0.002 V   [V DIGI dtmroc 11]
ERROR: voltage too LOW (0.002 V) in ELMB channel 54 [V DIGI dtmroc 11]
ELMB Channel 55:   0.002 V   [V DIGI dtmroc 12]
ERROR: voltage too LOW (0.002 V) in ELMB channel 55 [V DIGI dtmroc 12]
ELMB Channel 56:   0.002 V   [V DIGI dtmroc 13]
ERROR: voltage too LOW (0.002 V) in ELMB channel 56 [V DIGI dtmroc 13]
ELMB Channel 57:   0.001 V   [V DIGI dtmroc 13]
ERROR: voltage too LOW (0.001 V) in ELMB channel 57 [V DIGI dtmroc 13]
ELMB Channel 58:   0.002 V   [V DIGI dtmroc 14]
ERROR: voltage too LOW (0.002 V) in ELMB channel 58 [V DIGI dtmroc 14]
ELMB Channel 59:   0.001 V   [V DIGI dtmroc 14]
ERROR: voltage too LOW (0.001 V) in ELMB channel 59 [V DIGI dtmroc 14]

Temperature channels:
Channel 60, temperature 44.71
Channel 61, temperature 45.40
Channel 62, temperature 45.21
Channel 63, temperature 44.74

 TEST is finished: temperature,current or voltage error. 14.10.2009 14:26:13
