Calibration done: 05.06.2007 17:17:19
F883
Current channel, calibration factor
0  , -0.001061 ,  -0.396700
1  , 0.000026 ,  0.009100
2  , -0.001139 ,  -0.427200
3  , 0.000001 ,  0.000000
4  , -0.000027 ,  -0.009100
5  , -0.000009 ,  -0.003000
6  , 0.000085 ,  0.030500
7  , 0.000025 ,  0.006100
8  , 0.001212 ,  0.451600
9  , 0.000216 ,  0.079300
10  , -0.001284 ,  -0.479100
11  , 0.000194 ,  0.073200
12  , -0.000546 ,  0.192200
13  , -0.000002 ,  0.003000
14  , -0.000632 ,  0.225800
15  , -0.000002 ,  0.000000
16  , -0.000735 ,  0.259400
17  , -0.000010 ,  0.006100
18  , 0.000527 ,  -0.186100
19  , -0.000008 ,  0.003000
20  , -0.001611 ,  0.576700
21  , 0.001325 ,  -0.469900
22  , -0.001753 ,  0.622500
23  , -0.000134 ,  0.048800
24  , 0.000310 ,  0.100700
25  , 0.000008 ,  0.006100
26  , 0.001621 ,  0.518800
27  , 0.000003 ,  0.000000
28  , -0.000725 ,  -0.234900
29  , 0.000000 ,  0.003000
30  , 0.001123 ,  0.360100
31  , 0.000002 ,  0.009100
32  , 0.000099 ,  0.033500
33  , 0.000819 ,  0.265500
34  , 0.000063 ,  0.018300
35  , 0.000000 ,  0.000000
