=====================================================
Check basic functions of a card TYPE Wheel B/Barrel
=====================================================
CALIBRATION FILE: C:\LVPP_TESTS\data\card_127\LVPP_CALIB_127.csv
Load: 5 ohms, valid current range: <0.520 A - 0.820 A> 
TEST is started: 10.09.2009 18:46:27

ELMB <1> init OK
ELMB NB: 1 Initializing of DTMROCS: 1 2 3 4 5 6 9 10 11 12 13 14 

Single Write/Read DACs 01 23 in all DTMROCS
Write/Read DACs BROADCAST 01 23 in all DTMROCS

Check set INHIBITS

Set all regulators ON one by one
Set all regulators OFF one by one
Set all regulators ON - BROADCAST
Set all regulators OFF - BROADCAST

Check ANALOG readout

Hard reset: all regulators are off, all DACs are set to 0xFF.
Current channels
******** 0. 0.002928  
******** 2. 0.003198  
******** 4. 0.000277  
******** 6. 0.000131  
******** 8. 0.003051  
******** 9. 0.000010  
******** 10. 0.002907  
******** 11. 0.003179  
******** 12. 0.003742  
******** 14. 0.003768  
******** 16. 0.005858  
******** 18. 0.000102  
******** 20. 0.000030  
******** 21. 0.009111  
******** 22. 0.003072  
******** 23. 0.000020  
******** 24. 0.003096  
******** 26. 0.003011  
******** 28. 0.003228  
******** 30. 0.002998  
******** 32. 0.002953  
******** 33. 0.003139  
******** 34. 0.002928  
******** 35. 0.003031  
******** 0. 0.002928  
******** 2. 0.003198  
******** 4. 0.000277  
******** 6. 0.000131  
******** 8. 0.003051  
******** 9. 0.000010  
******** 10. 0.002907  
******** 11. 0.003179  
Voltage channels
ELMB Channel 36:   0.005 V   [V AN_POS dtmroc 1]
ELMB Channel 37:   0.004 V   [V AN_POS dtmroc 2]
ELMB Channel 38:   0.004 V   [V AN_POS dtmroc 3]
ELMB Channel 39:   0.004 V   [V AN_POS dtmroc 4]
ELMB Channel 40:   0.004 V   [V AN_POS dtmroc 5]
ELMB Channel 41:   0.004 V   [V AN_POS dtmroc 5]
ELMB Channel 42:   0.005 V   [V AN_POS dtmroc 6]
ELMB Channel 43:   0.005 V   [V AN_POS dtmroc 6]
ELMB Channel 44:   0.005 V   [V AN_NEG dtmroc 1]
ELMB Channel 45:   0.005 V   [V AN_NEG dtmroc 2]
ELMB Channel 46:   0.005 V   [V AN_NEG dtmroc 3]
ELMB Channel 47:   0.004 V   [V AN_NEG dtmroc 4]
ELMB Channel 48:   0.000 V   [V AN_NEG dtmroc 5]
ELMB Channel 49:   0.000 V   [V AN_NEG dtmroc 5]
ELMB Channel 50:   0.001 V   [V AN_NEG dtmroc 6]
ELMB Channel 51:   0.001 V   [V AN_NEG dtmroc 6]
ELMB Channel 52:   0.002 V   [V DIGI dtmroc 9]
ELMB Channel 53:   0.002 V   [V DIGI dtmroc 10]
ELMB Channel 54:   0.002 V   [V DIGI dtmroc 11]
ELMB Channel 55:   0.002 V   [V DIGI dtmroc 12]
ELMB Channel 56:   0.002 V   [V DIGI dtmroc 13]
ELMB Channel 57:   0.001 V   [V DIGI dtmroc 13]
ELMB Channel 58:   0.002 V   [V DIGI dtmroc 14]
ELMB Channel 59:   0.001 V   [V DIGI dtmroc 14]
Temperature channels
Channel 60, temperature 33.22
Channel 61, temperature 35.32
Channel 62, temperature 30.81
Channel 63, temperature 35.59

Set all regulators ON
Current channels
******** 0. 0.762409  
******** 2. 0.787376  
******** 4. 0.772493  
******** 6. 0.782140  
******** 8. 0.783421  
******** 9. 0.783908  
******** 10. 0.769590  
******** 11. 0.767759  
******** 12. 0.739700  
******** 14. 0.761925  
******** 16. 0.779463  
******** 18. 0.758238  
******** 20. 0.756095  
******** 21. 0.740834  
******** 22. 0.775167  
******** 23. 0.734237  
******** 24. 0.740065  
******** 26. 0.726515  
******** 28. 0.753433  
******** 30. 0.771638  
******** 32. 0.781116  
******** 33. 0.758257  
******** 34. 0.746732  
******** 35. 0.760077  
******** 0. 0.762409  
******** 2. 0.787376  
******** 4. 0.772493  
******** 6. 0.782140  
******** 8. 0.783421  
******** 9. 0.783908  
******** 10. 0.769590  
******** 11. 0.767759  
Voltage channels
ELMB Channel 36:   3.798 V   [V AN_POS dtmroc 1]
ELMB Channel 37:   3.824 V   [V AN_POS dtmroc 2]
ELMB Channel 38:   3.840 V   [V AN_POS dtmroc 3]
ELMB Channel 39:   3.820 V   [V AN_POS dtmroc 4]
ELMB Channel 40:   3.839 V   [V AN_POS dtmroc 5]
ELMB Channel 41:   3.829 V   [V AN_POS dtmroc 5]
ELMB Channel 42:   3.805 V   [V AN_POS dtmroc 6]
ELMB Channel 43:   3.813 V   [V AN_POS dtmroc 6]
ELMB Channel 44:   -3.707 V   [V AN_NEG dtmroc 1]
ELMB Channel 45:   -3.691 V   [V AN_NEG dtmroc 2]
ELMB Channel 46:   -3.708 V   [V AN_NEG dtmroc 3]
ELMB Channel 47:   -3.721 V   [V AN_NEG dtmroc 4]
ELMB Channel 48:   -3.682 V   [V AN_NEG dtmroc 5]
ELMB Channel 49:   -3.710 V   [V AN_NEG dtmroc 5]
ELMB Channel 50:   -3.702 V   [V AN_NEG dtmroc 6]
ELMB Channel 51:   -3.701 V   [V AN_NEG dtmroc 6]
ELMB Channel 52:   3.855 V   [V DIGI dtmroc 9]
ELMB Channel 53:   3.792 V   [V DIGI dtmroc 10]
ELMB Channel 54:   3.818 V   [V DIGI dtmroc 11]
ELMB Channel 55:   3.846 V   [V DIGI dtmroc 12]
ELMB Channel 56:   3.817 V   [V DIGI dtmroc 13]
ELMB Channel 57:   3.825 V   [V DIGI dtmroc 13]
ELMB Channel 58:   3.828 V   [V DIGI dtmroc 14]
ELMB Channel 59:   3.823 V   [V DIGI dtmroc 14]
Temperature channels
Channel 60, temperature 33.03
Channel 61, temperature 34.66
Channel 62, temperature 30.66
Channel 63, temperature 34.82

Set all regulators ON
Current channels
******** 0. 0.765424  
******** 2. 0.787392  
******** 4. 0.772515  
******** 6. 0.785207  
******** 8. 0.783441  
******** 9. 0.787012  
******** 10. 0.769597  
******** 11. 0.773834  
******** 12. 0.740096  
******** 14. 0.765383  
******** 16. 0.779360  
******** 18. 0.758207  
******** 20. 0.759015  
******** 21. 0.740909  
******** 22. 0.775384  
******** 23. 0.737158  
******** 24. 0.743113  
******** 26. 0.726517  
******** 28. 0.753478  
******** 30. 0.777738  
******** 32. 0.781097  
******** 33. 0.758396  
******** 34. 0.749718  
******** 35. 0.760119  
******** 0. 0.765424  
******** 2. 0.787392  
******** 4. 0.772515  
******** 6. 0.785207  
******** 8. 0.783441  
******** 9. 0.787012  
******** 10. 0.769597  
******** 11. 0.773834  
Voltage channels
ELMB Channel 36:   3.797 V   [V AN_POS dtmroc 1]
ELMB Channel 37:   3.824 V   [V AN_POS dtmroc 2]
ELMB Channel 38:   3.840 V   [V AN_POS dtmroc 3]
ELMB Channel 39:   3.821 V   [V AN_POS dtmroc 4]
ELMB Channel 40:   3.841 V   [V AN_POS dtmroc 5]
ELMB Channel 41:   3.831 V   [V AN_POS dtmroc 5]
ELMB Channel 42:   3.804 V   [V AN_POS dtmroc 6]
ELMB Channel 43:   3.812 V   [V AN_POS dtmroc 6]
ELMB Channel 44:   -3.710 V   [V AN_NEG dtmroc 1]
ELMB Channel 45:   -3.693 V   [V AN_NEG dtmroc 2]
ELMB Channel 46:   -3.710 V   [V AN_NEG dtmroc 3]
ELMB Channel 47:   -3.722 V   [V AN_NEG dtmroc 4]
ELMB Channel 48:   -3.684 V   [V AN_NEG dtmroc 5]
ELMB Channel 49:   -3.712 V   [V AN_NEG dtmroc 5]
ELMB Channel 50:   -3.704 V   [V AN_NEG dtmroc 6]
ELMB Channel 51:   -3.703 V   [V AN_NEG dtmroc 6]
ELMB Channel 52:   3.856 V   [V DIGI dtmroc 9]
ELMB Channel 53:   3.792 V   [V DIGI dtmroc 10]
ELMB Channel 54:   3.818 V   [V DIGI dtmroc 11]
ELMB Channel 55:   3.846 V   [V DIGI dtmroc 12]
ELMB Channel 56:   3.818 V   [V DIGI dtmroc 13]
ELMB Channel 57:   3.827 V   [V DIGI dtmroc 13]
ELMB Channel 58:   3.829 V   [V DIGI dtmroc 14]
ELMB Channel 59:   3.824 V   [V DIGI dtmroc 14]
Temperature channels
Channel 60, temperature 32.86
Channel 61, temperature 36.18
Channel 62, temperature 31.35
Channel 63, temperature 37.18

Set all regulators ON
Current channels
******** 0. 0.765429  
******** 2. 0.790407  
******** 4. 0.772536  
******** 6. 0.788297  
******** 8. 0.780345  
******** 9. 0.790014  
******** 10. 0.772703  
******** 11. 0.779921  
******** 12. 0.740393  
******** 14. 0.765845  
******** 16. 0.779169  
******** 18. 0.758144  
******** 20. 0.758593  
******** 21. 0.744159  
******** 22. 0.778883  
******** 23. 0.737041  
******** 24. 0.740145  
******** 26. 0.729619  
******** 28. 0.756525  
******** 30. 0.780839  
******** 32. 0.781097  
******** 33. 0.758396  
******** 34. 0.749718  
******** 35. 0.760119  
******** 0. 0.765429  
******** 2. 0.790407  
******** 4. 0.772536  
******** 6. 0.788297  
******** 8. 0.780345  
******** 9. 0.790014  
******** 10. 0.772703  
******** 11. 0.779921  
Voltage channels
ELMB Channel 36:   3.797 V   [V AN_POS dtmroc 1]
ELMB Channel 37:   3.824 V   [V AN_POS dtmroc 2]
ELMB Channel 38:   3.840 V   [V AN_POS dtmroc 3]
ELMB Channel 39:   3.822 V   [V AN_POS dtmroc 4]
ELMB Channel 40:   3.841 V   [V AN_POS dtmroc 5]
ELMB Channel 41:   3.832 V   [V AN_POS dtmroc 5]
ELMB Channel 42:   3.804 V   [V AN_POS dtmroc 6]
ELMB Channel 43:   3.812 V   [V AN_POS dtmroc 6]
ELMB Channel 44:   -3.712 V   [V AN_NEG dtmroc 1]
ELMB Channel 45:   -3.696 V   [V AN_NEG dtmroc 2]
ELMB Channel 46:   -3.713 V   [V AN_NEG dtmroc 3]
ELMB Channel 47:   -3.725 V   [V AN_NEG dtmroc 4]
ELMB Channel 48:   -3.689 V   [V AN_NEG dtmroc 5]
ELMB Channel 49:   -3.717 V   [V AN_NEG dtmroc 5]
ELMB Channel 50:   -3.708 V   [V AN_NEG dtmroc 6]
ELMB Channel 51:   -3.708 V   [V AN_NEG dtmroc 6]
ELMB Channel 52:   3.857 V   [V DIGI dtmroc 9]
ELMB Channel 53:   3.793 V   [V DIGI dtmroc 10]
ELMB Channel 54:   3.819 V   [V DIGI dtmroc 11]
ELMB Channel 55:   3.846 V   [V DIGI dtmroc 12]
ELMB Channel 56:   3.818 V   [V DIGI dtmroc 13]
ELMB Channel 57:   3.827 V   [V DIGI dtmroc 13]
ELMB Channel 58:   3.829 V   [V DIGI dtmroc 14]
ELMB Channel 59:   3.824 V   [V DIGI dtmroc 14]
Temperature channels
Channel 60, temperature 33.36
Channel 61, temperature 38.16
Channel 62, temperature 32.59
Channel 63, temperature 39.51

Set all regulators ON
Current channels
******** 0. 0.765429  
******** 2. 0.790407  
******** 4. 0.772536  
******** 6. 0.788297  
******** 8. 0.780349  
******** 9. 0.793114  
******** 10. 0.772703  
******** 11. 0.783021  
******** 12. 0.740444  
******** 14. 0.765793  
******** 16. 0.779169  
******** 18. 0.758128  
******** 20. 0.758473  
******** 21. 0.747201  
******** 22. 0.778992  
******** 23. 0.736982  
******** 24. 0.743161  
******** 26. 0.729619  
******** 28. 0.756570  
******** 30. 0.783838  
******** 32. 0.784197  
******** 33. 0.758431  
******** 34. 0.749703  
******** 35. 0.760130  
******** 0. 0.765429  
******** 2. 0.790407  
******** 4. 0.772536  
******** 6. 0.788297  
******** 8. 0.780349  
******** 9. 0.793114  
******** 10. 0.772703  
******** 11. 0.783021  
Voltage channels
ELMB Channel 36:   3.797 V   [V AN_POS dtmroc 1]
ELMB Channel 37:   3.824 V   [V AN_POS dtmroc 2]
ELMB Channel 38:   3.840 V   [V AN_POS dtmroc 3]
ELMB Channel 39:   3.822 V   [V AN_POS dtmroc 4]
ELMB Channel 40:   3.842 V   [V AN_POS dtmroc 5]
ELMB Channel 41:   3.832 V   [V AN_POS dtmroc 5]
ELMB Channel 42:   3.804 V   [V AN_POS dtmroc 6]
ELMB Channel 43:   3.812 V   [V AN_POS dtmroc 6]
ELMB Channel 44:   -3.712 V   [V AN_NEG dtmroc 1]
ELMB Channel 45:   -3.696 V   [V AN_NEG dtmroc 2]
ELMB Channel 46:   -3.713 V   [V AN_NEG dtmroc 3]
ELMB Channel 47:   -3.725 V   [V AN_NEG dtmroc 4]
ELMB Channel 48:   -3.690 V   [V AN_NEG dtmroc 5]
ELMB Channel 49:   -3.718 V   [V AN_NEG dtmroc 5]
ELMB Channel 50:   -3.709 V   [V AN_NEG dtmroc 6]
ELMB Channel 51:   -3.710 V   [V AN_NEG dtmroc 6]
ELMB Channel 52:   3.857 V   [V DIGI dtmroc 9]
ELMB Channel 53:   3.793 V   [V DIGI dtmroc 10]
ELMB Channel 54:   3.819 V   [V DIGI dtmroc 11]
ELMB Channel 55:   3.846 V   [V DIGI dtmroc 12]
ELMB Channel 56:   3.818 V   [V DIGI dtmroc 13]
ELMB Channel 57:   3.827 V   [V DIGI dtmroc 13]
ELMB Channel 58:   3.829 V   [V DIGI dtmroc 14]
ELMB Channel 59:   3.825 V   [V DIGI dtmroc 14]
Temperature channels
Channel 60, temperature 33.88
Channel 61, temperature 39.60
Channel 62, temperature 33.42
Channel 63, temperature 41.15

Set all regulators ON
Current channels
******** 0. 0.765434  
******** 2. 0.790407  
******** 4. 0.772536  
******** 6. 0.788286  
******** 8. 0.780349  
******** 9. 0.796115  
******** 10. 0.772697  
******** 11. 0.786021  
******** 12. 0.740591  
******** 14. 0.766152  
******** 16. 0.779049  
******** 18. 0.758081  
******** 20. 0.758202  
******** 21. 0.750387  
******** 22. 0.779245  
******** 23. 0.740013  
******** 24. 0.743178  
******** 26. 0.729621  
******** 28. 0.753570  
******** 30. 0.783838  
******** 32. 0.784188  
******** 33. 0.758431  
******** 34. 0.752803  
******** 35. 0.760140  
******** 0. 0.765434  
******** 2. 0.790407  
******** 4. 0.772536  
******** 6. 0.788286  
******** 8. 0.780349  
******** 9. 0.796115  
******** 10. 0.772697  
******** 11. 0.786021  
Voltage channels
ELMB Channel 36:   3.796 V   [V AN_POS dtmroc 1]
ELMB Channel 37:   3.824 V   [V AN_POS dtmroc 2]
ELMB Channel 38:   3.840 V   [V AN_POS dtmroc 3]
ELMB Channel 39:   3.822 V   [V AN_POS dtmroc 4]
ELMB Channel 40:   3.842 V   [V AN_POS dtmroc 5]
ELMB Channel 41:   3.833 V   [V AN_POS dtmroc 5]
ELMB Channel 42:   3.804 V   [V AN_POS dtmroc 6]
ELMB Channel 43:   3.812 V   [V AN_POS dtmroc 6]
ELMB Channel 44:   -3.713 V   [V AN_NEG dtmroc 1]
ELMB Channel 45:   -3.698 V   [V AN_NEG dtmroc 2]
ELMB Channel 46:   -3.716 V   [V AN_NEG dtmroc 3]
ELMB Channel 47:   -3.727 V   [V AN_NEG dtmroc 4]
ELMB Channel 48:   -3.693 V   [V AN_NEG dtmroc 5]
ELMB Channel 49:   -3.721 V   [V AN_NEG dtmroc 5]
ELMB Channel 50:   -3.712 V   [V AN_NEG dtmroc 6]
ELMB Channel 51:   -3.712 V   [V AN_NEG dtmroc 6]
ELMB Channel 52:   3.858 V   [V DIGI dtmroc 9]
ELMB Channel 53:   3.793 V   [V DIGI dtmroc 10]
ELMB Channel 54:   3.819 V   [V DIGI dtmroc 11]
ELMB Channel 55:   3.846 V   [V DIGI dtmroc 12]
ELMB Channel 56:   3.818 V   [V DIGI dtmroc 13]
ELMB Channel 57:   3.827 V   [V DIGI dtmroc 13]
ELMB Channel 58:   3.829 V   [V DIGI dtmroc 14]
ELMB Channel 59:   3.825 V   [V DIGI dtmroc 14]
Temperature channels
Channel 60, temperature 34.40
Channel 61, temperature 40.71
Channel 62, temperature 33.98
Channel 63, temperature 42.39

Set all regulators ON
Current channels
******** 0. 0.768529  
******** 2. 0.793507  
******** 4. 0.772558  
******** 6. 0.791286  
******** 8. 0.780353  
******** 9. 0.796115  
******** 10. 0.772703  
******** 11. 0.786021  
******** 12. 0.740591  
******** 14. 0.765998  
******** 16. 0.779100  
******** 18. 0.758089  
******** 20. 0.758262  
******** 21. 0.750398  
******** 22. 0.779245  
******** 23. 0.736913  
******** 24. 0.743161  
******** 26. 0.729621  
******** 28. 0.756616  
******** 30. 0.786938  
******** 32. 0.784188  
******** 33. 0.758431  
******** 34. 0.752803  
******** 35. 0.760140  
******** 0. 0.768529  
******** 2. 0.793507  
******** 4. 0.772558  
******** 6. 0.791286  
******** 8. 0.780353  
******** 9. 0.796115  
******** 10. 0.772703  
******** 11. 0.786021  
Voltage channels
ELMB Channel 36:   3.797 V   [V AN_POS dtmroc 1]
ELMB Channel 37:   3.824 V   [V AN_POS dtmroc 2]
ELMB Channel 38:   3.841 V   [V AN_POS dtmroc 3]
ELMB Channel 39:   3.822 V   [V AN_POS dtmroc 4]
ELMB Channel 40:   3.842 V   [V AN_POS dtmroc 5]
ELMB Channel 41:   3.833 V   [V AN_POS dtmroc 5]
ELMB Channel 42:   3.804 V   [V AN_POS dtmroc 6]
ELMB Channel 43:   3.812 V   [V AN_POS dtmroc 6]
ELMB Channel 44:   -3.713 V   [V AN_NEG dtmroc 1]
ELMB Channel 45:   -3.697 V   [V AN_NEG dtmroc 2]
ELMB Channel 46:   -3.715 V   [V AN_NEG dtmroc 3]
ELMB Channel 47:   -3.727 V   [V AN_NEG dtmroc 4]
ELMB Channel 48:   -3.693 V   [V AN_NEG dtmroc 5]
ELMB Channel 49:   -3.721 V   [V AN_NEG dtmroc 5]
ELMB Channel 50:   -3.712 V   [V AN_NEG dtmroc 6]
ELMB Channel 51:   -3.712 V   [V AN_NEG dtmroc 6]
ELMB Channel 52:   3.857 V   [V DIGI dtmroc 9]
ELMB Channel 53:   3.793 V   [V DIGI dtmroc 10]
ELMB Channel 54:   3.819 V   [V DIGI dtmroc 11]
ELMB Channel 55:   3.846 V   [V DIGI dtmroc 12]
ELMB Channel 56:   3.818 V   [V DIGI dtmroc 13]
ELMB Channel 57:   3.827 V   [V DIGI dtmroc 13]
ELMB Channel 58:   3.829 V   [V DIGI dtmroc 14]
ELMB Channel 59:   3.825 V   [V DIGI dtmroc 14]
Temperature channels
Channel 60, temperature 34.75
Channel 61, temperature 41.43
Channel 62, temperature 34.34
Channel 63, temperature 43.08

Set all regulators ON
Current channels
******** 0. 0.768534  
******** 2. 0.793507  
******** 4. 0.772558  
******** 6. 0.791286  
******** 8. 0.780357  
******** 9. 0.796116  
******** 10. 0.772703  
******** 11. 0.789108  
******** 12. 0.740741  
******** 14. 0.766305  
******** 16. 0.778997  
******** 18. 0.761142  
******** 20. 0.758051  
******** 21. 0.750451  
******** 22. 0.782427  
******** 23. 0.739964  
******** 24. 0.743178  
******** 26. 0.729623  
******** 28. 0.756616  
******** 30. 0.786938  
******** 32. 0.784188  
******** 33. 0.758465  
******** 34. 0.752803  
******** 35. 0.760130  
******** 0. 0.768534  
******** 2. 0.793507  
******** 4. 0.772558  
******** 6. 0.791286  
******** 8. 0.780357  
******** 9. 0.796116  
******** 10. 0.772703  
******** 11. 0.789108  
Voltage channels
ELMB Channel 36:   3.796 V   [V AN_POS dtmroc 1]
ELMB Channel 37:   3.824 V   [V AN_POS dtmroc 2]
ELMB Channel 38:   3.841 V   [V AN_POS dtmroc 3]
ELMB Channel 39:   3.822 V   [V AN_POS dtmroc 4]
ELMB Channel 40:   3.842 V   [V AN_POS dtmroc 5]
ELMB Channel 41:   3.833 V   [V AN_POS dtmroc 5]
ELMB Channel 42:   3.804 V   [V AN_POS dtmroc 6]
ELMB Channel 43:   3.811 V   [V AN_POS dtmroc 6]
ELMB Channel 44:   -3.714 V   [V AN_NEG dtmroc 1]
ELMB Channel 45:   -3.699 V   [V AN_NEG dtmroc 2]
ELMB Channel 46:   -3.717 V   [V AN_NEG dtmroc 3]
ELMB Channel 47:   -3.729 V   [V AN_NEG dtmroc 4]
ELMB Channel 48:   -3.695 V   [V AN_NEG dtmroc 5]
ELMB Channel 49:   -3.723 V   [V AN_NEG dtmroc 5]
ELMB Channel 50:   -3.713 V   [V AN_NEG dtmroc 6]
ELMB Channel 51:   -3.714 V   [V AN_NEG dtmroc 6]
ELMB Channel 52:   3.858 V   [V DIGI dtmroc 9]
ELMB Channel 53:   3.793 V   [V DIGI dtmroc 10]
ELMB Channel 54:   3.819 V   [V DIGI dtmroc 11]
ELMB Channel 55:   3.846 V   [V DIGI dtmroc 12]
ELMB Channel 56:   3.818 V   [V DIGI dtmroc 13]
ELMB Channel 57:   3.827 V   [V DIGI dtmroc 13]
ELMB Channel 58:   3.829 V   [V DIGI dtmroc 14]
ELMB Channel 59:   3.825 V   [V DIGI dtmroc 14]
Temperature channels
Channel 60, temperature 35.06
Channel 61, temperature 42.01
Channel 62, temperature 34.57
Channel 63, temperature 43.66

Set all regulators ON
Current channels
******** 0. 0.768529  
******** 2. 0.796507  
******** 4. 0.772558  
******** 6. 0.791286  
******** 8. 0.780353  
******** 9. 0.796116  
******** 10. 0.772703  
******** 11. 0.789108  
******** 12. 0.740691  
******** 14. 0.766100  
******** 16. 0.779049  
******** 18. 0.758065  
******** 20. 0.758111  
******** 21. 0.750441  
******** 22. 0.782390  
******** 23. 0.736874  
******** 24. 0.743178  
******** 26. 0.729623  
******** 28. 0.756616  
******** 30. 0.786938  
******** 32. 0.784188  
******** 33. 0.758465  
******** 34. 0.752803  
******** 35. 0.760140  
******** 0. 0.768529  
******** 2. 0.796507  
******** 4. 0.772558  
******** 6. 0.791286  
******** 8. 0.780353  
******** 9. 0.796116  
******** 10. 0.772703  
******** 11. 0.789108  
Voltage channels
ELMB Channel 36:   3.797 V   [V AN_POS dtmroc 1]
ELMB Channel 37:   3.824 V   [V AN_POS dtmroc 2]
ELMB Channel 38:   3.841 V   [V AN_POS dtmroc 3]
ELMB Channel 39:   3.822 V   [V AN_POS dtmroc 4]
ELMB Channel 40:   3.842 V   [V AN_POS dtmroc 5]
ELMB Channel 41:   3.833 V   [V AN_POS dtmroc 5]
ELMB Channel 42:   3.804 V   [V AN_POS dtmroc 6]
ELMB Channel 43:   3.811 V   [V AN_POS dtmroc 6]
ELMB Channel 44:   -3.714 V   [V AN_NEG dtmroc 1]
ELMB Channel 45:   -3.698 V   [V AN_NEG dtmroc 2]
ELMB Channel 46:   -3.716 V   [V AN_NEG dtmroc 3]
ELMB Channel 47:   -3.728 V   [V AN_NEG dtmroc 4]
ELMB Channel 48:   -3.694 V   [V AN_NEG dtmroc 5]
ELMB Channel 49:   -3.722 V   [V AN_NEG dtmroc 5]
ELMB Channel 50:   -3.713 V   [V AN_NEG dtmroc 6]
ELMB Channel 51:   -3.713 V   [V AN_NEG dtmroc 6]
ELMB Channel 52:   3.858 V   [V DIGI dtmroc 9]
ELMB Channel 53:   3.793 V   [V DIGI dtmroc 10]
ELMB Channel 54:   3.819 V   [V DIGI dtmroc 11]
ELMB Channel 55:   3.846 V   [V DIGI dtmroc 12]
ELMB Channel 56:   3.818 V   [V DIGI dtmroc 13]
ELMB Channel 57:   3.827 V   [V DIGI dtmroc 13]
ELMB Channel 58:   3.829 V   [V DIGI dtmroc 14]
ELMB Channel 59:   3.825 V   [V DIGI dtmroc 14]
Temperature channels
Channel 60, temperature 35.22
Channel 61, temperature 42.37
Channel 62, temperature 34.79
Channel 63, temperature 44.07

Set all regulators ON
Current channels
******** 0. 0.768534  
******** 2. 0.793507  
******** 4. 0.772558  
******** 6. 0.791286  
******** 8. 0.777357  
******** 9. 0.799216  
******** 10. 0.772703  
******** 11. 0.792108  
******** 12. 0.740741  
******** 14. 0.766409  
******** 16. 0.778962  
******** 18. 0.758026  
******** 20. 0.757930  
******** 21. 0.753484  
******** 22. 0.782500  
******** 23. 0.736835  
******** 24. 0.743178  
******** 26. 0.729621  
******** 28. 0.756616  
******** 30. 0.786938  
******** 32. 0.784188  
******** 33. 0.758465  
******** 34. 0.752803  
******** 35. 0.760140  
******** 0. 0.768534  
******** 2. 0.793507  
******** 4. 0.772558  
******** 6. 0.791286  
******** 8. 0.777357  
******** 9. 0.799216  
******** 10. 0.772703  
******** 11. 0.792108  
Voltage channels
ELMB Channel 36:   3.796 V   [V AN_POS dtmroc 1]
ELMB Channel 37:   3.824 V   [V AN_POS dtmroc 2]
ELMB Channel 38:   3.841 V   [V AN_POS dtmroc 3]
ELMB Channel 39:   3.822 V   [V AN_POS dtmroc 4]
ELMB Channel 40:   3.842 V   [V AN_POS dtmroc 5]
ELMB Channel 41:   3.833 V   [V AN_POS dtmroc 5]
ELMB Channel 42:   3.804 V   [V AN_POS dtmroc 6]
ELMB Channel 43:   3.811 V   [V AN_POS dtmroc 6]
ELMB Channel 44:   -3.714 V   [V AN_NEG dtmroc 1]
ELMB Channel 45:   -3.700 V   [V AN_NEG dtmroc 2]
ELMB Channel 46:   -3.717 V   [V AN_NEG dtmroc 3]
ELMB Channel 47:   -3.730 V   [V AN_NEG dtmroc 4]
ELMB Channel 48:   -3.696 V   [V AN_NEG dtmroc 5]
ELMB Channel 49:   -3.724 V   [V AN_NEG dtmroc 5]
ELMB Channel 50:   -3.714 V   [V AN_NEG dtmroc 6]
ELMB Channel 51:   -3.715 V   [V AN_NEG dtmroc 6]
ELMB Channel 52:   3.858 V   [V DIGI dtmroc 9]
ELMB Channel 53:   3.793 V   [V DIGI dtmroc 10]
ELMB Channel 54:   3.819 V   [V DIGI dtmroc 11]
ELMB Channel 55:   3.846 V   [V DIGI dtmroc 12]
ELMB Channel 56:   3.818 V   [V DIGI dtmroc 13]
ELMB Channel 57:   3.827 V   [V DIGI dtmroc 13]
ELMB Channel 58:   3.829 V   [V DIGI dtmroc 14]
ELMB Channel 59:   3.825 V   [V DIGI dtmroc 14]
Temperature channels
Channel 60, temperature 35.41
Channel 61, temperature 42.71
Channel 62, temperature 34.78
Channel 63, temperature 44.24

Set all regulators ON
Current channels
******** 0. 0.768529  
******** 2. 0.796507  
******** 4. 0.772558  
******** 6. 0.791286  
******** 8. 0.780357  
******** 9. 0.799216  
******** 10. 0.775703  
******** 11. 0.789108  
******** 12. 0.740741  
******** 14. 0.766202  
******** 16. 0.779031  
******** 18. 0.758057  
******** 20. 0.758081  
******** 21. 0.750462  
******** 22. 0.782427  
******** 23. 0.736855  
******** 24. 0.743178  
******** 26. 0.729623  
******** 28. 0.756616  
******** 30. 0.786938  
******** 32. 0.784188  
******** 33. 0.758465  
******** 34. 0.752803  
******** 35. 0.760140  
******** 0. 0.768529  
******** 2. 0.796507  
******** 4. 0.772558  
******** 6. 0.791286  
******** 8. 0.780357  
******** 9. 0.799216  
******** 10. 0.775703  
******** 11. 0.789108  
Voltage channels
ELMB Channel 36:   3.797 V   [V AN_POS dtmroc 1]
ELMB Channel 37:   3.824 V   [V AN_POS dtmroc 2]
ELMB Channel 38:   3.841 V   [V AN_POS dtmroc 3]
ELMB Channel 39:   3.822 V   [V AN_POS dtmroc 4]
ELMB Channel 40:   3.842 V   [V AN_POS dtmroc 5]
ELMB Channel 41:   3.833 V   [V AN_POS dtmroc 5]
ELMB Channel 42:   3.804 V   [V AN_POS dtmroc 6]
ELMB Channel 43:   3.811 V   [V AN_POS dtmroc 6]
ELMB Channel 44:   -3.714 V   [V AN_NEG dtmroc 1]
ELMB Channel 45:   -3.699 V   [V AN_NEG dtmroc 2]
ELMB Channel 46:   -3.716 V   [V AN_NEG dtmroc 3]
ELMB Channel 47:   -3.728 V   [V AN_NEG dtmroc 4]
ELMB Channel 48:   -3.695 V   [V AN_NEG dtmroc 5]
ELMB Channel 49:   -3.723 V   [V AN_NEG dtmroc 5]
ELMB Channel 50:   -3.713 V   [V AN_NEG dtmroc 6]
ELMB Channel 51:   -3.714 V   [V AN_NEG dtmroc 6]
ELMB Channel 52:   3.858 V   [V DIGI dtmroc 9]
ELMB Channel 53:   3.793 V   [V DIGI dtmroc 10]
ELMB Channel 54:   3.819 V   [V DIGI dtmroc 11]
ELMB Channel 55:   3.846 V   [V DIGI dtmroc 12]
ELMB Channel 56:   3.818 V   [V DIGI dtmroc 13]
ELMB Channel 57:   3.827 V   [V DIGI dtmroc 13]
ELMB Channel 58:   3.829 V   [V DIGI dtmroc 14]
ELMB Channel 59:   3.825 V   [V DIGI dtmroc 14]
Temperature channels
Channel 60, temperature 35.47
Channel 61, temperature 42.90
Channel 62, temperature 35.01
Channel 63, temperature 44.45

Set all regulators ON
Current channels
******** 0. 0.768534  
******** 2. 0.793507  
******** 4. 0.775636  
******** 6. 0.791286  
******** 8. 0.780357  
******** 9. 0.799216  
******** 10. 0.772703  
******** 11. 0.789108  
******** 12. 0.740790  
******** 14. 0.766459  
******** 16. 0.778945  
******** 18. 0.758018  
******** 20. 0.757901  
******** 21. 0.750494  
******** 22. 0.782535  
******** 23. 0.739925  
******** 24. 0.743178  
******** 26. 0.729623  
******** 28. 0.756616  
******** 30. 0.786938  
******** 32. 0.784188  
******** 33. 0.758465  
******** 34. 0.749703  
******** 35. 0.760140  
******** 0. 0.768534  
******** 2. 0.793507  
******** 4. 0.775636  
******** 6. 0.791286  
******** 8. 0.780357  
******** 9. 0.799216  
******** 10. 0.772703  
******** 11. 0.789108  
Voltage channels
ELMB Channel 36:   3.796 V   [V AN_POS dtmroc 1]
ELMB Channel 37:   3.824 V   [V AN_POS dtmroc 2]
ELMB Channel 38:   3.840 V   [V AN_POS dtmroc 3]
ELMB Channel 39:   3.822 V   [V AN_POS dtmroc 4]
ELMB Channel 40:   3.842 V   [V AN_POS dtmroc 5]
ELMB Channel 41:   3.833 V   [V AN_POS dtmroc 5]
ELMB Channel 42:   3.804 V   [V AN_POS dtmroc 6]
ELMB Channel 43:   3.811 V   [V AN_POS dtmroc 6]
ELMB Channel 44:   -3.714 V   [V AN_NEG dtmroc 1]
ELMB Channel 45:   -3.700 V   [V AN_NEG dtmroc 2]
ELMB Channel 46:   -3.718 V   [V AN_NEG dtmroc 3]
ELMB Channel 47:   -3.730 V   [V AN_NEG dtmroc 4]
ELMB Channel 48:   -3.697 V   [V AN_NEG dtmroc 5]
ELMB Channel 49:   -3.724 V   [V AN_NEG dtmroc 5]
ELMB Channel 50:   -3.714 V   [V AN_NEG dtmroc 6]
ELMB Channel 51:   -3.715 V   [V AN_NEG dtmroc 6]
ELMB Channel 52:   3.858 V   [V DIGI dtmroc 9]
ELMB Channel 53:   3.793 V   [V DIGI dtmroc 10]
ELMB Channel 54:   3.819 V   [V DIGI dtmroc 11]
ELMB Channel 55:   3.846 V   [V DIGI dtmroc 12]
ELMB Channel 56:   3.818 V   [V DIGI dtmroc 13]
ELMB Channel 57:   3.827 V   [V DIGI dtmroc 13]
ELMB Channel 58:   3.829 V   [V DIGI dtmroc 14]
ELMB Channel 59:   3.825 V   [V DIGI dtmroc 14]
Temperature channels
Channel 60, temperature 35.64
Channel 61, temperature 43.07
Channel 62, temperature 35.12
Channel 63, temperature 44.68

Set all regulators ON
Current channels
******** 0. 0.768529  
******** 2. 0.793507  
******** 4. 0.772558  
******** 6. 0.791286  
******** 8. 0.780357  
******** 9. 0.799216  
******** 10. 0.775703  
******** 11. 0.789108  
******** 12. 0.743841  
******** 14. 0.766202  
******** 16. 0.779014  
******** 18. 0.758042  
******** 20. 0.758051  
******** 21. 0.750473  
******** 22. 0.782463  
******** 23. 0.736845  
******** 24. 0.743178  
******** 26. 0.729623  
******** 28. 0.756570  
******** 30. 0.786938  
******** 32. 0.784188  
******** 33. 0.758465  
******** 34. 0.752803  
******** 35. 0.760140  
******** 0. 0.768529  
******** 2. 0.793507  
******** 4. 0.772558  
******** 6. 0.791286  
******** 8. 0.780357  
******** 9. 0.799216  
******** 10. 0.775703  
******** 11. 0.789108  
Voltage channels
ELMB Channel 36:   3.797 V   [V AN_POS dtmroc 1]
ELMB Channel 37:   3.824 V   [V AN_POS dtmroc 2]
ELMB Channel 38:   3.841 V   [V AN_POS dtmroc 3]
ELMB Channel 39:   3.822 V   [V AN_POS dtmroc 4]
ELMB Channel 40:   3.842 V   [V AN_POS dtmroc 5]
ELMB Channel 41:   3.833 V   [V AN_POS dtmroc 5]
ELMB Channel 42:   3.804 V   [V AN_POS dtmroc 6]
ELMB Channel 43:   3.811 V   [V AN_POS dtmroc 6]
ELMB Channel 44:   -3.714 V   [V AN_NEG dtmroc 1]
ELMB Channel 45:   -3.699 V   [V AN_NEG dtmroc 2]
ELMB Channel 46:   -3.716 V   [V AN_NEG dtmroc 3]
ELMB Channel 47:   -3.729 V   [V AN_NEG dtmroc 4]
ELMB Channel 48:   -3.695 V   [V AN_NEG dtmroc 5]
ELMB Channel 49:   -3.723 V   [V AN_NEG dtmroc 5]
ELMB Channel 50:   -3.714 V   [V AN_NEG dtmroc 6]
ELMB Channel 51:   -3.714 V   [V AN_NEG dtmroc 6]
ELMB Channel 52:   3.858 V   [V DIGI dtmroc 9]
ELMB Channel 53:   3.793 V   [V DIGI dtmroc 10]
ELMB Channel 54:   3.819 V   [V DIGI dtmroc 11]
ELMB Channel 55:   3.846 V   [V DIGI dtmroc 12]
ELMB Channel 56:   3.818 V   [V DIGI dtmroc 13]
ELMB Channel 57:   3.827 V   [V DIGI dtmroc 13]
ELMB Channel 58:   3.829 V   [V DIGI dtmroc 14]
ELMB Channel 59:   3.825 V   [V DIGI dtmroc 14]
Temperature channels
Channel 60, temperature 35.67
Channel 61, temperature 43.23
Channel 62, temperature 35.08
Channel 63, temperature 44.67

Set all regulators ON
Current channels
******** 0. 0.768534  
******** 2. 0.793507  
******** 4. 0.775658  
******** 6. 0.791286  
******** 8. 0.777361  
******** 9. 0.799216  
******** 10. 0.775703  
******** 11. 0.789108  
******** 12. 0.740840  
******** 14. 0.766459  
******** 16. 0.778928  
******** 18. 0.758010  
******** 20. 0.757841  
******** 21. 0.750515  
******** 22. 0.782608  
******** 23. 0.736806  
******** 24. 0.743178  
******** 26. 0.729623  
******** 28. 0.756616  
******** 30. 0.786938  
******** 32. 0.784188  
******** 33. 0.758465  
******** 34. 0.752803  
******** 35. 0.760140  
******** 0. 0.768534  
******** 2. 0.793507  
******** 4. 0.775658  
******** 6. 0.791286  
******** 8. 0.777361  
******** 9. 0.799216  
******** 10. 0.775703  
******** 11. 0.789108  
Voltage channels
ELMB Channel 36:   3.796 V   [V AN_POS dtmroc 1]
ELMB Channel 37:   3.824 V   [V AN_POS dtmroc 2]
ELMB Channel 38:   3.841 V   [V AN_POS dtmroc 3]
ELMB Channel 39:   3.822 V   [V AN_POS dtmroc 4]
ELMB Channel 40:   3.843 V   [V AN_POS dtmroc 5]
ELMB Channel 41:   3.833 V   [V AN_POS dtmroc 5]
ELMB Channel 42:   3.804 V   [V AN_POS dtmroc 6]
ELMB Channel 43:   3.811 V   [V AN_POS dtmroc 6]
ELMB Channel 44:   -3.715 V   [V AN_NEG dtmroc 1]
ELMB Channel 45:   -3.700 V   [V AN_NEG dtmroc 2]
ELMB Channel 46:   -3.718 V   [V AN_NEG dtmroc 3]
ELMB Channel 47:   -3.730 V   [V AN_NEG dtmroc 4]
ELMB Channel 48:   -3.697 V   [V AN_NEG dtmroc 5]
ELMB Channel 49:   -3.725 V   [V AN_NEG dtmroc 5]
ELMB Channel 50:   -3.715 V   [V AN_NEG dtmroc 6]
ELMB Channel 51:   -3.716 V   [V AN_NEG dtmroc 6]
ELMB Channel 52:   3.858 V   [V DIGI dtmroc 9]
ELMB Channel 53:   3.793 V   [V DIGI dtmroc 10]
ELMB Channel 54:   3.819 V   [V DIGI dtmroc 11]
ELMB Channel 55:   3.846 V   [V DIGI dtmroc 12]
ELMB Channel 56:   3.818 V   [V DIGI dtmroc 13]
ELMB Channel 57:   3.827 V   [V DIGI dtmroc 13]
ELMB Channel 58:   3.829 V   [V DIGI dtmroc 14]
ELMB Channel 59:   3.825 V   [V DIGI dtmroc 14]
Temperature channels
Channel 60, temperature 35.77
Channel 61, temperature 43.34
Channel 62, temperature 34.98
Channel 63, temperature 44.83

Set all regulators ON
Current channels
******** 0. 0.768534  
******** 2. 0.793507  
******** 4. 0.772558  
******** 6. 0.791286  
******** 8. 0.777357  
******** 9. 0.802216  
ERROR: current not in range (0.802 A): ELMB channel 9 [I AN_POS dtmroc 5]
******** 10. 0.775703  
******** 11. 0.789108  
******** 12. 0.740691  
******** 14. 0.766255  
******** 16. 0.779014  
******** 18. 0.758042  
******** 20. 0.758021  
******** 21. 0.750484  
******** 22. 0.782500  
******** 23. 0.739945  
******** 24. 0.743178  
******** 26. 0.729623  
******** 28. 0.756616  
******** 30. 0.786938  
******** 32. 0.784188  
******** 33. 0.758465  
******** 34. 0.752803  
******** 35. 0.760140  
******** 0. 0.768534  
******** 2. 0.793507  
******** 4. 0.772558  
******** 6. 0.791286  
******** 8. 0.777357  
******** 9. 0.802216  
ERROR: current not in range (0.802 A): ELMB channel 9 [I AN_POS dtmroc 5]
******** 10. 0.775703  
******** 11. 0.789108  
Voltage channels
ELMB Channel 36:   3.796 V   [V AN_POS dtmroc 1]
ELMB Channel 37:   3.824 V   [V AN_POS dtmroc 2]
ELMB Channel 38:   3.841 V   [V AN_POS dtmroc 3]
ELMB Channel 39:   3.822 V   [V AN_POS dtmroc 4]
ELMB Channel 40:   3.842 V   [V AN_POS dtmroc 5]
ELMB Channel 41:   3.833 V   [V AN_POS dtmroc 5]
ELMB Channel 42:   3.804 V   [V AN_POS dtmroc 6]
ELMB Channel 43:   3.811 V   [V AN_POS dtmroc 6]
ELMB Channel 44:   -3.714 V   [V AN_NEG dtmroc 1]
ELMB Channel 45:   -3.699 V   [V AN_NEG dtmroc 2]
ELMB Channel 46:   -3.716 V   [V AN_NEG dtmroc 3]
ELMB Channel 47:   -3.729 V   [V AN_NEG dtmroc 4]
ELMB Channel 48:   -3.695 V   [V AN_NEG dtmroc 5]
ELMB Channel 49:   -3.724 V   [V AN_NEG dtmroc 5]
ELMB Channel 50:   -3.714 V   [V AN_NEG dtmroc 6]
ELMB Channel 51:   -3.714 V   [V AN_NEG dtmroc 6]
ELMB Channel 52:   3.858 V   [V DIGI dtmroc 9]
ELMB Channel 53:   3.793 V   [V DIGI dtmroc 10]
ELMB Channel 54:   3.819 V   [V DIGI dtmroc 11]
ELMB Channel 55:   3.846 V   [V DIGI dtmroc 12]
ELMB Channel 56:   3.818 V   [V DIGI dtmroc 13]
ELMB Channel 57:   3.827 V   [V DIGI dtmroc 13]
ELMB Channel 58:   3.829 V   [V DIGI dtmroc 14]
ELMB Channel 59:   3.825 V   [V DIGI dtmroc 14]
Temperature channels
Channel 60, temperature 35.67
Channel 61, temperature 43.29
Channel 62, temperature 35.12
Channel 63, temperature 44.98

Set all regulators ON
Current channels
******** 0. 0.768534  
******** 2. 0.793507  
******** 4. 0.772558  
******** 6. 0.791286  
******** 8. 0.780357  
******** 9. 0.802216  
ERROR: current not in range (0.802 A): ELMB channel 9 [I AN_POS dtmroc 5]
******** 10. 0.775703  
******** 11. 0.789108  
******** 12. 0.740790  
******** 14. 0.766409  
******** 16. 0.778928  
******** 18. 0.758018  
******** 20. 0.757870  
******** 21. 0.750515  
******** 22. 0.782572  
******** 23. 0.736806  
******** 24. 0.743178  
******** 26. 0.729623  
******** 28. 0.756616  
******** 30. 0.786938  
******** 32. 0.784188  
******** 33. 0.758465  
******** 34. 0.752803  
******** 35. 0.757140  
******** 0. 0.768534  
******** 2. 0.793507  
******** 4. 0.772558  
******** 6. 0.791286  
******** 8. 0.780357  
******** 9. 0.802216  
ERROR: current not in range (0.802 A): ELMB channel 9 [I AN_POS dtmroc 5]
******** 10. 0.775703  
******** 11. 0.789108  
Voltage channels
ELMB Channel 36:   3.796 V   [V AN_POS dtmroc 1]
ELMB Channel 37:   3.824 V   [V AN_POS dtmroc 2]
ELMB Channel 38:   3.841 V   [V AN_POS dtmroc 3]
ELMB Channel 39:   3.822 V   [V AN_POS dtmroc 4]
ELMB Channel 40:   3.842 V   [V AN_POS dtmroc 5]
ELMB Channel 41:   3.833 V   [V AN_POS dtmroc 5]
ELMB Channel 42:   3.804 V   [V AN_POS dtmroc 6]
ELMB Channel 43:   3.811 V   [V AN_POS dtmroc 6]
ELMB Channel 44:   -3.714 V   [V AN_NEG dtmroc 1]
ELMB Channel 45:   -3.700 V   [V AN_NEG dtmroc 2]
ELMB Channel 46:   -3.718 V   [V AN_NEG dtmroc 3]
ELMB Channel 47:   -3.730 V   [V AN_NEG dtmroc 4]
ELMB Channel 48:   -3.697 V   [V AN_NEG dtmroc 5]
ELMB Channel 49:   -3.725 V   [V AN_NEG dtmroc 5]
ELMB Channel 50:   -3.715 V   [V AN_NEG dtmroc 6]
ELMB Channel 51:   -3.716 V   [V AN_NEG dtmroc 6]
ELMB Channel 52:   3.858 V   [V DIGI dtmroc 9]
ELMB Channel 53:   3.793 V   [V DIGI dtmroc 10]
ELMB Channel 54:   3.819 V   [V DIGI dtmroc 11]
ELMB Channel 55:   3.846 V   [V DIGI dtmroc 12]
ELMB Channel 56:   3.818 V   [V DIGI dtmroc 13]
ELMB Channel 57:   3.827 V   [V DIGI dtmroc 13]
ELMB Channel 58:   3.829 V   [V DIGI dtmroc 14]
ELMB Channel 59:   3.825 V   [V DIGI dtmroc 14]
Temperature channels
Channel 60, temperature 35.77
Channel 61, temperature 43.36
Channel 62, temperature 34.96
Channel 63, temperature 44.95

Set all regulators ON
Current channels
******** 0. 0.768534  
******** 2. 0.793507  
******** 4. 0.775658  
******** 6. 0.791286  
******** 8. 0.777357  
******** 9. 0.802216  
ERROR: current not in range (0.802 A): ELMB channel 9 [I AN_POS dtmroc 5]
******** 10. 0.775703  
******** 11. 0.789108  
******** 12. 0.740741  
******** 14. 0.766255  
******** 16. 0.778997  
******** 18. 0.758034  
******** 20. 0.757991  
******** 21. 0.750494  
******** 22. 0.782500  
******** 23. 0.739925  
******** 24. 0.743178  
******** 26. 0.729623  
******** 28. 0.756616  
******** 30. 0.786938  
******** 32. 0.784188  
******** 33. 0.758501  
******** 34. 0.752803  
******** 35. 0.760140  
******** 0. 0.768534  
******** 2. 0.793507  
******** 4. 0.775658  
******** 6. 0.791286  
******** 8. 0.777357  
******** 9. 0.802216  
ERROR: current not in range (0.802 A): ELMB channel 9 [I AN_POS dtmroc 5]
******** 10. 0.775703  
******** 11. 0.789108  
Voltage channels
ELMB Channel 36:   3.796 V   [V AN_POS dtmroc 1]
ELMB Channel 37:   3.824 V   [V AN_POS dtmroc 2]
ELMB Channel 38:   3.841 V   [V AN_POS dtmroc 3]
ELMB Channel 39:   3.822 V   [V AN_POS dtmroc 4]
ELMB Channel 40:   3.842 V   [V AN_POS dtmroc 5]
ELMB Channel 41:   3.833 V   [V AN_POS dtmroc 5]
ELMB Channel 42:   3.804 V   [V AN_POS dtmroc 6]
ELMB Channel 43:   3.811 V   [V AN_POS dtmroc 6]
ELMB Channel 44:   -3.714 V   [V AN_NEG dtmroc 1]
ELMB Channel 45:   -3.699 V   [V AN_NEG dtmroc 2]
ELMB Channel 46:   -3.717 V   [V AN_NEG dtmroc 3]
ELMB Channel 47:   -3.729 V   [V AN_NEG dtmroc 4]
ELMB Channel 48:   -3.696 V   [V AN_NEG dtmroc 5]
ELMB Channel 49:   -3.724 V   [V AN_NEG dtmroc 5]
ELMB Channel 50:   -3.714 V   [V AN_NEG dtmroc 6]
ELMB Channel 51:   -3.715 V   [V AN_NEG dtmroc 6]
ELMB Channel 52:   3.858 V   [V DIGI dtmroc 9]
ELMB Channel 53:   3.793 V   [V DIGI dtmroc 10]
ELMB Channel 54:   3.819 V   [V DIGI dtmroc 11]
ELMB Channel 55:   3.846 V   [V DIGI dtmroc 12]
ELMB Channel 56:   3.818 V   [V DIGI dtmroc 13]
ELMB Channel 57:   3.828 V   [V DIGI dtmroc 13]
ELMB Channel 58:   3.829 V   [V DIGI dtmroc 14]
ELMB Channel 59:   3.825 V   [V DIGI dtmroc 14]
Temperature channels
Channel 60, temperature 35.77
Channel 61, temperature 43.40
Channel 62, temperature 35.18
Channel 63, temperature 45.04

Set all regulators ON
Current channels
******** 0. 0.768534  
******** 2. 0.793507  
******** 4. 0.775658  
******** 6. 0.794386  
******** 8. 0.777357  
******** 9. 0.802216  
ERROR: current not in range (0.802 A): ELMB channel 9 [I AN_POS dtmroc 5]
******** 10. 0.775703  
******** 11. 0.792096  
******** 12. 0.740790  
******** 14. 0.766459  
******** 16. 0.778928  
******** 18. 0.761110  
******** 20. 0.757841  
******** 21. 0.750526  
******** 22. 0.782572  
******** 23. 0.739915  
******** 24. 0.743178  
******** 26. 0.729623  
******** 28. 0.756616  
******** 30. 0.786938  
******** 32. 0.784188  
******** 33. 0.758465  
******** 34. 0.752803  
******** 35. 0.760140  
******** 0. 0.768534  
******** 2. 0.793507  
******** 4. 0.775658  
******** 6. 0.794386  
******** 8. 0.777357  
******** 9. 0.802216  
ERROR: current not in range (0.802 A): ELMB channel 9 [I AN_POS dtmroc 5]
******** 10. 0.775703  
******** 11. 0.792096  
Voltage channels
ELMB Channel 36:   3.796 V   [V AN_POS dtmroc 1]
ELMB Channel 37:   3.824 V   [V AN_POS dtmroc 2]
ELMB Channel 38:   3.841 V   [V AN_POS dtmroc 3]
ELMB Channel 39:   3.822 V   [V AN_POS dtmroc 4]
ELMB Channel 40:   3.842 V   [V AN_POS dtmroc 5]
ELMB Channel 41:   3.833 V   [V AN_POS dtmroc 5]
ELMB Channel 42:   3.804 V   [V AN_POS dtmroc 6]
ELMB Channel 43:   3.811 V   [V AN_POS dtmroc 6]
ELMB Channel 44:   -3.714 V   [V AN_NEG dtmroc 1]
ELMB Channel 45:   -3.700 V   [V AN_NEG dtmroc 2]
ELMB Channel 46:   -3.718 V   [V AN_NEG dtmroc 3]
ELMB Channel 47:   -3.730 V   [V AN_NEG dtmroc 4]
ELMB Channel 48:   -3.697 V   [V AN_NEG dtmroc 5]
ELMB Channel 49:   -3.725 V   [V AN_NEG dtmroc 5]
ELMB Channel 50:   -3.715 V   [V AN_NEG dtmroc 6]
ELMB Channel 51:   -3.715 V   [V AN_NEG dtmroc 6]
ELMB Channel 52:   3.858 V   [V DIGI dtmroc 9]
ELMB Channel 53:   3.793 V   [V DIGI dtmroc 10]
ELMB Channel 54:   3.819 V   [V DIGI dtmroc 11]
ELMB Channel 55:   3.846 V   [V DIGI dtmroc 12]
ELMB Channel 56:   3.818 V   [V DIGI dtmroc 13]
ELMB Channel 57:   3.827 V   [V DIGI dtmroc 13]
ELMB Channel 58:   3.829 V   [V DIGI dtmroc 14]
ELMB Channel 59:   3.825 V   [V DIGI dtmroc 14]
Temperature channels
Channel 60, temperature 35.84
Channel 61, temperature 43.47
Channel 62, temperature 35.02
Channel 63, temperature 45.12

Set all regulators ON
Current channels
******** 0. 0.768534  
******** 2. 0.793507  
******** 4. 0.772558  
******** 6. 0.791286  
******** 8. 0.777357  
******** 9. 0.799216  
******** 10. 0.775703  
******** 11. 0.789108  
******** 12. 0.740741  
******** 14. 0.766202  
******** 16. 0.778997  
******** 18. 0.758034  
******** 20. 0.757991  
******** 21. 0.753494  
******** 22. 0.785600  
******** 23. 0.739925  
******** 24. 0.743178  
******** 26. 0.729623  
******** 28. 0.756616  
******** 30. 0.786938  
******** 32. 0.784188  
******** 33. 0.758465  
******** 34. 0.752803  
******** 35. 0.760140  
******** 0. 0.768534  
******** 2. 0.793507  
******** 4. 0.772558  
******** 6. 0.791286  
******** 8. 0.777357  
******** 9. 0.799216  
******** 10. 0.775703  
******** 11. 0.789108  
Voltage channels
ELMB Channel 36:   3.796 V   [V AN_POS dtmroc 1]
ELMB Channel 37:   3.824 V   [V AN_POS dtmroc 2]
ELMB Channel 38:   3.841 V   [V AN_POS dtmroc 3]
ELMB Channel 39:   3.822 V   [V AN_POS dtmroc 4]
ELMB Channel 40:   3.842 V   [V AN_POS dtmroc 5]
ELMB Channel 41:   3.833 V   [V AN_POS dtmroc 5]
ELMB Channel 42:   3.804 V   [V AN_POS dtmroc 6]
ELMB Channel 43:   3.811 V   [V AN_POS dtmroc 6]
ELMB Channel 44:   -3.714 V   [V AN_NEG dtmroc 1]
ELMB Channel 45:   -3.699 V   [V AN_NEG dtmroc 2]
ELMB Channel 46:   -3.717 V   [V AN_NEG dtmroc 3]
ELMB Channel 47:   -3.729 V   [V AN_NEG dtmroc 4]
ELMB Channel 48:   -3.696 V   [V AN_NEG dtmroc 5]
ELMB Channel 49:   -3.724 V   [V AN_NEG dtmroc 5]
ELMB Channel 50:   -3.714 V   [V AN_NEG dtmroc 6]
ELMB Channel 51:   -3.715 V   [V AN_NEG dtmroc 6]
ELMB Channel 52:   3.858 V   [V DIGI dtmroc 9]
ELMB Channel 53:   3.793 V   [V DIGI dtmroc 10]
ELMB Channel 54:   3.819 V   [V DIGI dtmroc 11]
ELMB Channel 55:   3.846 V   [V DIGI dtmroc 12]
ELMB Channel 56:   3.818 V   [V DIGI dtmroc 13]
ELMB Channel 57:   3.827 V   [V DIGI dtmroc 13]
ELMB Channel 58:   3.829 V   [V DIGI dtmroc 14]
ELMB Channel 59:   3.825 V   [V DIGI dtmroc 14]
Temperature channels
Channel 60, temperature 35.75
Channel 61, temperature 43.40
Channel 62, temperature 35.24
Channel 63, temperature 44.96

Set all regulators ON
Current channels
******** 0. 0.768534  
******** 2. 0.793507  
******** 4. 0.775658  
******** 6. 0.791286  
******** 8. 0.777357  
******** 9. 0.799216  
******** 10. 0.772703  
******** 11. 0.792108  
******** 12. 0.740840  
******** 14. 0.763359  
******** 16. 0.778928  
******** 18. 0.758010  
******** 20. 0.757870  
******** 21. 0.750515  
******** 22. 0.785708  
******** 23. 0.739906  
******** 24. 0.743193  
******** 26. 0.729623  
******** 28. 0.756570  
******** 30. 0.786938  
******** 32. 0.784188  
******** 33. 0.758465  
******** 34. 0.752803  
******** 35. 0.757140  
******** 0. 0.768534  
******** 2. 0.793507  
******** 4. 0.775658  
******** 6. 0.791286  
******** 8. 0.777357  
******** 9. 0.799216  
******** 10. 0.772703  
******** 11. 0.792108  
Voltage channels
ELMB Channel 36:   3.796 V   [V AN_POS dtmroc 1]
ELMB Channel 37:   3.824 V   [V AN_POS dtmroc 2]
ELMB Channel 38:   3.841 V   [V AN_POS dtmroc 3]
ELMB Channel 39:   3.822 V   [V AN_POS dtmroc 4]
ELMB Channel 40:   3.842 V   [V AN_POS dtmroc 5]
ELMB Channel 41:   3.833 V   [V AN_POS dtmroc 5]
ELMB Channel 42:   3.804 V   [V AN_POS dtmroc 6]
ELMB Channel 43:   3.811 V   [V AN_POS dtmroc 6]
ELMB Channel 44:   -3.715 V   [V AN_NEG dtmroc 1]
ELMB Channel 45:   -3.700 V   [V AN_NEG dtmroc 2]
ELMB Channel 46:   -3.718 V   [V AN_NEG dtmroc 3]
ELMB Channel 47:   -3.730 V   [V AN_NEG dtmroc 4]
ELMB Channel 48:   -3.697 V   [V AN_NEG dtmroc 5]
ELMB Channel 49:   -3.725 V   [V AN_NEG dtmroc 5]
ELMB Channel 50:   -3.715 V   [V AN_NEG dtmroc 6]
ELMB Channel 51:   -3.716 V   [V AN_NEG dtmroc 6]
ELMB Channel 52:   3.858 V   [V DIGI dtmroc 9]
ELMB Channel 53:   3.793 V   [V DIGI dtmroc 10]
ELMB Channel 54:   3.819 V   [V DIGI dtmroc 11]
ELMB Channel 55:   3.846 V   [V DIGI dtmroc 12]
ELMB Channel 56:   3.818 V   [V DIGI dtmroc 13]
ELMB Channel 57:   3.827 V   [V DIGI dtmroc 13]
ELMB Channel 58:   3.829 V   [V DIGI dtmroc 14]
ELMB Channel 59:   3.825 V   [V DIGI dtmroc 14]
Temperature channels
Channel 60, temperature 35.83
Channel 61, temperature 43.43
Channel 62, temperature 35.15
Channel 63, temperature 45.11

Set all regulators ON
Current channels
******** 0. 0.768534  
******** 2. 0.793507  
******** 4. 0.772558  
******** 6. 0.794375  
******** 8. 0.777357  
******** 9. 0.802217  
ERROR: current not in range (0.802 A): ELMB channel 9 [I AN_POS dtmroc 5]
******** 10. 0.775703  
******** 11. 0.792108  
******** 12. 0.740741  
******** 14. 0.766255  
******** 16. 0.778997  
******** 18. 0.758034  
******** 20. 0.757991  
******** 21. 0.750494  
******** 22. 0.782535  
******** 23. 0.736825  
******** 24. 0.743178  
******** 26. 0.729623  
******** 28. 0.756616  
******** 30. 0.786938  
******** 32. 0.784188  
******** 33. 0.758465  
******** 34. 0.752803  
******** 35. 0.760140  
******** 0. 0.768534  
******** 2. 0.793507  
******** 4. 0.772558  
******** 6. 0.794375  
******** 8. 0.777357  
******** 9. 0.802217  
ERROR: current not in range (0.802 A): ELMB channel 9 [I AN_POS dtmroc 5]
******** 10. 0.775703  
******** 11. 0.792108  
Voltage channels
ELMB Channel 36:   3.796 V   [V AN_POS dtmroc 1]
ELMB Channel 37:   3.824 V   [V AN_POS dtmroc 2]
ELMB Channel 38:   3.841 V   [V AN_POS dtmroc 3]
ELMB Channel 39:   3.822 V   [V AN_POS dtmroc 4]
ELMB Channel 40:   3.842 V   [V AN_POS dtmroc 5]
ELMB Channel 41:   3.833 V   [V AN_POS dtmroc 5]
ELMB Channel 42:   3.804 V   [V AN_POS dtmroc 6]
ELMB Channel 43:   3.811 V   [V AN_POS dtmroc 6]
ELMB Channel 44:   -3.714 V   [V AN_NEG dtmroc 1]
ELMB Channel 45:   -3.699 V   [V AN_NEG dtmroc 2]
ELMB Channel 46:   -3.717 V   [V AN_NEG dtmroc 3]
ELMB Channel 47:   -3.729 V   [V AN_NEG dtmroc 4]
ELMB Channel 48:   -3.696 V   [V AN_NEG dtmroc 5]
ELMB Channel 49:   -3.724 V   [V AN_NEG dtmroc 5]
ELMB Channel 50:   -3.714 V   [V AN_NEG dtmroc 6]
ELMB Channel 51:   -3.715 V   [V AN_NEG dtmroc 6]
ELMB Channel 52:   3.858 V   [V DIGI dtmroc 9]
ELMB Channel 53:   3.793 V   [V DIGI dtmroc 10]
ELMB Channel 54:   3.819 V   [V DIGI dtmroc 11]
ELMB Channel 55:   3.846 V   [V DIGI dtmroc 12]
ELMB Channel 56:   3.818 V   [V DIGI dtmroc 13]
ELMB Channel 57:   3.827 V   [V DIGI dtmroc 13]
ELMB Channel 58:   3.829 V   [V DIGI dtmroc 14]
ELMB Channel 59:   3.825 V   [V DIGI dtmroc 14]
Temperature channels
Channel 60, temperature 35.84
Channel 61, temperature 43.47
Channel 62, temperature 35.26
Channel 63, temperature 45.09

Set all regulators ON
Current channels
******** 0. 0.768534  
******** 2. 0.793507  
******** 4. 0.772558  
******** 6. 0.791275  
******** 8. 0.777357  
******** 9. 0.799216  
******** 10. 0.775703  
******** 11. 0.789108  
******** 12. 0.740840  
******** 14. 0.766459  
******** 16. 0.778928  
******** 18. 0.758010  
******** 20. 0.757841  
******** 21. 0.753515  
******** 22. 0.782608  
******** 23. 0.736806  
******** 24. 0.740193  
******** 26. 0.729623  
******** 28. 0.756616  
******** 30. 0.786938  
******** 32. 0.784188  
******** 33. 0.758465  
******** 34. 0.752803  
******** 35. 0.760140  
******** 0. 0.768534  
******** 2. 0.793507  
******** 4. 0.772558  
******** 6. 0.791275  
******** 8. 0.777357  
******** 9. 0.799216  
******** 10. 0.775703  
******** 11. 0.789108  
Voltage channels
ELMB Channel 36:   3.796 V   [V AN_POS dtmroc 1]
ELMB Channel 37:   3.824 V   [V AN_POS dtmroc 2]
ELMB Channel 38:   3.841 V   [V AN_POS dtmroc 3]
ELMB Channel 39:   3.822 V   [V AN_POS dtmroc 4]
ELMB Channel 40:   3.842 V   [V AN_POS dtmroc 5]
ELMB Channel 41:   3.833 V   [V AN_POS dtmroc 5]
ELMB Channel 42:   3.804 V   [V AN_POS dtmroc 6]
ELMB Channel 43:   3.811 V   [V AN_POS dtmroc 6]
ELMB Channel 44:   -3.715 V   [V AN_NEG dtmroc 1]
ELMB Channel 45:   -3.700 V   [V AN_NEG dtmroc 2]
ELMB Channel 46:   -3.718 V   [V AN_NEG dtmroc 3]
ELMB Channel 47:   -3.730 V   [V AN_NEG dtmroc 4]
ELMB Channel 48:   -3.697 V   [V AN_NEG dtmroc 5]
ELMB Channel 49:   -3.725 V   [V AN_NEG dtmroc 5]
ELMB Channel 50:   -3.715 V   [V AN_NEG dtmroc 6]
ELMB Channel 51:   -3.716 V   [V AN_NEG dtmroc 6]
ELMB Channel 52:   3.858 V   [V DIGI dtmroc 9]
ELMB Channel 53:   3.793 V   [V DIGI dtmroc 10]
ELMB Channel 54:   3.819 V   [V DIGI dtmroc 11]
ELMB Channel 55:   3.846 V   [V DIGI dtmroc 12]
ELMB Channel 56:   3.818 V   [V DIGI dtmroc 13]
ELMB Channel 57:   3.827 V   [V DIGI dtmroc 13]
ELMB Channel 58:   3.829 V   [V DIGI dtmroc 14]
ELMB Channel 59:   3.825 V   [V DIGI dtmroc 14]
Temperature channels
Channel 60, temperature 35.87
Channel 61, temperature 43.52
Channel 62, temperature 35.13
Channel 63, temperature 45.09

Set all regulators ON
Current channels
******** 0. 0.768534  
******** 2. 0.793507  
******** 4. 0.775636  
******** 6. 0.791286  
******** 8. 0.780357  
******** 9. 0.802217  
ERROR: current not in range (0.802 A): ELMB channel 9 [I AN_POS dtmroc 5]
******** 10. 0.775710  
******** 11. 0.789108  
******** 12. 0.743841  
******** 14. 0.766305  
******** 16. 0.778980  
******** 18. 0.758026  
******** 20. 0.757961  
******** 21. 0.753505  
******** 22. 0.782535  
******** 23. 0.739925  
******** 24. 0.743178  
******** 26. 0.729623  
******** 28. 0.756616  
******** 30. 0.786938  
******** 32. 0.784197  
******** 33. 0.758465  
******** 34. 0.752803  
******** 35. 0.760140  
******** 0. 0.768534  
******** 2. 0.793507  
******** 4. 0.775636  
******** 6. 0.791286  
******** 8. 0.780357  
******** 9. 0.802217  
ERROR: current not in range (0.802 A): ELMB channel 9 [I AN_POS dtmroc 5]
******** 10. 0.775710  
******** 11. 0.789108  
Voltage channels
ELMB Channel 36:   3.796 V   [V AN_POS dtmroc 1]
ELMB Channel 37:   3.824 V   [V AN_POS dtmroc 2]
ELMB Channel 38:   3.840 V   [V AN_POS dtmroc 3]
ELMB Channel 39:   3.822 V   [V AN_POS dtmroc 4]
ELMB Channel 40:   3.842 V   [V AN_POS dtmroc 5]
ELMB Channel 41:   3.833 V   [V AN_POS dtmroc 5]
ELMB Channel 42:   3.804 V   [V AN_POS dtmroc 6]
ELMB Channel 43:   3.811 V   [V AN_POS dtmroc 6]
ELMB Channel 44:   -3.714 V   [V AN_NEG dtmroc 1]
ELMB Channel 45:   -3.699 V   [V AN_NEG dtmroc 2]
ELMB Channel 46:   -3.717 V   [V AN_NEG dtmroc 3]
ELMB Channel 47:   -3.730 V   [V AN_NEG dtmroc 4]
ELMB Channel 48:   -3.696 V   [V AN_NEG dtmroc 5]
ELMB Channel 49:   -3.724 V   [V AN_NEG dtmroc 5]
ELMB Channel 50:   -3.714 V   [V AN_NEG dtmroc 6]
ELMB Channel 51:   -3.715 V   [V AN_NEG dtmroc 6]
ELMB Channel 52:   3.858 V   [V DIGI dtmroc 9]
ELMB Channel 53:   3.793 V   [V DIGI dtmroc 10]
ELMB Channel 54:   3.819 V   [V DIGI dtmroc 11]
ELMB Channel 55:   3.846 V   [V DIGI dtmroc 12]
ELMB Channel 56:   3.818 V   [V DIGI dtmroc 13]
ELMB Channel 57:   3.827 V   [V DIGI dtmroc 13]
ELMB Channel 58:   3.829 V   [V DIGI dtmroc 14]
ELMB Channel 59:   3.825 V   [V DIGI dtmroc 14]
Temperature channels
Channel 60, temperature 35.82
Channel 61, temperature 43.53
Channel 62, temperature 35.33
Channel 63, temperature 45.19

Set all regulators ON
Current channels
******** 0. 0.768534  
******** 2. 0.793507  
******** 4. 0.775636  
******** 6. 0.791275  
******** 8. 0.777357  
******** 9. 0.802217  
ERROR: current not in range (0.802 A): ELMB channel 9 [I AN_POS dtmroc 5]
******** 10. 0.775703  
******** 11. 0.792108  
******** 12. 0.740790  
******** 14. 0.766459  
******** 16. 0.778928  
******** 18. 0.758018  
******** 20. 0.757870  
******** 21. 0.753505  
******** 22. 0.782572  
******** 23. 0.739906  
******** 24. 0.743178  
******** 26. 0.729623  
******** 28. 0.756616  
******** 30. 0.786938  
******** 32. 0.784188  
******** 33. 0.758465  
******** 34. 0.752803  
******** 35. 0.760140  
******** 0. 0.768534  
******** 2. 0.793507  
******** 4. 0.775636  
******** 6. 0.791275  
******** 8. 0.777357  
******** 9. 0.802217  
ERROR: current not in range (0.802 A): ELMB channel 9 [I AN_POS dtmroc 5]
******** 10. 0.775703  
******** 11. 0.792108  
Voltage channels
ELMB Channel 36:   3.796 V   [V AN_POS dtmroc 1]
ELMB Channel 37:   3.824 V   [V AN_POS dtmroc 2]
ELMB Channel 38:   3.840 V   [V AN_POS dtmroc 3]
ELMB Channel 39:   3.822 V   [V AN_POS dtmroc 4]
ELMB Channel 40:   3.842 V   [V AN_POS dtmroc 5]
ELMB Channel 41:   3.833 V   [V AN_POS dtmroc 5]
ELMB Channel 42:   3.804 V   [V AN_POS dtmroc 6]
ELMB Channel 43:   3.811 V   [V AN_POS dtmroc 6]
ELMB Channel 44:   -3.714 V   [V AN_NEG dtmroc 1]
ELMB Channel 45:   -3.700 V   [V AN_NEG dtmroc 2]
ELMB Channel 46:   -3.718 V   [V AN_NEG dtmroc 3]
ELMB Channel 47:   -3.730 V   [V AN_NEG dtmroc 4]
ELMB Channel 48:   -3.697 V   [V AN_NEG dtmroc 5]
ELMB Channel 49:   -3.724 V   [V AN_NEG dtmroc 5]
ELMB Channel 50:   -3.715 V   [V AN_NEG dtmroc 6]
ELMB Channel 51:   -3.716 V   [V AN_NEG dtmroc 6]
ELMB Channel 52:   3.858 V   [V DIGI dtmroc 9]
ELMB Channel 53:   3.793 V   [V DIGI dtmroc 10]
ELMB Channel 54:   3.819 V   [V DIGI dtmroc 11]
ELMB Channel 55:   3.846 V   [V DIGI dtmroc 12]
ELMB Channel 56:   3.818 V   [V DIGI dtmroc 13]
ELMB Channel 57:   3.827 V   [V DIGI dtmroc 13]
ELMB Channel 58:   3.829 V   [V DIGI dtmroc 14]
ELMB Channel 59:   3.825 V   [V DIGI dtmroc 14]
Temperature channels
Channel 60, temperature 35.83
Channel 61, temperature 43.45
Channel 62, temperature 35.09
Channel 63, temperature 45.31

Set all regulators ON
Current channels
******** 0. 0.768534  
******** 2. 0.793507  
******** 4. 0.772536  
******** 6. 0.791286  
******** 8. 0.780357  
******** 9. 0.802216  
ERROR: current not in range (0.802 A): ELMB channel 9 [I AN_POS dtmroc 5]
******** 10. 0.775703  
******** 11. 0.789108  
******** 12. 0.743841  
******** 14. 0.766255  
******** 16. 0.782080  
******** 18. 0.758026  
******** 20. 0.757961  
******** 21. 0.750505  
******** 22. 0.782572  
******** 23. 0.739915  
******** 24. 0.743178  
******** 26. 0.729623  
******** 28. 0.756570  
******** 30. 0.786938  
******** 32. 0.784188  
******** 33. 0.758465  
******** 34. 0.752803  
******** 35. 0.760140  
******** 0. 0.768534  
******** 2. 0.793507  
******** 4. 0.772536  
******** 6. 0.791286  
******** 8. 0.780357  
******** 9. 0.802216  
ERROR: current not in range (0.802 A): ELMB channel 9 [I AN_POS dtmroc 5]
******** 10. 0.775703  
******** 11. 0.789108  
Voltage channels
ELMB Channel 36:   3.796 V   [V AN_POS dtmroc 1]
ELMB Channel 37:   3.824 V   [V AN_POS dtmroc 2]
ELMB Channel 38:   3.840 V   [V AN_POS dtmroc 3]
ELMB Channel 39:   3.822 V   [V AN_POS dtmroc 4]
ELMB Channel 40:   3.842 V   [V AN_POS dtmroc 5]
ELMB Channel 41:   3.833 V   [V AN_POS dtmroc 5]
ELMB Channel 42:   3.804 V   [V AN_POS dtmroc 6]
ELMB Channel 43:   3.811 V   [V AN_POS dtmroc 6]
ELMB Channel 44:   -3.714 V   [V AN_NEG dtmroc 1]
ELMB Channel 45:   -3.699 V   [V AN_NEG dtmroc 2]
ELMB Channel 46:   -3.717 V   [V AN_NEG dtmroc 3]
ELMB Channel 47:   -3.730 V   [V AN_NEG dtmroc 4]
ELMB Channel 48:   -3.696 V   [V AN_NEG dtmroc 5]
ELMB Channel 49:   -3.724 V   [V AN_NEG dtmroc 5]
ELMB Channel 50:   -3.715 V   [V AN_NEG dtmroc 6]
ELMB Channel 51:   -3.715 V   [V AN_NEG dtmroc 6]
ELMB Channel 52:   3.858 V   [V DIGI dtmroc 9]
ELMB Channel 53:   3.793 V   [V DIGI dtmroc 10]
ELMB Channel 54:   3.819 V   [V DIGI dtmroc 11]
ELMB Channel 55:   3.846 V   [V DIGI dtmroc 12]
ELMB Channel 56:   3.818 V   [V DIGI dtmroc 13]
ELMB Channel 57:   3.827 V   [V DIGI dtmroc 13]
ELMB Channel 58:   3.829 V   [V DIGI dtmroc 14]
ELMB Channel 59:   3.825 V   [V DIGI dtmroc 14]
Temperature channels
Channel 60, temperature 35.86
Channel 61, temperature 43.48
Channel 62, temperature 35.33
Channel 63, temperature 45.13

Set all regulators ON
Current channels
******** 0. 0.765434  
******** 2. 0.793507  
******** 4. 0.772558  
******** 6. 0.791286  
******** 8. 0.777357  
******** 9. 0.802216  
ERROR: current not in range (0.802 A): ELMB channel 9 [I AN_POS dtmroc 5]
******** 10. 0.775710  
******** 11. 0.792108  
******** 12. 0.740790  
******** 14. 0.766459  
******** 16. 0.782028  
******** 18. 0.758010  
******** 20. 0.757870  
******** 21. 0.750515  
******** 22. 0.782572  
******** 23. 0.739915  
******** 24. 0.743178  
******** 26. 0.732623  
******** 28. 0.756616  
******** 30. 0.786938  
******** 32. 0.784188  
******** 33. 0.758465  
******** 34. 0.752803  
******** 35. 0.760140  
******** 0. 0.765434  
******** 2. 0.793507  
******** 4. 0.772558  
******** 6. 0.791286  
******** 8. 0.777357  
******** 9. 0.802216  
ERROR: current not in range (0.802 A): ELMB channel 9 [I AN_POS dtmroc 5]
******** 10. 0.775710  
******** 11. 0.792108  
Voltage channels
ELMB Channel 36:   3.796 V   [V AN_POS dtmroc 1]
ELMB Channel 37:   3.824 V   [V AN_POS dtmroc 2]
ELMB Channel 38:   3.841 V   [V AN_POS dtmroc 3]
ELMB Channel 39:   3.822 V   [V AN_POS dtmroc 4]
ELMB Channel 40:   3.842 V   [V AN_POS dtmroc 5]
ELMB Channel 41:   3.833 V   [V AN_POS dtmroc 5]
ELMB Channel 42:   3.804 V   [V AN_POS dtmroc 6]
ELMB Channel 43:   3.811 V   [V AN_POS dtmroc 6]
ELMB Channel 44:   -3.714 V   [V AN_NEG dtmroc 1]
ELMB Channel 45:   -3.700 V   [V AN_NEG dtmroc 2]
ELMB Channel 46:   -3.718 V   [V AN_NEG dtmroc 3]
ELMB Channel 47:   -3.730 V   [V AN_NEG dtmroc 4]
ELMB Channel 48:   -3.697 V   [V AN_NEG dtmroc 5]
ELMB Channel 49:   -3.725 V   [V AN_NEG dtmroc 5]
ELMB Channel 50:   -3.715 V   [V AN_NEG dtmroc 6]
ELMB Channel 51:   -3.715 V   [V AN_NEG dtmroc 6]
ELMB Channel 52:   3.858 V   [V DIGI dtmroc 9]
ELMB Channel 53:   3.793 V   [V DIGI dtmroc 10]
ELMB Channel 54:   3.819 V   [V DIGI dtmroc 11]
ELMB Channel 55:   3.846 V   [V DIGI dtmroc 12]
ELMB Channel 56:   3.818 V   [V DIGI dtmroc 13]
ELMB Channel 57:   3.827 V   [V DIGI dtmroc 13]
ELMB Channel 58:   3.829 V   [V DIGI dtmroc 14]
ELMB Channel 59:   3.825 V   [V DIGI dtmroc 14]
Temperature channels
Channel 60, temperature 35.86
Channel 61, temperature 43.53
Channel 62, temperature 35.08
Channel 63, temperature 45.22

Set all regulators ON
Current channels
******** 0. 0.768534  
******** 2. 0.796507  
******** 4. 0.772536  
******** 6. 0.791286  
******** 8. 0.780357  
******** 9. 0.799216  
******** 10. 0.772703  
******** 11. 0.789108  
******** 12. 0.740741  
******** 14. 0.766305  
******** 16. 0.778962  
******** 18. 0.758018  
******** 20. 0.757961  
******** 21. 0.753505  
******** 22. 0.782572  
******** 23. 0.739915  
******** 24. 0.743178  
******** 26. 0.729623  
******** 28. 0.756616  
******** 30. 0.786938  
******** 32. 0.784188  
******** 33. 0.758465  
******** 34. 0.752803  
******** 35. 0.760140  
******** 0. 0.768534  
******** 2. 0.796507  
******** 4. 0.772536  
******** 6. 0.791286  
******** 8. 0.780357  
******** 9. 0.799216  
******** 10. 0.772703  
******** 11. 0.789108  
Voltage channels
ELMB Channel 36:   3.796 V   [V AN_POS dtmroc 1]
ELMB Channel 37:   3.824 V   [V AN_POS dtmroc 2]
ELMB Channel 38:   3.840 V   [V AN_POS dtmroc 3]
ELMB Channel 39:   3.822 V   [V AN_POS dtmroc 4]
ELMB Channel 40:   3.842 V   [V AN_POS dtmroc 5]
ELMB Channel 41:   3.833 V   [V AN_POS dtmroc 5]
ELMB Channel 42:   3.804 V   [V AN_POS dtmroc 6]
ELMB Channel 43:   3.811 V   [V AN_POS dtmroc 6]
ELMB Channel 44:   -3.714 V   [V AN_NEG dtmroc 1]
ELMB Channel 45:   -3.699 V   [V AN_NEG dtmroc 2]
ELMB Channel 46:   -3.717 V   [V AN_NEG dtmroc 3]
ELMB Channel 47:   -3.730 V   [V AN_NEG dtmroc 4]
ELMB Channel 48:   -3.696 V   [V AN_NEG dtmroc 5]
ELMB Channel 49:   -3.724 V   [V AN_NEG dtmroc 5]
ELMB Channel 50:   -3.715 V   [V AN_NEG dtmroc 6]
ELMB Channel 51:   -3.715 V   [V AN_NEG dtmroc 6]
ELMB Channel 52:   3.858 V   [V DIGI dtmroc 9]
ELMB Channel 53:   3.793 V   [V DIGI dtmroc 10]
ELMB Channel 54:   3.819 V   [V DIGI dtmroc 11]
ELMB Channel 55:   3.846 V   [V DIGI dtmroc 12]
ELMB Channel 56:   3.818 V   [V DIGI dtmroc 13]
ELMB Channel 57:   3.827 V   [V DIGI dtmroc 13]
ELMB Channel 58:   3.829 V   [V DIGI dtmroc 14]
ELMB Channel 59:   3.825 V   [V DIGI dtmroc 14]
Temperature channels
Channel 60, temperature 35.87
Channel 61, temperature 43.48
Channel 62, temperature 35.33
Channel 63, temperature 45.23

Set all regulators ON
Current channels
******** 0. 0.768534  
******** 2. 0.793507  
******** 4. 0.775636  
******** 6. 0.791286  
******** 8. 0.777357  
******** 9. 0.799216  
******** 10. 0.775703  
******** 11. 0.792108  
******** 12. 0.740790  
******** 14. 0.766357  
******** 16. 0.778945  
******** 18. 0.758018  
******** 20. 0.757930  
******** 21. 0.753515  
******** 22. 0.785635  
******** 23. 0.736825  
******** 24. 0.740178  
******** 26. 0.729623  
******** 28. 0.756616  
******** 30. 0.786938  
******** 32. 0.784188  
******** 33. 0.758465  
******** 34. 0.752803  
******** 35. 0.760140  
******** 0. 0.768534  
******** 2. 0.793507  
******** 4. 0.775636  
******** 6. 0.791286  
******** 8. 0.777357  
******** 9. 0.799216  
******** 10. 0.775703  
******** 11. 0.792108  
Voltage channels
ELMB Channel 36:   3.796 V   [V AN_POS dtmroc 1]
ELMB Channel 37:   3.824 V   [V AN_POS dtmroc 2]
ELMB Channel 38:   3.840 V   [V AN_POS dtmroc 3]
ELMB Channel 39:   3.822 V   [V AN_POS dtmroc 4]
ELMB Channel 40:   3.842 V   [V AN_POS dtmroc 5]
ELMB Channel 41:   3.833 V   [V AN_POS dtmroc 5]
ELMB Channel 42:   3.804 V   [V AN_POS dtmroc 6]
ELMB Channel 43:   3.811 V   [V AN_POS dtmroc 6]
ELMB Channel 44:   -3.714 V   [V AN_NEG dtmroc 1]
ELMB Channel 45:   -3.700 V   [V AN_NEG dtmroc 2]
ELMB Channel 46:   -3.718 V   [V AN_NEG dtmroc 3]
ELMB Channel 47:   -3.730 V   [V AN_NEG dtmroc 4]
ELMB Channel 48:   -3.696 V   [V AN_NEG dtmroc 5]
ELMB Channel 49:   -3.725 V   [V AN_NEG dtmroc 5]
ELMB Channel 50:   -3.714 V   [V AN_NEG dtmroc 6]
ELMB Channel 51:   -3.715 V   [V AN_NEG dtmroc 6]
ELMB Channel 52:   3.858 V   [V DIGI dtmroc 9]
ELMB Channel 53:   3.793 V   [V DIGI dtmroc 10]
ELMB Channel 54:   3.819 V   [V DIGI dtmroc 11]
ELMB Channel 55:   3.846 V   [V DIGI dtmroc 12]
ELMB Channel 56:   3.818 V   [V DIGI dtmroc 13]
ELMB Channel 57:   3.827 V   [V DIGI dtmroc 13]
ELMB Channel 58:   3.829 V   [V DIGI dtmroc 14]
ELMB Channel 59:   3.825 V   [V DIGI dtmroc 14]
Temperature channels
Channel 60, temperature 35.69
Channel 61, temperature 43.52
Channel 62, temperature 34.92
Channel 63, temperature 45.12

Set all regulators ON
Current channels
******** 0. 0.768534  
******** 2. 0.796507  
******** 4. 0.775636  
******** 6. 0.791275  
******** 8. 0.777357  
******** 9. 0.799216  
******** 10. 0.775703  
******** 11. 0.789108  
******** 12. 0.743841  
******** 14. 0.766357  
******** 16. 0.778962  
******** 18. 0.758018  
******** 20. 0.757930  
******** 21. 0.753505  
******** 22. 0.782572  
******** 23. 0.739915  
******** 24. 0.743178  
******** 26. 0.729623  
******** 28. 0.756616  
******** 30. 0.786938  
******** 32. 0.784188  
******** 33. 0.758465  
******** 34. 0.752803  
******** 35. 0.760140  
******** 0. 0.768534  
******** 2. 0.796507  
******** 4. 0.775636  
******** 6. 0.791275  
******** 8. 0.777357  
******** 9. 0.799216  
******** 10. 0.775703  
******** 11. 0.789108  
Voltage channels
ELMB Channel 36:   3.796 V   [V AN_POS dtmroc 1]
ELMB Channel 37:   3.824 V   [V AN_POS dtmroc 2]
ELMB Channel 38:   3.840 V   [V AN_POS dtmroc 3]
ELMB Channel 39:   3.822 V   [V AN_POS dtmroc 4]
ELMB Channel 40:   3.842 V   [V AN_POS dtmroc 5]
ELMB Channel 41:   3.833 V   [V AN_POS dtmroc 5]
ELMB Channel 42:   3.804 V   [V AN_POS dtmroc 6]
ELMB Channel 43:   3.811 V   [V AN_POS dtmroc 6]
ELMB Channel 44:   -3.714 V   [V AN_NEG dtmroc 1]
ELMB Channel 45:   -3.700 V   [V AN_NEG dtmroc 2]
ELMB Channel 46:   -3.717 V   [V AN_NEG dtmroc 3]
ELMB Channel 47:   -3.730 V   [V AN_NEG dtmroc 4]
ELMB Channel 48:   -3.696 V   [V AN_NEG dtmroc 5]
ELMB Channel 49:   -3.724 V   [V AN_NEG dtmroc 5]
ELMB Channel 50:   -3.715 V   [V AN_NEG dtmroc 6]
ELMB Channel 51:   -3.715 V   [V AN_NEG dtmroc 6]
ELMB Channel 52:   3.858 V   [V DIGI dtmroc 9]
ELMB Channel 53:   3.793 V   [V DIGI dtmroc 10]
ELMB Channel 54:   3.819 V   [V DIGI dtmroc 11]
ELMB Channel 55:   3.846 V   [V DIGI dtmroc 12]
ELMB Channel 56:   3.818 V   [V DIGI dtmroc 13]
ELMB Channel 57:   3.827 V   [V DIGI dtmroc 13]
ELMB Channel 58:   3.829 V   [V DIGI dtmroc 14]
ELMB Channel 59:   3.825 V   [V DIGI dtmroc 14]
Temperature channels
Channel 60, temperature 35.92
Channel 61, temperature 43.46
Channel 62, temperature 35.31
Channel 63, temperature 45.00

Set all regulators ON
Current channels
******** 0. 0.768534  
******** 2. 0.796507  
******** 4. 0.775658  
******** 6. 0.791286  
******** 8. 0.777357  
******** 9. 0.802216  
ERROR: current not in range (0.802 A): ELMB channel 9 [I AN_POS dtmroc 5]
******** 10. 0.775703  
******** 11. 0.792108  
******** 12. 0.740790  
******** 14. 0.766357  
******** 16. 0.778962  
******** 18. 0.758026  
******** 20. 0.757930  
******** 21. 0.750505  
******** 22. 0.785635  
******** 23. 0.736835  
******** 24. 0.743178  
******** 26. 0.732623  
******** 28. 0.756570  
******** 30. 0.786938  
******** 32. 0.784188  
******** 33. 0.758465  
******** 34. 0.752803  
******** 35. 0.760140  
******** 0. 0.768534  
******** 2. 0.796507  
******** 4. 0.775658  
******** 6. 0.791286  
******** 8. 0.777357  
******** 9. 0.802216  
ERROR: current not in range (0.802 A): ELMB channel 9 [I AN_POS dtmroc 5]
******** 10. 0.775703  
******** 11. 0.792108  
Voltage channels
ELMB Channel 36:   3.796 V   [V AN_POS dtmroc 1]
ELMB Channel 37:   3.824 V   [V AN_POS dtmroc 2]
ELMB Channel 38:   3.841 V   [V AN_POS dtmroc 3]
ELMB Channel 39:   3.822 V   [V AN_POS dtmroc 4]
ELMB Channel 40:   3.842 V   [V AN_POS dtmroc 5]
ELMB Channel 41:   3.833 V   [V AN_POS dtmroc 5]
ELMB Channel 42:   3.804 V   [V AN_POS dtmroc 6]
ELMB Channel 43:   3.811 V   [V AN_POS dtmroc 6]
ELMB Channel 44:   -3.714 V   [V AN_NEG dtmroc 1]
ELMB Channel 45:   -3.700 V   [V AN_NEG dtmroc 2]
ELMB Channel 46:   -3.717 V   [V AN_NEG dtmroc 3]
ELMB Channel 47:   -3.730 V   [V AN_NEG dtmroc 4]
ELMB Channel 48:   -3.696 V   [V AN_NEG dtmroc 5]
ELMB Channel 49:   -3.724 V   [V AN_NEG dtmroc 5]
ELMB Channel 50:   -3.714 V   [V AN_NEG dtmroc 6]
ELMB Channel 51:   -3.715 V   [V AN_NEG dtmroc 6]
ELMB Channel 52:   3.858 V   [V DIGI dtmroc 9]
ELMB Channel 53:   3.793 V   [V DIGI dtmroc 10]
ELMB Channel 54:   3.819 V   [V DIGI dtmroc 11]
ELMB Channel 55:   3.846 V   [V DIGI dtmroc 12]
ELMB Channel 56:   3.818 V   [V DIGI dtmroc 13]
ELMB Channel 57:   3.827 V   [V DIGI dtmroc 13]
ELMB Channel 58:   3.829 V   [V DIGI dtmroc 14]
ELMB Channel 59:   3.825 V   [V DIGI dtmroc 14]
Temperature channels
Channel 60, temperature 35.81
Channel 61, temperature 43.46
Channel 62, temperature 34.89
Channel 63, temperature 44.88

Set all regulators ON
Current channels
******** 0. 0.768534  
******** 2. 0.793507  
******** 4. 0.775636  
******** 6. 0.791286  
******** 8. 0.777357  
******** 9. 0.802216  
ERROR: current not in range (0.802 A): ELMB channel 9 [I AN_POS dtmroc 5]
******** 10. 0.775703  
******** 11. 0.789108  
******** 12. 0.740790  
******** 14. 0.766409  
******** 16. 0.778962  
******** 18. 0.758026  
******** 20. 0.757930  
******** 21. 0.753505  
******** 22. 0.782572  
******** 23. 0.736815  
******** 24. 0.743178  
******** 26. 0.729623  
******** 28. 0.756570  
******** 30. 0.786938  
******** 32. 0.784188  
******** 33. 0.758465  
******** 34. 0.752803  
******** 35. 0.760140  
******** 0. 0.768534  
******** 2. 0.793507  
******** 4. 0.775636  
******** 6. 0.791286  
******** 8. 0.777357  
******** 9. 0.802216  
ERROR: current not in range (0.802 A): ELMB channel 9 [I AN_POS dtmroc 5]
******** 10. 0.775703  
******** 11. 0.789108  
Voltage channels
ELMB Channel 36:   3.796 V   [V AN_POS dtmroc 1]
ELMB Channel 37:   3.824 V   [V AN_POS dtmroc 2]
ELMB Channel 38:   3.840 V   [V AN_POS dtmroc 3]
ELMB Channel 39:   3.822 V   [V AN_POS dtmroc 4]
ELMB Channel 40:   3.842 V   [V AN_POS dtmroc 5]
ELMB Channel 41:   3.833 V   [V AN_POS dtmroc 5]
ELMB Channel 42:   3.804 V   [V AN_POS dtmroc 6]
ELMB Channel 43:   3.811 V   [V AN_POS dtmroc 6]
ELMB Channel 44:   -3.714 V   [V AN_NEG dtmroc 1]
ELMB Channel 45:   -3.700 V   [V AN_NEG dtmroc 2]
ELMB Channel 46:   -3.717 V   [V AN_NEG dtmroc 3]
ELMB Channel 47:   -3.730 V   [V AN_NEG dtmroc 4]
ELMB Channel 48:   -3.696 V   [V AN_NEG dtmroc 5]
ELMB Channel 49:   -3.724 V   [V AN_NEG dtmroc 5]
ELMB Channel 50:   -3.715 V   [V AN_NEG dtmroc 6]
ELMB Channel 51:   -3.715 V   [V AN_NEG dtmroc 6]
ELMB Channel 52:   3.858 V   [V DIGI dtmroc 9]
ELMB Channel 53:   3.793 V   [V DIGI dtmroc 10]
ELMB Channel 54:   3.819 V   [V DIGI dtmroc 11]
ELMB Channel 55:   3.846 V   [V DIGI dtmroc 12]
ELMB Channel 56:   3.818 V   [V DIGI dtmroc 13]
ELMB Channel 57:   3.827 V   [V DIGI dtmroc 13]
ELMB Channel 58:   3.829 V   [V DIGI dtmroc 14]
ELMB Channel 59:   3.825 V   [V DIGI dtmroc 14]
Temperature channels
Channel 60, temperature 35.85
Channel 61, temperature 43.40
Channel 62, temperature 35.38
Channel 63, temperature 45.03

Set all regulators ON
Current channels
******** 0. 0.768534  
******** 2. 0.793507  
******** 4. 0.772558  
******** 6. 0.791286  
******** 8. 0.777357  
******** 9. 0.799216  
******** 10. 0.775703  
******** 11. 0.792108  
******** 12. 0.740790  
******** 14. 0.766357  
******** 16. 0.778962  
******** 18. 0.758026  
******** 20. 0.757961  
******** 21. 0.753505  
******** 22. 0.785635  
******** 23. 0.739925  
******** 24. 0.743193  
******** 26. 0.729623  
******** 28. 0.756616  
******** 30. 0.786938  
******** 32. 0.784188  
******** 33. 0.758465  
******** 34. 0.752803  
******** 35. 0.760140  
******** 0. 0.768534  
******** 2. 0.793507  
******** 4. 0.772558  
******** 6. 0.791286  
******** 8. 0.777357  
******** 9. 0.799216  
******** 10. 0.775703  
******** 11. 0.792108  
Voltage channels
ELMB Channel 36:   3.796 V   [V AN_POS dtmroc 1]
ELMB Channel 37:   3.824 V   [V AN_POS dtmroc 2]
ELMB Channel 38:   3.841 V   [V AN_POS dtmroc 3]
ELMB Channel 39:   3.822 V   [V AN_POS dtmroc 4]
ELMB Channel 40:   3.842 V   [V AN_POS dtmroc 5]
ELMB Channel 41:   3.833 V   [V AN_POS dtmroc 5]
ELMB Channel 42:   3.804 V   [V AN_POS dtmroc 6]
ELMB Channel 43:   3.811 V   [V AN_POS dtmroc 6]
ELMB Channel 44:   -3.714 V   [V AN_NEG dtmroc 1]
ELMB Channel 45:   -3.700 V   [V AN_NEG dtmro