Calibration done: 01.10.2009 18:02:06
D052
Current channel, calibration factor
0  , 0.000108 ,  0.042700
1  , -0.000005 ,  0.000000
2  , 0.001279 ,  0.479100
3  , -0.000004 ,  0.000000
4  , -0.000063 ,  -0.024400
5  , 0.000000 ,  0.000000
6  , -0.000153 ,  -0.057900
7  , -0.000001 ,  -0.003000
8  , 0.000223 ,  0.082300
9  , -0.000077 ,  -0.030500
10  , 0.000561 ,  0.210500
11  , 0.001539 ,  0.576700
12  , -0.000838 ,  0.314300
13  , -0.000007 ,  0.003000
14  , -0.000474 ,  0.173900
15  , -0.000006 ,  0.003000
16  , -0.000195 ,  0.073200
17  , -0.000001 ,  0.003000
18  , 0.000534 ,  -0.198300
19  , -0.000007 ,  0.000000
20  , -0.000724 ,  0.268500
21  , 0.000102 ,  -0.039600
22  , -0.000048 ,  0.015200
23  , 0.000541 ,  -0.198300
24  , -0.000216 ,  -0.067100
25  , 0.000008 ,  0.003000
26  , 0.000009 ,  0.003000
27  , 0.000001 ,  0.000000
28  , -0.000522 ,  -0.164700
29  , 0.000009 ,  0.003000
30  , 0.000244 ,  0.079300
31  , 0.000006 ,  0.000000
32  , 0.000811 ,  0.259400
33  , 0.001374 ,  0.439400
34  , -0.000170 ,  -0.054900
35  , -0.000280 ,  -0.091500
