=====================================================
Calibration: card TYPE Wheel A
=====================================================
Calibration File Name: C:\LVPP_TESTS\data\card_182\LVPP_CALIB_182.csv

Calibration started: 12.06.2007 16:16:40
ELMB serial number: F637
Calibration file stored
Calibration started: 12.06.2007 16:18:08

