Calibration done: 07.09.2012 11:55:28
G956
Current channel, calibration factor
0  , -0.000578 ,  -0.216600
1  , -0.000289 ,  -0.106800
2  , 0.000613 ,  0.234900
3  , 0.001709 ,  0.643900
4  , -0.000706 ,  -0.265500
5  , 0.000592 ,  0.228800
6  , -0.000486 ,  -0.183100
7  , 0.002059 ,  0.775100
8  , 0.001092 ,  0.408900
9  , 0.001891 ,  0.714100
10  , 0.002968 ,  1.120000
11  , -0.000396 ,  -0.146400
12  , 0.000005 ,  0.000000
13  , 0.001637 ,  -0.589000
14  , 0.000644 ,  -0.103700
15  , 0.000660 ,  -0.357000
16  , 0.001355 ,  -0.451600
17  , 0.000953 ,  -0.366200
18  , 0.000452 ,  -0.167800
19  , 0.000582 ,  -0.198300
20  , 0.001472 ,  -0.570600
21  , 0.000632 ,  -0.177000
22  , 0.001445 ,  -0.469900
23  , -0.000081 ,  -0.015200
24  , 0.001600 ,  1.080300
25  , 0.000497 ,  -0.396700
26  , 0.000865 ,  0.283800
27  , 0.002002 ,  0.653000
28  , 0.000221 ,  0.073200
29  , 0.003165 ,  1.031500
30  , 0.000713 ,  0.231900
31  , 0.002469 ,  0.805600
32  , 0.000803 ,  0.668300
33  , 0.003630 ,  0.769000
34  , 0.000194 ,  0.460800
35  , 0.003384 ,  0.698800
