=====================================================
Calibration: card TYPE Wheel A
=====================================================
Calibration File Name: C:\LVPP_TESTS\data\card_136\LVPP_CALIB_136.csv

Calibration started: 05.05.2007 17:31:30
ELMB serial number: F455
Calibration file stored
Calibration started: 05.05.2007 17:32:57

