=====================================================
Calibration: card TYPE Wheel A
=====================================================
Calibration File Name: /det/dcs/lvtemp/lvppCalib/card_1023/LVPP_CALIB_1023.csv

Calibration started: 14.09.2012 10:54:45
ELMB serial number: G956
Calibration file stored
Calibration started: 14.09.2012 10:55:38

