Calibration done: 11.06.2007 09:03:46
F424
Current channel, calibration factor
0  , -0.000008 ,  0.000000
1  , 0.000000 ,  0.000000
2  , -0.000024 ,  -0.009100
3  , 0.000047 ,  0.018300
4  , -0.000016 ,  -0.006100
5  , 0.000041 ,  0.015200
6  , 0.000032 ,  0.012200
7  , -0.000025 ,  -0.006100
8  , 0.000058 ,  0.021300
9  , -0.000051 ,  -0.018300
10  , -0.000046 ,  -0.018300
11  , 0.000063 ,  0.024400
12  , -0.000002 ,  0.000000
13  , -0.000098 ,  0.036600
14  , 0.000106 ,  -0.039600
15  , -0.000048 ,  0.018300
16  , 0.000067 ,  -0.027400
17  , -0.000067 ,  0.024400
18  , 0.000030 ,  -0.009100
19  , 0.000009 ,  -0.003000
20  , 0.000039 ,  -0.012200
21  , 0.000405 ,  -0.146400
22  , -0.000029 ,  0.009100
23  , 0.000067 ,  -0.024400
24  , -0.000081 ,  -0.024400
25  , -0.000001 ,  0.000000
26  , -0.000020 ,  -0.006100
27  , -0.000026 ,  -0.009100
28  , 0.000027 ,  0.006100
29  , 0.000024 ,  0.009100
30  , 0.000040 ,  0.012200
31  , 0.000016 ,  0.006100
32  , 0.000038 ,  0.012200
33  , -0.000042 ,  -0.012200
34  , -0.000001 ,  0.000000
35  , 0.000001 ,  0.000000
