=====================================================
Calibration: card TYPE Wheel A
=====================================================
Calibration File Name: C:\LVPP_TESTS\data\card_095\LVPP_CALIB_095.csv

Calibration started: 20.04.2007 11:07:37

Calibration file stored
Calibration started: 20.04.2007 11:08:59

