Calibration done: 20.04.2007 15:03:44,,
F246,,
Current channel, calibration factor,
0,0.001088,0.4089
1,-0.000005,-0.003
2,-0.001201,-0.4486
3,-0.000003,-0.003
4,-0.001614,-0.6073
5,0.000007,0.003
6,-0.000043,-0.0183
7,0.000007,0.003
8,0.0003,0.1129
9,-0.000031,-0.0122
10,0.00064,0.238
11,-0.00029,-0.1098
12,0.000194,-0.0732
13,0,0.0061
14,0.000612,-0.2258
15,0,0
16,-0.000165,0.061
17,-0.000004,-0.003
18,0.000464,-0.1739
19,-0.000007,0.0061
20,0.000401,-0.1464
21,0.000933,-0.3479
22,0.000045,-0.0183
23,0.000835,-0.3112
24,-0.000449,-0.1464
25,0.000003,0
26,0.000555,0.18
27,0,0
28,-0.000135,-0.0427
29,0,0
30,0.0011,0.3509
31,0,0.003
32,-0.000085,-0.0274
33,0.000714,0.2288
34,-0.001729,-0.5554
35,-0.000636,-0.2075
