=====================================================
Calibration: card TYPE Wheel A
=====================================================
Calibration File Name: C:\LVPP_TESTS\data\card_048\LVPP_CALIB_048.csv

Calibration started: 21.06.2007 11:25:25
ELMB serial number: F604
Calibration file stored
Calibration started: 21.06.2007 11:26:52

