Calibration done: 11.10.2009 21:49:06
D052
Current channel, calibration factor
0  , -0.000833 ,  -0.314300
1  , 0.000664 ,  0.253300
2  , -0.000610 ,  -0.228800
3  , -0.000079 ,  -0.030500
4  , -0.000193 ,  -0.073200
5  , -0.000610 ,  -0.228800
6  , 0.000069 ,  0.027400
7  , 0.000146 ,  0.054900
8  , 0.000306 ,  0.112900
9  , 0.000453 ,  0.167800
10  , 0.000176 ,  0.067100
11  , -0.000575 ,  -0.213600
12  , -0.000518 ,  0.183100
13  , -0.000696 ,  0.250200
14  , 0.000546 ,  -0.198300
15  , -0.000101 ,  0.036600
16  , -0.000075 ,  0.024400
17  , -0.000259 ,  0.091500
18  , 0.000028 ,  -0.009100
19  , 0.000368 ,  -0.134200
20  , 0.000189 ,  -0.067100
21  , -0.000853 ,  0.302100
22  , -0.000022 ,  0.009100
23  , 0.000585 ,  -0.216600
24  , 0.000582 ,  0.189200
25  , -0.000373 ,  -0.122000
26  , 0.000665 ,  0.213600
27  , -0.000593 ,  -0.192200
28  , -0.000448 ,  -0.146400
29  , 0.000080 ,  0.027400
30  , -0.000957 ,  -0.311200
31  , 0.001576 ,  0.515700
32  , -0.000001 ,  0.000000
33  , -0.000544 ,  -0.177000
34  , -0.000336 ,  -0.106800
35  , -0.000710 ,  -0.231900
