Calibration done: 28.03.2007 16:46:24,,
F351,,
Current channel, calibration factor,
0,0.000743,0.2807
1,-0.000478,-0.1831
2,0.000454,0.1709
3,-0.000537,-0.2014
4,0.000968,0.3662
5,0.000146,0.0549
6,0.000126,0.0457
7,-0.00021,-0.0793
8,0.000949,0.357
9,0.001207,0.4577
10,0.000976,0.3692
11,0.00037,0.1403
12,0.000216,-0.0793
13,0.000697,-0.2502
14,0.000707,-0.2533
15,0.000615,-0.2197
16,0.000105,-0.0366
17,0.001359,-0.4821
18,-0.002343,0.8514
19,0.000628,-0.2288
20,-0.000463,0.1678
21,-0.000286,0.1007
22,-0.000408,0.1464
23,0.002265,-0.8056
24,-0.000687,-0.2227
25,-0.000431,-0.1403
26,0.000161,0.0518
27,0.001006,0.3265
28,0.0002,0.0671
29,-0.000753,-0.2441
30,0.000778,0.2502
31,0.000469,0.1495
32,0.000072,0.0244
33,-0.000719,-0.2288
34,-0.001084,-0.3479
35,-0.000396,-0.1281
