Calibration done: 20.04.2007 12:18:56,,
F235,,
Current channel, calibration factor,
0,0.000796,0.296
1,-0.000015,-0.0061
2,-0.00086,-0.3234
3,-0.000016,-0.0061
4,0.000388,0.1464
5,0.00001,0.003
6,-0.000869,-0.3265
7,0.000016,0.003
8,0.000823,0.3051
9,0.000993,0.3723
10,-0.000961,-0.3631
11,0.000105,0.0396
12,0.000857,-0.3173
13,0,0.003
14,-0.000323,0.122
15,0,0.003
16,-0.002015,0.7507
17,-0.000009,0
18,0.000951,-0.3509
19,-0.000007,0.0091
20,0.00068,-0.2563
21,-0.000015,0.003
22,-0.000325,0.119
23,-0.000045,0.0183
24,-0.001607,-0.5157
25,0.000006,-0.003
26,0.001798,0.5798
27,0.000002,0.0122
28,-0.000399,-0.1281
29,0,0.0091
30,0.000572,0.1861
31,0,0.0061
32,0.001398,0.4455
33,-0.000072,-0.0244
34,-0.000468,-0.1495
35,0.002052,0.6622
