=====================================================
Calibration: card TYPE Wheel A
=====================================================
Calibration File Name: C:\LVPP_TESTS\data\card_078\LVPP_CALIB_078.csv

Calibration started: 16.04.2007 17:27:49

Calibration file stored
Calibration started: 16.04.2007 17:29:12

