=====================================================
Calibration: card TYPE Wheel A
=====================================================
Calibration File Name: C:\LVPP_TESTS\data\card_157\LVPP_CALIB_157.csv

Calibration started: 09.05.2007 14:17:15
ELMB serial number: F455
Calibration file stored
Calibration started: 09.05.2007 14:18:42

