Calibration done: 20.04.2007 12:10:35,,
F727,,
Current channel, calibration factor,
0,0.000062,0.0244
1,0.000007,0
2,0,0
3,0.000007,0
4,-0.000102,-0.0366
5,0,0
6,0.000013,0.0061
7,0.000003,0.003
8,0.000063,0.0244
9,-0.000004,0
10,-0.000059,-0.0213
11,0.00002,0.0061
12,-0.000075,0.0305
13,0,0
14,-0.000063,0.0244
15,0,0.003
16,0.000001,0
17,-0.000006,0.003
18,0.000054,-0.0183
19,-0.000007,0
20,0.000098,-0.0366
21,-0.00001,0.003
22,-0.000126,0.0457
23,0.000048,-0.0183
24,-0.000113,-0.0366
25,0,0
26,0.000028,0.0091
27,0,0
28,0,0
29,0,0
30,0.00001,0.003
31,0,0
32,-0.00005,-0.0152
33,0.000024,0.0061
34,0.000038,0.0122
35,0.000128,0.0427
