============================================
Check basic functions of a card TYPE A
============================================
Card Serial Number: 18
CALIBRATION FILE: /det/dcs/lvtemp/lvppCalib/card_018/LVPP_CALIB_018.csv
Load: 5 ohms, valid current range: <0.520 A - 0.820 A> 
                temperature range: <15.10 C - 60.00 C> 

TEST is started: 31.08.2012 15:41:46

ELMB <1> init OK
ELMB NB: 1 Initializing of DTMROCS: 1 2 3 4 5 6 9 10 11 12 13 14 
Single Write/Read DACs 01 23 in all DTMROCS

Write to all DACs  - broadcast
Check set INHIBITS
Set all regulators ON one by one
Set all regulators OFF one by one
Set all regulators ON - BROADCAST
Set all regulators OFF - BROADCAST

Check ANALOG readout

Hard reset: all regulators are off, all DACs are set to 0xFF.
