=====================================================
Calibration: card TYPE Wheel A
=====================================================
Calibration File Name: /det/dcs/lvtemp/lvppCalib/card_018/LVPP_CALIB_018.csv

Calibration started: 07.09.2012 11:55:28
ELMB serial number: G956
Calibration file stored
Calibration started: 07.09.2012 11:56:23

