 0	 0.701900	 
 2	 0.680500	 
 4	 0.720200	 
 6	 0.692700	 
 8	 0.695800	 
 9	 0.668300	 
 10	 0.671400	 
 11	 0.674400	 
 12	 -0.820900	 
 14	 -0.802600	 
 16	 -0.814800	 
 18	 -0.827000	 
 20	 -0.802600	 
 21	 -0.790400	 
 22	 -0.793400	 
 23	 -0.833100	 
 24	 0.500500	 
 26	 0.482100	 
 28	 0.500500	 
 30	 0.518800	 
 32	 0.500500	 
 33	 0.503500	 
 34	 0.537100	 
 35	 0.509600	 
 36 	 3.426181 3.423841
 37 	 3.423497 3.421943
 38 	 3.438611 3.439725
 39 	 3.440624 3.431939
 40 	 3.448676 3.436780
 41 	 3.453714 3.444431
 42 	 3.408394 3.403144
 43 	 3.415445 3.402292
 44 	 -4.064357 -4.055168
 45 	 -4.077117 -4.066773
 46 	 -4.056976 -4.036362
 47 	 -4.111019 -4.087315
 48 	 -4.038177 -4.037076
 49 	 -4.048913 -4.027170
 50 	 -4.072750 -4.054209
 51 	 -4.140224 -4.125648
 52 	 2.597001 2.552084
 53 	 2.565442 2.509133
 54 	 2.600015 2.555369
 55 	 2.609420 2.567369
 56 	 2.589950 2.560852
 57 	 2.580215 2.547064
 58 	 2.607737 2.579899
 59 	 2.598002 2.568129
60	 0	 28.698479
61	 0	 29.070992
62	 0	 28.497752
63	 0	 29.008473
