=====================================================
Calibration: card TYPE Wheel A
=====================================================
Calibration File Name: C:\LVPP_TESTS\data\card_150\LVPP_CALIB_150.csv

Calibration started: 17.05.2007 14:22:46
ELMB serial number: F816
Calibration file stored
Calibration started: 17.05.2007 14:24:13

