=====================================================
Calibration: card TYPE Wheel A
=====================================================
Calibration File Name: C:\LVPP_TESTS\data\card_013\LVPP_CALIB_013.csv

Calibration started: 20.06.2007 09:22:15
ELMB serial number: F509
Calibration file stored
Calibration started: 20.06.2007 09:23:42

