Calibration done: 20.06.2007 09:22:15
F509
Current channel, calibration factor
0  , 0.000566 ,  0.210500
1  , -0.000634 ,  -0.234900
2  , -0.000465 ,  -0.173900
3  , -0.000538 ,  -0.204400
4  , -0.000348 ,  -0.131200
5  , 0.000015 ,  0.006100
6  , -0.000363 ,  -0.134200
7  , -0.000115 ,  -0.042700
8  , 0.000388 ,  0.146400
9  , -0.000619 ,  -0.231900
10  , -0.000143 ,  -0.054900
11  , 0.001235 ,  0.466900
12  , 0.001271 ,  -0.460800
13  , -0.001230 ,  0.445500
14  , -0.000104 ,  0.036600
15  , -0.001893 ,  0.680500
16  , -0.001200 ,  0.430300
17  , 0.003051 ,  -1.098600
18  , -0.001030 ,  0.372300
19  , 0.000009 ,  -0.003000
20  , 0.000016 ,  -0.006100
21  , -0.000627 ,  0.222700
22  , 0.000181 ,  -0.064000
23  , 0.000345 ,  -0.125100
24  , -0.001064 ,  -0.344800
25  , -0.000414 ,  -0.134200
26  , 0.000845 ,  0.274600
27  , 0.000756 ,  0.244100
28  , -0.001709 ,  -0.555400
29  , 0.000934 ,  0.302100
30  , 0.000007 ,  0.003000
31  , -0.001340 ,  -0.436400
32  , -0.001228 ,  -0.393600
33  , -0.001295 ,  -0.415000
34  , 0.001303 ,  0.421100
35  , -0.000288 ,  -0.091500
