Calibration done: 13.06.2007 16:22:48
F456
Current channel, calibration factor
0  , 0.000083 ,  0.030500
1  , 0.000008 ,  0.003000
2  , 0.000053 ,  0.018300
3  , 0.000008 ,  0.003000
4  , -0.000038 ,  -0.015200
5  , 0.000000 ,  0.000000
6  , -0.000036 ,  -0.015200
7  , 0.000003 ,  0.000000
8  , -0.000061 ,  -0.024400
9  , 0.000042 ,  0.015200
10  , 0.000067 ,  0.027400
11  , 0.000057 ,  0.024400
12  , 0.000116 ,  -0.039600
13  , 0.000000 ,  0.000000
14  , -0.000029 ,  0.009100
15  , 0.000000 ,  -0.003000
16  , -0.000106 ,  0.036600
17  , -0.000006 ,  0.003000
18  , -0.000085 ,  0.033500
19  , -0.000005 ,  0.000000
20  , -0.000053 ,  0.018300
21  , -0.000097 ,  0.033500
22  , -0.000009 ,  0.003000
23  , 0.000040 ,  -0.015200
24  , -0.000025 ,  -0.009100
25  , 0.000003 ,  0.003000
26  , 0.000021 ,  0.006100
27  , 0.000000 ,  0.000000
28  , 0.000030 ,  0.012200
29  , -0.000004 ,  0.000000
30  , -0.000100 ,  -0.033500
31  , 0.000000 ,  0.000000
32  , -0.000010 ,  -0.003000
33  , 0.000048 ,  0.015200
34  , -0.000070 ,  -0.024400
35  , -0.000016 ,  -0.006100
