Calibration done: 15.07.2008 10:30:30
E659
Current channel, calibration factor
0  , 0.000027 ,  0.009100
1  , -0.000032 ,  -0.012200
2  , 0.000016 ,  0.006100
3  , -0.000023 ,  -0.009100
4  , -0.000007 ,  -0.003000
5  , -0.000040 ,  -0.012200
6  , -0.000053 ,  -0.021300
7  , -0.000018 ,  -0.006100
8  , -0.000009 ,  -0.003000
9  , 0.000053 ,  0.018300
10  , 0.000008 ,  0.003000
11  , -0.000020 ,  -0.009100
12  , 0.000009 ,  -0.003000
13  , -0.000029 ,  0.009100
14  , 0.000030 ,  -0.012200
15  , 0.000057 ,  -0.021300
16  , -0.000019 ,  0.006100
17  , -0.000009 ,  0.003000
18  , -0.000013 ,  0.003000
19  , 0.000016 ,  -0.006100
20  , -0.000053 ,  0.018300
21  , -0.000067 ,  0.021300
22  , 0.000009 ,  -0.003000
23  , 0.000028 ,  -0.012200
24  , -0.000007 ,  0.000000
25  , -0.000024 ,  -0.009100
26  , -0.000018 ,  -0.006100
27  , -0.000030 ,  -0.009100
28  , -0.000016 ,  -0.003000
29  , 0.000008 ,  0.003000
30  , -0.000033 ,  -0.009100
31  , -0.000022 ,  -0.006100
32  , -0.000027 ,  -0.009100
33  , -0.000009 ,  -0.006100
34  , 0.000025 ,  0.009100
35  , 0.000000 ,  0.000000
