Calibration done: 08.06.2007 17:20:23
F527
Current channel, calibration factor
0  , 0.000061 ,  0.021300
1  , 0.000003 ,  0.000000
2  , -0.000017 ,  -0.006100
3  , 0.000002 ,  0.000000
4  , -0.000030 ,  -0.012200
5  , 0.000000 ,  0.000000
6  , -0.000078 ,  -0.030500
7  , 0.000000 ,  0.000000
8  , -0.000060 ,  -0.021300
9  , 0.000099 ,  0.036600
10  , -0.000112 ,  -0.042700
11  , 0.000073 ,  0.027400
12  , 0.000019 ,  -0.006100
13  , 0.000000 ,  0.000000
14  , 0.000042 ,  -0.015200
15  , -0.000002 ,  0.000000
16  , -0.000039 ,  0.012200
17  , -0.000008 ,  0.003000
18  , -0.000010 ,  0.003000
19  , -0.000006 ,  0.000000
20  , -0.000148 ,  0.054900
21  , -0.000138 ,  0.048800
22  , -0.000067 ,  0.021300
23  , -0.000087 ,  0.033500
24  , -0.000073 ,  -0.024400
25  , 0.000000 ,  0.000000
26  , -0.000057 ,  -0.018300
27  , 0.000000 ,  -0.003000
28  , 0.000065 ,  0.021300
29  , 0.000000 ,  0.000000
30  , -0.000072 ,  -0.024400
31  , 0.000003 ,  0.000000
32  , -0.000071 ,  -0.024400
33  , -0.000030 ,  -0.009100
34  , 0.000065 ,  0.021300
35  , -0.000033 ,  -0.009100
