=====================================================
Calibration: card TYPE Wheel A
=====================================================
Calibration File Name: C:\LVPP_TESTS\data\card_030\LVPP_CALIB_030.csv

Calibration started: 25.04.2007 15:28:25

Calibration file stored
Calibration started: 25.04.2007 15:29:47

