=====================================================
Calibration: card TYPE Wheel A
=====================================================
Calibration File Name: C:\LVPP_TESTS\data\card_035\LVPP_CALIB_035.csv

Calibration started: 24.04.2007 16:31:05

Calibration file stored
Calibration started: 24.04.2007 16:32:27

