Calibration done: 24.04.2007 16:31:05

Current channel, calibration factor
0  , -0.000355 ,  -0.134200
1  , -0.000160 ,  -0.061000
2  , -0.000444 ,  -0.167800
3  , 0.000498 ,  0.189200
4  , -0.001269 ,  -0.479100
5  , -0.000019 ,  -0.006100
6  , 0.000758 ,  0.286800
7  , -0.000914 ,  -0.344800
8  , 0.000093 ,  0.033500
9  , 0.000304 ,  0.112900
10  , -0.000998 ,  -0.375300
11  , -0.000909 ,  -0.341800
12  , 0.000029 ,  -0.012200
13  , 0.000037 ,  -0.012200
14  , 0.000133 ,  -0.048800
15  , 0.000580 ,  -0.210500
16  , 0.000192 ,  -0.070100
17  , 0.000377 ,  -0.134200
18  , -0.000164 ,  0.057900
19  , 0.000893 ,  -0.317300
20  , -0.000059 ,  0.021300
21  , 0.000016 ,  -0.006100
22  , 0.000290 ,  -0.103700
23  , -0.000319 ,  0.112900
24  , -0.000738 ,  -0.238000
25  , -0.000096 ,  -0.033500
26  , 0.000401 ,  0.128100
27  , -0.000208 ,  -0.067100
28  , -0.000799 ,  -0.259400
29  , 0.000136 ,  0.045700
30  , 0.000519 ,  0.167800
31  , -0.000067 ,  -0.021300
32  , 0.001017 ,  0.329500
33  , 0.000866 ,  0.280700
34  , -0.000110 ,  -0.033500
35  , -0.000139 ,  -0.045700
