Calibration done: 08.07.2008 16:18:56
E727
Current channel, calibration factor
0  , -0.000034 ,  -0.012200
1  , 0.000008 ,  0.003000
2  , -0.000036 ,  -0.012200
3  , 0.000008 ,  0.003000
4  , -0.000025 ,  -0.009100
5  , 0.000000 ,  0.000000
6  , 0.000054 ,  0.021300
7  , -0.000004 ,  0.000000
8  , 0.000034 ,  0.012200
9  , 0.000008 ,  0.003000
10  , 0.000066 ,  0.024400
11  , 0.000063 ,  0.021300
12  , -0.000155 ,  0.057900
13  , 0.000000 ,  0.000000
14  , 0.000049 ,  -0.018300
15  , -0.000002 ,  0.000000
16  , -0.000016 ,  0.003000
17  , -0.000006 ,  0.003000
18  , 0.000081 ,  -0.027400
19  , -0.000010 ,  0.003000
20  , 0.000005 ,  0.000000
21  , 0.000006 ,  -0.003000
22  , 0.000019 ,  -0.009100
23  , -0.000039 ,  0.012200
24  , 0.000029 ,  0.006100
25  , 0.000005 ,  0.000000
26  , 0.000002 ,  0.000000
27  , -0.000003 ,  0.000000
28  , 0.000061 ,  0.018300
29  , 0.000000 ,  0.000000
30  , -0.000050 ,  -0.015200
31  , -0.000002 ,  0.000000
32  , -0.000080 ,  -0.024400
33  , 0.000009 ,  0.003000
34  , -0.000004 ,  0.000000
35  , -0.000106 ,  -0.033500
