Calibration done: 04.06.2007 17:58:53
F444
Current channel, calibration factor
0  , -0.000054 ,  -0.021300
1  , 0.000007 ,  0.003000
2  , 0.000110 ,  0.042700
3  , 0.000007 ,  0.003000
4  , 0.000169 ,  0.061000
5  , 0.000000 ,  0.000000
6  , 0.000072 ,  0.024400
7  , 0.000000 ,  0.000000
8  , 0.000048 ,  0.018300
9  , -0.000074 ,  -0.027400
10  , 0.000015 ,  0.006100
11  , 0.000105 ,  0.039600
12  , -0.000026 ,  0.009100
13  , -0.000010 ,  0.003000
14  , -0.000045 ,  0.015200
15  , -0.000006 ,  0.003000
16  , -0.000010 ,  0.000000
17  , -0.000006 ,  0.000000
18  , -0.000063 ,  0.021300
19  , -0.000005 ,  0.000000
20  , -0.000097 ,  0.036600
21  , 0.000022 ,  -0.009100
22  , 0.000070 ,  -0.024400
23  , -0.000019 ,  0.006100
24  , 0.000027 ,  0.012200
25  , 0.000009 ,  0.003000
26  , 0.000036 ,  0.012200
27  , 0.000008 ,  0.003000
28  , -0.000076 ,  -0.024400
29  , 0.000006 ,  0.003000
30  , 0.000053 ,  0.015200
31  , 0.000009 ,  0.003000
32  , -0.000136 ,  -0.042700
33  , 0.000008 ,  0.003000
34  , 0.000071 ,  0.024400
35  , 0.000115 ,  0.039600
