============================================
Check basic functions of a card TYPE A
============================================
Card Serial Number: 309
CALIBRATION FILE: C:\LVPP_TESTS\data\card_309\LVPP_CALIB_309.csv
Load: 5 ohms, valid current range: <0.520 A - 0.820 A> 
      temperature range: <15.10 C - 67.00 C> 

TEST is started: 08.03.2012 18:16:37

ELMB <7> init OK
ELMB NB: 7 Initializing of DTMROCS: 1 2 3 4 5 6 9 10 11 12 13 14 
Single Write/Read DACs 01 23 in all DTMROCS

Write to all DACs  - broadcast
Check set INHIBITS
Set all regulators ON one by one
Set all regulators OFF one by one
Set all regulators ON - BROADCAST
Set all regulators OFF - BROADCAST

Check ANALOG readout

Hard reset: all regulators are off, all DACs are set to 0xFF.

Current channels
  RANGE: 0.65  -  0.85
******** 0. 0.003000    1. 0.006089  || 0.009089 
******** 2. 0.006090    3. 0.006100  || 0.012190 
******** 4. 0.002987    5. 0.000019  || 0.003007 
******** 6. 0.000015    7. 0.002997  || 0.003013 
******** 8. 0.002971    9. 0.002988  || 0.005959 
******** 10. 0.002962    11. 0.002984  || 0.005946 
  RANGE: 0.65  -  0.85
******** 12. 0.000024    13. 0.000004  || 0.000028 
******** 14. 0.000000    15. 0.000067  || 0.000067 
******** 16. 0.006092    17. 0.003015  || 0.009108 
******** 18. 0.000038    19. 0.003017  || 0.003056 
******** 20. 0.003001    21. 0.009103  || 0.012104 
******** 22. 0.003002    23. 0.003003  || 0.006005 
  RANGE: 0.55  -  0.75
******** 24. 0.003005    25. 0.003007  || 0.006012 
******** 26. 0.002994    27. 0.003000  || 0.005994 
******** 28. 0.000008    29. 0.000008  || 0.000016 
******** 30. 0.000000    31. 0.000005  || 0.000005 
******** 32. 0.002994    33. 0.003001  || 0.005995 
******** 34. 0.002990    35. 0.002992  || 0.005982 

Voltage channels:
  RANGE: 3.65  -  3.85
ELMB Channel 36:   0.005 V   [V AN_POS dtmroc 1]
ELMB Channel 37:   0.005 V   [V AN_POS dtmroc 2]
ELMB Channel 38:   0.005 V   [V AN_POS dtmroc 3]
ELMB Channel 39:   0.004 V   [V AN_POS dtmroc 4]
ELMB Channel 40:   0.004 V   [V AN_POS dtmroc 5]
ELMB Channel 41:   0.004 V   [V AN_POS dtmroc 5]
ELMB Channel 42:   0.005 V   [V AN_POS dtmroc 6]
ELMB Channel 43:   0.005 V   [V AN_POS dtmroc 6]
  RANGE: 3.50  -  3.70
ELMB Channel 44:   0.005 V   [V AN_NEG dtmroc 1]
ELMB Channel 45:   0.005 V   [V AN_NEG dtmroc 2]
ELMB Channel 46:   0.005 V   [V AN_NEG dtmroc 3]
ELMB Channel 47:   0.004 V   [V AN_NEG dtmroc 4]
ELMB Channel 48:   0.001 V   [V AN_NEG dtmroc 5]
ELMB Channel 49:   0.001 V   [V AN_NEG dtmroc 5]
ELMB Channel 50:   0.001 V   [V AN_NEG dtmroc 6]
ELMB Channel 51:   0.001 V   [V AN_NEG dtmroc 6]
  RANGE: 3.10  -  3.30
ELMB Channel 52:   0.002 V   [V DIGI dtmroc 9]
ELMB Channel 53:   0.002 V   [V DIGI dtmroc 10]
ELMB Channel 54:   0.002 V   [V DIGI dtmroc 11]
ELMB Channel 55:   0.002 V   [V DIGI dtmroc 12]
ELMB Channel 56:   0.002 V   [V DIGI dtmroc 13]
ELMB Channel 57:   0.001 V   [V DIGI dtmroc 13]
ELMB Channel 58:   0.002 V   [V DIGI dtmroc 14]
ELMB Channel 59:   0.002 V   [V DIGI dtmroc 14]

Temperature channels:
Channel 60, temperature 34.77
Channel 61, temperature 34.51
Channel 62, temperature 34.38
Channel 63, temperature 33.04

Set all regulators ON

Current channels
  RANGE: 0.65  -  0.85
******** 0. 0.753800    1. 0.001290  || 0.755090 
******** 2. 0.755390    3. 0.000000  || 0.755390 
******** 4. 0.749837    5. 0.009181  || 0.759018 
******** 6. 0.751536    7. 0.000765  || 0.752301 
******** 8. 0.756265    9. 0.001045  || 0.757310 
******** 10. 0.753872    11. 0.000555  || 0.754427 
  RANGE: 0.65  -  0.85
******** 12. 0.730984    13. 0.009386  || 0.740370 
******** 14. 0.723200    15. 0.007968  || 0.731168 
******** 16. 0.720629    17. 0.000857  || 0.721486 
******** 18. 0.716637    19. 0.008020  || 0.724656 
******** 20. 0.716687    21. 0.008029  || 0.724716 
******** 22. 0.710021    23. 0.004237  || 0.714257 
  RANGE: 0.55  -  0.75
******** 24. 0.618920    25. 0.016865  || 0.635784 
******** 26. 0.619971    27. 0.012200  || 0.632171 
******** 28. 0.620874    29. 0.010826  || 0.631700 
******** 30. 0.625600    31. 0.002425  || 0.628025 
******** 32. 0.629264    33. 0.006895  || 0.636159 
******** 34. 0.624577    35. 0.002952  || 0.627529 

Voltage channels:
  RANGE: 3.65  -  3.85
ELMB Channel 36:   3.719 V   [V AN_POS dtmroc 1]
ELMB Channel 37:   3.755 V   [V AN_POS dtmroc 2]
ELMB Channel 38:   3.727 V   [V AN_POS dtmroc 3]
ELMB Channel 39:   3.725 V   [V AN_POS dtmroc 4]
ELMB Channel 40:   3.778 V   [V AN_POS dtmroc 5]
ELMB Channel 41:   3.758 V   [V AN_POS dtmroc 5]
ELMB Channel 42:   3.757 V   [V AN_POS dtmroc 6]
ELMB Channel 43:   3.751 V   [V AN_POS dtmroc 6]
  RANGE: 3.50  -  3.70
ELMB Channel 44:   -3.517 V   [V AN_NEG dtmroc 1]
ELMB Channel 45:   -3.568 V   [V AN_NEG dtmroc 2]
ELMB Channel 46:   -3.545 V   [V AN_NEG dtmroc 3]
ELMB Channel 47:   -3.530 V   [V AN_NEG dtmroc 4]
ELMB Channel 48:   -3.554 V   [V AN_NEG dtmroc 5]
ELMB Channel 49:   -3.532 V   [V AN_NEG dtmroc 5]
ELMB Channel 50:   -3.506 V   [V AN_NEG dtmroc 6]
ELMB Channel 51:   -3.516 V   [V AN_NEG dtmroc 6]
  RANGE: 3.10  -  3.30
ELMB Channel 52:   3.193 V   [V DIGI dtmroc 9]
ELMB Channel 53:   3.196 V   [V DIGI dtmroc 10]
ELMB Channel 54:   3.184 V   [V DIGI dtmroc 11]
ELMB Channel 55:   3.157 V   [V DIGI dtmroc 12]
ELMB Channel 56:   3.162 V   [V DIGI dtmroc 13]
ELMB Channel 57:   3.150 V   [V DIGI dtmroc 13]
ELMB Channel 58:   3.168 V   [V DIGI dtmroc 14]
ELMB Channel 59:   3.157 V   [V DIGI dtmroc 14]

Temperature channels:
Channel 60, temperature 34.80
Channel 61, temperature 34.59
Channel 62, temperature 34.43
Channel 63, temperature 33.10

Set all regulators ON

Current channels
  RANGE: 0.65  -  0.85
******** 0. 0.003000    1. 0.755085  || 0.758085 
******** 2. 0.001375    3. 0.756800  || 0.758175 
******** 4. 0.003971    5. 0.741507  || 0.745478 
******** 6. 0.005326    7. 0.751576  || 0.756902 
******** 8. 0.003329    9. 0.755943  || 0.759272 
******** 10. 0.005919    11. 0.756259  || 0.762178 
  RANGE: 0.65  -  0.85
******** 12. 0.010823    13. 0.732580  || 0.743402 
******** 14. 0.000000    15. 0.741179  || 0.741179 
******** 16. 0.006530    17. 0.719340  || 0.725870 
******** 18. 0.002000    19. 0.737518  || 0.739518 
******** 20. 0.003335    21. 0.737595  || 0.740930 
******** 22. 0.005454    23. 0.728624  || 0.734077 
  RANGE: 0.55  -  0.75
******** 24. 0.009584    25. 0.624053  || 0.633637 
******** 26. 0.008530    27. 0.613400  || 0.621930 
******** 28. 0.007782    29. 0.614818  || 0.622600 
******** 30. 0.003000    31. 0.623189  || 0.626189 
******** 32. 0.005526    33. 0.624712  || 0.630238 
******** 34. 0.004000    35. 0.622690  || 0.626690 

Voltage channels:
  RANGE: 3.65  -  3.85
ELMB Channel 36:   3.722 V   [V AN_POS dtmroc 1]
ELMB Channel 37:   3.738 V   [V AN_POS dtmroc 2]
ELMB Channel 38:   3.730 V   [V AN_POS dtmroc 3]
ELMB Channel 39:   3.707 V   [V AN_POS dtmroc 4]
ELMB Channel 40:   3.732 V   [V AN_POS dtmroc 5]
ELMB Channel 41:   3.725 V   [V AN_POS dtmroc 5]
ELMB Channel 42:   3.743 V   [V AN_POS dtmroc 6]
ELMB Channel 43:   3.747 V   [V AN_POS dtmroc 6]
  RANGE: 3.50  -  3.70
ELMB Channel 44:   -3.526 V   [V AN_NEG dtmroc 1]
ELMB Channel 45:   -3.625 V   [V AN_NEG dtmroc 2]
ELMB Channel 46:   -3.544 V   [V AN_NEG dtmroc 3]
ELMB Channel 47:   -3.580 V   [V AN_NEG dtmroc 4]
ELMB Channel 48:   -3.603 V   [V AN_NEG dtmroc 5]
ELMB Channel 49:   -3.599 V   [V AN_NEG dtmroc 5]
ELMB Channel 50:   -3.610 V   [V AN_NEG dtmroc 6]
ELMB Channel 51:   -3.631 V   [V AN_NEG dtmroc 6]
  RANGE: 3.10  -  3.30
ELMB Channel 52:   3.228 V   [V DIGI dtmroc 9]
ELMB Channel 53:   3.159 V   [V DIGI dtmroc 10]
ELMB Channel 54:   3.171 V   [V DIGI dtmroc 11]
ELMB Channel 55:   3.152 V   [V DIGI dtmroc 12]
ELMB Channel 56:   3.158 V   [V DIGI dtmroc 13]
ELMB Channel 57:   3.159 V   [V DIGI dtmroc 13]
ELMB Channel 58:   3.148 V   [V DIGI dtmroc 14]
ELMB Channel 59:   3.148 V   [V DIGI dtmroc 14]

Temperature channels:
Channel 60, temperature 34.83
Channel 61, temperature 34.74
Channel 62, temperature 34.55
Channel 63, temperature 33.22

Set all regulators ON

 ======================  TEST LOOP for 20 loops =============================

 Loop: 1
DAC Settings:

Analog Positive 
                     DAC I1       DAC I2     Delta (DAC I1 - DAC I2)

Supply Channel 1:  128 [80]    129 [81]              -1
Supply Channel 2:  128 [80]    127 [7F]              1
Supply Channel 3:  128 [80]    129 [81]              -1
Supply Channel 4:  128 [80]    127 [7F]              1
Supply Channel 5:  128 [80]    127 [7F]              1
Supply Channel 6:  128 [80]    127 [7F]              1

Analog Negative 
                     DAC I1       DAC I2     Delta (DAC I1 - DAC I2)

Supply Channel 1:   128 [80]     127 [7F]             1
Supply Channel 2:   128 [80]     127 [7F]             1
Supply Channel 3:   128 [80]     127 [7F]             1
Supply Channel 4:   128 [80]     127 [7F]             1
Supply Channel 5:   128 [80]     127 [7F]             1
Supply Channel 6:   128 [80]     127 [7F]             1

Digital 
                     DAC I1       DAC I2     Delta (DAC I1 - DAC I2)

Supply Channel 1:   128 [80]     129 [81]             -1
Supply Channel 2:   128 [80]     127 [7F]             1
Supply Channel 3:   128 [80]     127 [7F]             1
Supply Channel 4:   128 [80]     129 [81]             -1
Supply Channel 5:   128 [80]     129 [81]             -1
Supply Channel 6:   128 [80]     127 [7F]             1

Current channels
  RANGE: 0.65  -  0.85
******** 0. 0.253300    1. 0.498773  || 0.752073 
******** 2. 0.535682    3. 0.222700  || 0.758382 
******** 4. 0.215713    5. 0.521782  || 0.737495 
******** 6. 0.501251    7. 0.251063  || 0.752314 
******** 8. 0.759363    9. 0.002053  || 0.761416 
******** 10. 0.494440    11. 0.261818  || 0.756257 
  RANGE: 0.65  -  0.85
******** 12. 0.212244    13. 0.534276  || 0.746520 
******** 14. 0.003000    15. 0.741150  || 0.744150 
******** 16. 0.330011    17. 0.398877  || 0.728889 
******** 18. 0.002008    19. 0.737514  || 0.739523 
******** 20. 0.003334    21. 0.740696  || 0.744030 
******** 22. 0.005451    23. 0.728621  || 0.734073 
  RANGE: 0.55  -  0.75
******** 24. 0.009594    25. 0.620941  || 0.630535 
******** 26. 0.619967    27. 0.012200  || 0.632167 
******** 28. 0.321755    29. 0.285155  || 0.606909 
******** 30. 0.350900    31. 0.269162  || 0.620062 
******** 32. 0.339346    33. 0.279913  || 0.619259 
******** 34. 0.487259    35. 0.134324  || 0.621583 

Voltage channels:
  RANGE: 3.65  -  3.85
ELMB Channel 36:   3.727 V   [V AN_POS dtmroc 1]
ELMB Channel 37:   3.759 V   [V AN_POS dtmroc 2]
ELMB Channel 38:   3.736 V   [V AN_POS dtmroc 3]
ELMB Channel 39:   3.729 V   [V AN_POS dtmroc 4]
ELMB Channel 40:   3.778 V   [V AN_POS dtmroc 5]
ELMB Channel 41:   3.758 V   [V AN_POS dtmroc 5]
ELMB Channel 42:   3.761 V   [V AN_POS dtmroc 6]
ELMB Channel 43:   3.760 V   [V AN_POS dtmroc 6]
  RANGE: 3.50  -  3.70
ELMB Channel 44:   -3.530 V   [V AN_NEG dtmroc 1]
ELMB Channel 45:   -3.623 V   [V AN_NEG dtmroc 2]
ELMB Channel 46:   -3.555 V   [V AN_NEG dtmroc 3]
ELMB Channel 47:   -3.579 V   [V AN_NEG dtmroc 4]
ELMB Channel 48:   -3.604 V   [V AN_NEG dtmroc 5]
ELMB Channel 49:   -3.599 V   [V AN_NEG dtmroc 5]
ELMB Channel 50:   -3.610 V   [V AN_NEG dtmroc 6]
ELMB Channel 51:   -3.630 V   [V AN_NEG dtmroc 6]
  RANGE: 3.10  -  3.30
ELMB Channel 52:   3.224 V   [V DIGI dtmroc 9]
ELMB Channel 53:   3.197 V   [V DIGI dtmroc 10]
ELMB Channel 54:   3.190 V   [V DIGI dtmroc 11]
ELMB Channel 55:   3.162 V   [V DIGI dtmroc 12]
ELMB Channel 56:   3.168 V   [V DIGI dtmroc 13]
ELMB Channel 57:   3.161 V   [V DIGI dtmroc 13]
ELMB Channel 58:   3.171 V   [V DIGI dtmroc 14]
ELMB Channel 59:   3.162 V   [V DIGI dtmroc 14]

Temperature channels:
Channel 60, temperature 35.61
Channel 61, temperature 36.40
Channel 62, temperature 35.83
Channel 63, temperature 34.56

 Loop: 2
DAC Settings:

Analog Positive 
                     DAC I1       DAC I2     Delta (DAC I1 - DAC I2)

Supply Channel 1:  128 [80]    130 [82]              -2
Supply Channel 2:  128 [80]    126 [7E]              2
Supply Channel 3:  128 [80]    130 [82]              -2
Supply Channel 4:  128 [80]    126 [7E]              2
Supply Channel 5:  128 [80]    126 [7E]              2
Supply Channel 6:  128 [80]    126 [7E]              2

Analog Negative 
                     DAC I1       DAC I2     Delta (DAC I1 - DAC I2)

Supply Channel 1:   128 [80]     126 [7E]             2
Supply Channel 2:   128 [80]     126 [7E]             2
Supply Channel 3:   128 [80]     126 [7E]             2
Supply Channel 4:   128 [80]     126 [7E]             2
Supply Channel 5:   128 [80]     126 [7E]             2
Supply Channel 6:   128 [80]     126 [7E]             2

Digital 
                     DAC I1       DAC I2     Delta (DAC I1 - DAC I2)

Supply Channel 1:   128 [80]     130 [82]             -2
Supply Channel 2:   128 [80]     126 [7E]             2
Supply Channel 3:   128 [80]     126 [7E]             2
Supply Channel 4:   128 [80]     128 [80]             0
Supply Channel 5:   128 [80]     128 [80]             0
Supply Channel 6:   128 [80]     126 [7E]             2

Current channels
  RANGE: 0.65  -  0.85
******** 0. 0.305100    1. 0.449874  || 0.754974 
******** 2. 0.477680    3. 0.280700  || 0.758380 
******** 4. 0.267615    5. 0.469885  || 0.737499 
******** 6. 0.455555    7. 0.296762  || 0.752317 
******** 8. 0.759359    9. 0.002052  || 0.761411 
******** 10. 0.439426    11. 0.319813  || 0.759239 
  RANGE: 0.65  -  0.85
******** 12. 0.273245    13. 0.473176  || 0.746421 
******** 14. 0.000000    15. 0.741122  || 0.741122 
******** 16. 0.384911    17. 0.340878  || 0.725789 
******** 18. 0.000980    19. 0.737509  || 0.738489 
******** 20. 0.003335    21. 0.737595  || 0.740930 
******** 22. 0.002449    23. 0.728619  || 0.731068 
  RANGE: 0.55  -  0.75
******** 24. 0.009605    25. 0.620927  || 0.630532 
******** 26. 0.619966    27. 0.012200  || 0.632166 
******** 28. 0.245449    29. 0.364449  || 0.609898 
******** 30. 0.268500    31. 0.351555  || 0.620055 
******** 32. 0.266042    33. 0.359215  || 0.625257 
******** 34. 0.407848    35. 0.216710  || 0.624558 

Voltage channels:
  RANGE: 3.65  -  3.85
ELMB Channel 36:   3.727 V   [V AN_POS dtmroc 1]
ELMB Channel 37:   3.760 V   [V AN_POS dtmroc 2]
ELMB Channel 38:   3.735 V   [V AN_POS dtmroc 3]
ELMB Channel 39:   3.730 V   [V AN_POS dtmroc 4]
ELMB Channel 40:   3.779 V   [V AN_POS dtmroc 5]
ELMB Channel 41:   3.759 V   [V AN_POS dtmroc 5]
ELMB Channel 42:   3.762 V   [V AN_POS dtmroc 6]
ELMB Channel 43:   3.761 V   [V AN_POS dtmroc 6]
  RANGE: 3.50  -  3.70
ELMB Channel 44:   -3.530 V   [V AN_NEG dtmroc 1]
ELMB Channel 45:   -3.621 V   [V AN_NEG dtmroc 2]
ELMB Channel 46:   -3.556 V   [V AN_NEG dtmroc 3]
ELMB Channel 47:   -3.577 V   [V AN_NEG dtmroc 4]
ELMB Channel 48:   -3.603 V   [V AN_NEG dtmroc 5]
ELMB Channel 49:   -3.599 V   [V AN_NEG dtmroc 5]
ELMB Channel 50:   -3.609 V   [V AN_NEG dtmroc 6]
ELMB Channel 51:   -3.630 V   [V AN_NEG dtmroc 6]
  RANGE: 3.10  -  3.30
ELMB Channel 52:   3.220 V   [V DIGI dtmroc 9]
ELMB Channel 53:   3.198 V   [V DIGI dtmroc 10]
ELMB Channel 54:   3.192 V   [V DIGI dtmroc 11]
ELMB Channel 55:   3.165 V   [V DIGI dtmroc 12]
ELMB Channel 56:   3.170 V   [V DIGI dtmroc 13]
ELMB Channel 57:   3.164 V   [V DIGI dtmroc 13]
ELMB Channel 58:   3.172 V   [V DIGI dtmroc 14]
ELMB Channel 59:   3.165 V   [V DIGI dtmroc 14]

Temperature channels:
Channel 60, temperature 36.53
Channel 61, temperature 37.88
Channel 62, temperature 36.90
Channel 63, temperature 35.98

 Loop: 3
DAC Settings:

Analog Positive 
                     DAC I1       DAC I2     Delta (DAC I1 - DAC I2)

Supply Channel 1:  128 [80]    131 [83]              -3
Supply Channel 2:  128 [80]    125 [7D]              3
Supply Channel 3:  128 [80]    131 [83]              -3
Supply Channel 4:  128 [80]    125 [7D]              3
Supply Channel 5:  128 [80]    125 [7D]              3
Supply Channel 6:  128 [80]    125 [7D]              3

Analog Negative 
                     DAC I1       DAC I2     Delta (DAC I1 - DAC I2)

Supply Channel 1:   128 [80]     125 [7D]             3
Supply Channel 2:   128 [80]     125 [7D]             3
Supply Channel 3:   128 [80]     127 [7F]             1
Supply Channel 4:   128 [80]     125 [7D]             3
Supply Channel 5:   128 [80]     125 [7D]             3
Supply Channel 6:   128 [80]     125 [7D]             3

Digital 
                     DAC I1       DAC I2     Delta (DAC I1 - DAC I2)

Supply Channel 1:   128 [80]     131 [83]             -3
Supply Channel 2:   128 [80]     125 [7D]             3
Supply Channel 3:   128 [80]     127 [7F]             1
Supply Channel 4:   128 [80]     129 [81]             -1
Supply Channel 5:   128 [80]     129 [81]             -1
Supply Channel 6:   128 [80]     125 [7D]             3

Current channels
  RANGE: 0.65  -  0.85
******** 0. 0.357000    1. 0.401076  || 0.758076 
******** 2. 0.425778    3. 0.335700  || 0.761478 
******** 4. 0.316415    5. 0.421086  || 0.737502 
******** 6. 0.412759    7. 0.342561  || 0.755320 
******** 8. 0.759356    9. 0.002052  || 0.761408 
******** 10. 0.381421    11. 0.371705  || 0.753126 
  RANGE: 0.65  -  0.85
******** 12. 0.334245    13. 0.412176  || 0.746421 
******** 14. 0.003000    15. 0.741098  || 0.744098 
******** 16. 0.326906    17. 0.398888  || 0.725794 
******** 18. 0.000971    19. 0.737505  || 0.738476 
******** 20. 0.003336    21. 0.737588  || 0.740924 
******** 22. 0.005445    23. 0.728614  || 0.734059 
  RANGE: 0.55  -  0.75
******** 24. 0.012615    25. 0.620915  || 0.633530 
******** 26. 0.619965    27. 0.012200  || 0.632165 
******** 28. 0.324855    29. 0.282055  || 0.606909 
******** 30. 0.344800    31. 0.275259  || 0.620059 
******** 32. 0.345444    33. 0.279913  || 0.625358 
******** 34. 0.322440    35. 0.305190  || 0.627630 

Voltage channels:
  RANGE: 3.65  -  3.85
ELMB Channel 36:   3.726 V   [V AN_POS dtmroc 1]
ELMB Channel 37:   3.761 V   [V AN_POS dtmroc 2]
ELMB Channel 38:   3.735 V   [V AN_POS dtmroc 3]
ELMB Channel 39:   3.731 V   [V AN_POS dtmroc 4]
ELMB Channel 40:   3.779 V   [V AN_POS dtmroc 5]
ELMB Channel 41:   3.759 V   [V AN_POS dtmroc 5]
ELMB Channel 42:   3.763 V   [V AN_POS dtmroc 6]
ELMB Channel 43:   3.763 V   [V AN_POS dtmroc 6]
  RANGE: 3.50  -  3.70
ELMB Channel 44:   -3.530 V   [V AN_NEG dtmroc 1]
ELMB Channel 45:   -3.620 V   [V AN_NEG dtmroc 2]
ELMB Channel 46:   -3.559 V   [V AN_NEG dtmroc 3]
ELMB Channel 47:   -3.576 V   [V AN_NEG dtmroc 4]
ELMB Channel 48:   -3.602 V   [V AN_NEG dtmroc 5]
ELMB Channel 49:   -3.597 V   [V AN_NEG dtmroc 5]
ELMB Channel 50:   -3.608 V   [V AN_NEG dtmroc 6]
ELMB Channel 51:   -3.629 V   [V AN_NEG dtmroc 6]
  RANGE: 3.10  -  3.30
ELMB Channel 52:   3.217 V   [V DIGI dtmroc 9]
ELMB Channel 53:   3.198 V   [V DIGI dtmroc 10]
ELMB Channel 54:   3.190 V   [V DIGI dtmroc 11]
ELMB Channel 55:   3.163 V   [V DIGI dtmroc 12]
ELMB Channel 56:   3.169 V   [V DIGI dtmroc 13]
ELMB Channel 57:   3.162 V   [V DIGI dtmroc 13]
ELMB Channel 58:   3.174 V   [V DIGI dtmroc 14]
ELMB Channel 59:   3.169 V   [V DIGI dtmroc 14]

Temperature channels:
Channel 60, temperature 37.48
Channel 61, temperature 39.15
Channel 62, temperature 37.78
Channel 63, temperature 37.22

 Loop: 4
DAC Settings:

Analog Positive 
                     DAC I1       DAC I2     Delta (DAC I1 - DAC I2)

Supply Channel 1:  128 [80]    132 [84]              -4
Supply Channel 2:  128 [80]    124 [7C]              4
Supply Channel 3:  128 [80]    132 [84]              -4
Supply Channel 4:  128 [80]    124 [7C]              4
Supply Channel 5:  128 [80]    124 [7C]              4
Supply Channel 6:  128 [80]    124 [7C]              4

Analog Negative 
                     DAC I1       DAC I2     Delta (DAC I1 - DAC I2)

Supply Channel 1:   128 [80]     124 [7C]             4
Supply Channel 2:   128 [80]     124 [7C]             4
Supply Channel 3:   128 [80]     126 [7E]             2
Supply Channel 4:   128 [80]     124 [7C]             4
Supply Channel 5:   128 [80]     124 [7C]             4
Supply Channel 6:   128 [80]     124 [7C]             4

Digital 
                     DAC I1       DAC I2     Delta (DAC I1 - DAC I2)

Supply Channel 1:   128 [80]     132 [84]             -4
Supply Channel 2:   128 [80]     124 [7C]             4
Supply Channel 3:   128 [80]     126 [7E]             2
Supply Channel 4:   128 [80]     128 [80]             0
Supply Channel 5:   128 [80]     128 [80]             0
Supply Channel 6:   128 [80]     124 [7C]             4

Current channels
  RANGE: 0.65  -  0.85
******** 0. 0.408900    1. 0.349178  || 0.758078 
******** 2. 0.370876    3. 0.390600  || 0.761476 
******** 4. 0.365216    5. 0.375288  || 0.740504 
******** 6. 0.367061    7. 0.388361  || 0.755422 
******** 8. 0.762354    9. 0.002050  || 0.764404 
******** 10. 0.329610    11. 0.429699  || 0.759309 
  RANGE: 0.65  -  0.85
******** 12. 0.401447    13. 0.351176  || 0.752622 
******** 14. 0.003000    15. 0.741069  || 0.744069 
******** 16. 0.384905    17. 0.340889  || 0.725795 
******** 18. 0.000959    19. 0.737500  || 0.738459 
******** 20. 0.003338    21. 0.740686  || 0.744024 
******** 22. 0.005441    23. 0.728609  || 0.734050 
  RANGE: 0.55  -  0.75
******** 24. 0.009627    25. 0.620901  || 0.630527 
******** 26. 0.577261    27. 0.036600  || 0.613861 
******** 28. 0.245448    29. 0.364448  || 0.609895 
******** 30. 0.265500    31. 0.354555  || 0.620055 
******** 32. 0.269142    33. 0.356216  || 0.625357 
******** 34. 0.240026    35. 0.387576  || 0.627602 

Voltage channels:
  RANGE: 3.65  -  3.85
ELMB Channel 36:   3.725 V   [V AN_POS dtmroc 1]
ELMB Channel 37:   3.762 V   [V AN_POS dtmroc 2]
ELMB Channel 38:   3.735 V   [V AN_POS dtmroc 3]
ELMB Channel 39:   3.732 V   [V AN_POS dtmroc 4]
ELMB Channel 40:   3.780 V   [V AN_POS dtmroc 5]
ELMB Channel 41:   3.759 V   [V AN_POS dtmroc 5]
ELMB Channel 42:   3.764 V   [V AN_POS dtmroc 6]
ELMB Channel 43:   3.765 V   [V AN_POS dtmroc 6]
  RANGE: 3.50  -  3.70
ELMB Channel 44:   -3.531 V   [V AN_NEG dtmroc 1]
ELMB Channel 45:   -3.618 V   [V AN_NEG dtmroc 2]
ELMB Channel 46:   -3.559 V   [V AN_NEG dtmroc 3]
ELMB Channel 47:   -3.575 V   [V AN_NEG dtmroc 4]
ELMB Channel 48:   -3.601 V   [V AN_NEG dtmroc 5]
ELMB Channel 49:   -3.596 V   [V AN_NEG dtmroc 5]
ELMB Channel 50:   -3.606 V   [V AN_NEG dtmroc 6]
ELMB Channel 51:   -3.627 V   [V AN_NEG dtmroc 6]
  RANGE: 3.10  -  3.30
ELMB Channel 52:   3.212 V   [V DIGI dtmroc 9]
ELMB Channel 53:   3.200 V   [V DIGI dtmroc 10]
ELMB Channel 54:   3.192 V   [V DIGI dtmroc 11]
ELMB Channel 55:   3.165 V   [V DIGI dtmroc 12]
ELMB Channel 56:   3.170 V   [V DIGI dtmroc 13]
ELMB Channel 57:   3.165 V   [V DIGI dtmroc 13]
ELMB Channel 58:   3.176 V   [V DIGI dtmroc 14]
ELMB Channel 59:   3.172 V   [V DIGI dtmroc 14]

Temperature channels:
Channel 60, temperature 38.37
Channel 61, temperature 40.28
Channel 62, temperature 38.53
Channel 63, temperature 38.31

 Loop: 5
DAC Settings:

Analog Positive 
                     DAC I1       DAC I2     Delta (DAC I1 - DAC I2)

Supply Channel 1:  128 [80]    131 [83]              -3
Supply Channel 2:  128 [80]    125 [7D]              3
Supply Channel 3:  128 [80]    133 [85]              -5
Supply Channel 4:  128 [80]    125 [7D]              3
Supply Channel 5:  128 [80]    123 [7B]              5
Supply Channel 6:  128 [80]    125 [7D]              3

Analog Negative 
                     DAC I1       DAC I2     Delta (DAC I1 - DAC I2)

Supply Channel 1:   128 [80]     125 [7D]             3
Supply Channel 2:   128 [80]     123 [7B]             5
Supply Channel 3:   128 [80]     127 [7F]             1
Supply Channel 4:   128 [80]     123 [7B]             5
Supply Channel 5:   128 [80]     123 [7B]             5
Supply Channel 6:   128 [80]     123 [7B]             5

Digital 
                     DAC I1       DAC I2     Delta (DAC I1 - DAC I2)

Supply Channel 1:   128 [80]     133 [85]             -5
Supply Channel 2:   128 [80]     123 [7B]             5
Supply Channel 3:   128 [80]     127 [7F]             1
Supply Channel 4:   128 [80]     129 [81]             -1
Supply Channel 5:   128 [80]     129 [81]             -1
Supply Channel 6:   128 [80]     125 [7D]             3

Current channels
  RANGE: 0.65  -  0.85
******** 0. 0.354000    1. 0.401075  || 0.755075 
******** 2. 0.416677    3. 0.341800  || 0.758477 
******** 4. 0.417118    5. 0.326490  || 0.743609 
******** 6. 0.412761    7. 0.342561  || 0.755322 
******** 8. 0.762350    9. 0.002049  || 0.764399 
******** 10. 0.381421    11. 0.374705  || 0.756126 
  RANGE: 0.65  -  0.85
******** 12. 0.337357    13. 0.412174  || 0.749530 
******** 14. 0.003000    15. 0.741040  || 0.744040 
******** 16. 0.330002    17. 0.401997  || 0.731998 
******** 18. 0.000944    19. 0.737493  || 0.738437 
******** 20. 0.003340    21. 0.737580  || 0.740921 
******** 22. 0.002435    23. 0.728602  || 0.731038 
  RANGE: 0.55  -  0.75
******** 24. 0.009638    25. 0.617887  || 0.627525 
******** 26. 0.491856    27. 0.122000  || 0.613856 
******** 28. 0.327850    29. 0.282050  || 0.609900 
******** 30. 0.341800    31. 0.278256  || 0.620056 
******** 32. 0.345444    33. 0.276814  || 0.622258 
******** 34. 0.319332    35. 0.305193  || 0.624525 

Voltage channels:
  RANGE: 3.65  -  3.85
ELMB Channel 36:   3.726 V   [V AN_POS dtmroc 1]
ELMB Channel 37:   3.762 V   [V AN_POS dtmroc 2]
ELMB Channel 38:   3.734 V   [V AN_POS dtmroc 3]
ELMB Channel 39:   3.732 V   [V AN_POS dtmroc 4]
ELMB Channel 40:   3.780 V   [V AN_POS dtmroc 5]
ELMB Channel 41:   3.760 V   [V AN_POS dtmroc 5]
ELMB Channel 42:   3.763 V   [V AN_POS dtmroc 6]
ELMB Channel 43:   3.763 V   [V AN_POS dtmroc 6]
  RANGE: 3.50  -  3.70
ELMB Channel 44:   -3.533 V   [V AN_NEG dtmroc 1]
ELMB Channel 45:   -3.616 V   [V AN_NEG dtmroc 2]
ELMB Channel 46:   -3.561 V   [V AN_NEG dtmroc 3]
ELMB Channel 47:   -3.573 V   [V AN_NEG dtmroc 4]
ELMB Channel 48:   -3.600 V   [V AN_NEG dtmroc 5]
ELMB Channel 49:   -3.595 V   [V AN_NEG dtmroc 5]
ELMB Channel 50:   -3.605 V   [V AN_NEG dtmroc 6]
ELMB Channel 51:   -3.626 V   [V AN_NEG dtmroc 6]
  RANGE: 3.10  -  3.30
ELMB Channel 52:   3.208 V   [V DIGI dtmroc 9]
ELMB Channel 53:   3.202 V   [V DIGI dtmroc 10]
ELMB Channel 54:   3.191 V   [V DIGI dtmroc 11]
ELMB Channel 55:   3.164 V   [V DIGI dtmroc 12]
ELMB Channel 56:   3.169 V   [V DIGI dtmroc 13]
ELMB Channel 57:   3.162 V   [V DIGI dtmroc 13]
ELMB Channel 58:   3.175 V   [V DIGI dtmroc 14]
ELMB Channel 59:   3.168 V   [V DIGI dtmroc 14]

Temperature channels:
Channel 60, temperature 39.17
Channel 61, temperature 41.24
Channel 62, temperature 39.24
Channel 63, temperature 39.25

 Loop: 6
DAC Settings:

Analog Positive 
                     DAC I1       DAC I2     Delta (DAC I1 - DAC I2)

Supply Channel 1:  128 [80]    132 [84]              -4
Supply Channel 2:  128 [80]    124 [7C]              4
Supply Channel 3:  128 [80]    132 [84]              -4
Supply Channel 4:  128 [80]    124 [7C]              4
Supply Channel 5:  128 [80]    122 [7A]              6
Supply Channel 6:  128 [80]    124 [7C]              4

Analog Negative 
                     DAC I1       DAC I2     Delta (DAC I1 - DAC I2)

Supply Channel 1:   128 [80]     124 [7C]             4
Supply Channel 2:   128 [80]     122 [7A]             6
Supply Channel 3:   128 [80]     126 [7E]             2
Supply Channel 4:   128 [80]     122 [7A]             6
Supply Channel 5:   128 [80]     122 [7A]             6
Supply Channel 6:   128 [80]     122 [7A]             6

Digital 
                     DAC I1       DAC I2     Delta (DAC I1 - DAC I2)

Supply Channel 1:   128 [80]     134 [86]             -6
Supply Channel 2:   128 [80]     122 [7A]             6
Supply Channel 3:   128 [80]     126 [7E]             2
Supply Channel 4:   128 [80]     128 [80]             0
Supply Channel 5:   128 [80]     128 [80]             0
Supply Channel 6:   128 [80]     124 [7C]             4

Current channels
  RANGE: 0.65  -  0.85
******** 0. 0.402800    1. 0.349176  || 0.751976 
******** 2. 0.364775    3. 0.396700  || 0.761475 
******** 4. 0.365215    5. 0.375286  || 0.740502 
******** 6. 0.367063    7. 0.385261  || 0.752324 
******** 8. 0.762350    9. 0.002049  || 0.764399 
******** 10. 0.326510    11. 0.429699  || 0.756209 
  RANGE: 0.65  -  0.85
******** 12. 0.401455    13. 0.348074  || 0.749529 
******** 14. 0.003000    15. 0.741012  || 0.744012 
******** 16. 0.387901    17. 0.343998  || 0.731899 
******** 18. 0.000930    19. 0.740586  || 0.741516 
******** 20. 0.000344    21. 0.740673  || 0.741017 
******** 22. 0.005431    23. 0.728594  || 0.734025 
  RANGE: 0.55  -  0.75
******** 24. 0.042154    25. 0.559877  || 0.602032 
******** 26. 0.400252    27. 0.207500  || 0.607752 
******** 28. 0.245448    29. 0.364448  || 0.609895 
******** 30. 0.265500    31. 0.360654  || 0.626154 
******** 32. 0.269141    33. 0.353116  || 0.622256 
******** 34. 0.236926    35. 0.387577  || 0.624503 

Voltage channels:
  RANGE: 3.65  -  3.85
ELMB Channel 36:   3.726 V   [V AN_POS dtmroc 1]
ELMB Channel 37:   3.763 V   [V AN_POS dtmroc 2]
ELMB Channel 38:   3.735 V   [V AN_POS dtmroc 3]
ELMB Channel 39:   3.732 V   [V AN_POS dtmroc 4]
ELMB Channel 40:   3.780 V   [V AN_POS dtmroc 5]
ELMB Channel 41:   3.760 V   [V AN_POS dtmroc 5]
ELMB Channel 42:   3.764 V   [V AN_POS dtmroc 6]
ELMB Channel 43:   3.765 V   [V AN_POS dtmroc 6]
  RANGE: 3.50  -  3.70
ELMB Channel 44:   -3.532 V   [V AN_NEG dtmroc 1]
ELMB Channel 45:   -3.614 V   [V AN_NEG dtmroc 2]
ELMB Channel 46:   -3.562 V   [V AN_NEG dtmroc 3]
ELMB Channel 47:   -3.572 V   [V AN_NEG dtmroc 4]
ELMB Channel 48:   -3.598 V   [V AN_NEG dtmroc 5]
ELMB Channel 49:   -3.593 V   [V AN_NEG dtmroc 5]
ELMB Channel 50:   -3.603 V   [V AN_NEG dtmroc 6]
ELMB Channel 51:   -3.624 V   [V AN_NEG dtmroc 6]
  RANGE: 3.10  -  3.30
ELMB Channel 52:   3.205 V   [V DIGI dtmroc 9]
ELMB Channel 53:   3.203 V   [V DIGI dtmroc 10]
ELMB Channel 54:   3.192 V   [V DIGI dtmroc 11]
ELMB Channel 55:   3.165 V   [V DIGI dtmroc 12]
ELMB Channel 56:   3.170 V   [V DIGI dtmroc 13]
ELMB Channel 57:   3.165 V   [V DIGI dtmroc 13]
ELMB Channel 58:   3.176 V   [V DIGI dtmroc 14]
ELMB Channel 59:   3.171 V   [V DIGI dtmroc 14]

Temperature channels:
Channel 60, temperature 39.89
Channel 61, temperature 42.07
Channel 62, temperature 39.85
Channel 63, temperature 40.14

 Loop: 7
DAC Settings:

Analog Positive 
                     DAC I1       DAC I2     Delta (DAC I1 - DAC I2)

Supply Channel 1:  128 [80]    131 [83]              -3
Supply Channel 2:  128 [80]    125 [7D]              3
Supply Channel 3:  128 [80]    133 [85]              -5
Supply Channel 4:  128 [80]    125 [7D]              3
Supply Channel 5:  128 [80]    121 [79]              7
Supply Channel 6:  128 [80]    125 [7D]              3

Analog Negative 
                     DAC I1       DAC I2     Delta (DAC I1 - DAC I2)

Supply Channel 1:   128 [80]     125 [7D]             3
Supply Channel 2:   128 [80]     121 [79]             7
Supply Channel 3:   128 [80]     127 [7F]             1
Supply Channel 4:   128 [80]     121 [79]             7
Supply Channel 5:   128 [80]     121 [79]             7
Supply Channel 6:   128 [80]     121 [79]             7

Digital 
                     DAC I1       DAC I2     Delta (DAC I1 - DAC I2)

Supply Channel 1:   128 [80]     135 [87]             -7
Supply Channel 2:   128 [80]     121 [79]             7
Supply Channel 3:   128 [80]     127 [7F]             1
Supply Channel 4:   128 [80]     129 [81]             -1
Supply Channel 5:   128 [80]     129 [81]             -1
Supply Channel 6:   128 [80]     125 [7D]             3

Current channels
  RANGE: 0.65  -  0.85
******** 0. 0.354000    1. 0.404075  || 0.758075 
******** 2. 0.413576    3. 0.347900  || 0.761476 
******** 4. 0.417117    5. 0.326489  || 0.743606 
******** 6. 0.412761    7. 0.342561  || 0.755322 
******** 8. 0.762347    9. 0.002048  || 0.764396 
******** 10. 0.384515    11. 0.374705  || 0.759220 
  RANGE: 0.65  -  0.85
******** 12. 0.340365    13. 0.409073  || 0.749437 
******** 14. 0.003000    15. 0.740978  || 0.743978 
******** 16. 0.329998    17. 0.402004  || 0.732002 
******** 18. 0.000912    19. 0.737478  || 0.738390 
******** 20. 0.000346    21. 0.740665  || 0.741011 
******** 22. 0.002421    23. 0.728586  || 0.731008 
  RANGE: 0.55  -  0.75
******** 24. 0.136752    25. 0.471374  || 0.608126 
******** 26. 0.314747    27. 0.299000  || 0.613747 
******** 28. 0.327850    29. 0.282050  || 0.609900 
******** 30. 0.341800    31. 0.281356  || 0.623156 
******** 32. 0.348444    33. 0.273814  || 0.622258 
******** 34. 0.316332    35. 0.308189  || 0.624521 

Voltage channels:
  RANGE: 3.65  -  3.85
ELMB Channel 36:   3.726 V   [V AN_POS dtmroc 1]
ELMB Channel 37:   3.762 V   [V AN_POS dtmroc 2]
ELMB Channel 38:   3.734 V   [V AN_POS dtmroc 3]
ELMB Channel 39:   3.732 V   [V AN_POS dtmroc 4]
ELMB Channel 40:   3.781 V   [V AN_POS dtmroc 5]
ELMB Channel 41:   3.760 V   [V AN_POS dtmroc 5]
ELMB Channel 42:   3.764 V   [V AN_POS dtmroc 6]
ELMB Channel 43:   3.763 V   [V AN_POS dtmroc 6]
  RANGE: 3.50  -  3.70
ELMB Channel 44:   -3.534 V   [V AN_NEG dtmroc 1]
ELMB Channel 45:   -3.611 V   [V AN_NEG dtmroc 2]
ELMB Channel 46:   -3.564 V   [V AN_NEG dtmroc 3]
ELMB Channel 47:   -3.570 V   [V AN_NEG dtmroc 4]
ELMB Channel 48:   -3.596 V   [V AN_NEG dtmroc 5]
ELMB Channel 49:   -3.591 V   [V AN_NEG dtmroc 5]
ELMB Channel 50:   -3.600 V   [V AN_NEG dtmroc 6]
ELMB Channel 51:   -3.622 V   [V AN_NEG dtmroc 6]
  RANGE: 3.10  -  3.30
ELMB Channel 52:   3.204 V   [V DIGI dtmroc 9]
ELMB Channel 53:   3.205 V   [V DIGI dtmroc 10]
ELMB Channel 54:   3.191 V   [V DIGI dtmroc 11]
ELMB Channel 55:   3.164 V   [V DIGI dtmroc 12]
ELMB Channel 56:   3.169 V   [V DIGI dtmroc 13]
ELMB Channel 57:   3.162 V   [V DIGI dtmroc 13]
ELMB Channel 58:   3.175 V   [V DIGI dtmroc 14]
ELMB Channel 59:   3.169 V   [V DIGI dtmroc 14]

Temperature channels:
Channel 60, temperature 40.58
Channel 61, temperature 42.83
Channel 62, temperature 40.46
Channel 63, temperature 40.92

 Loop: 8
DAC Settings:

Analog Positive 
                     DAC I1       DAC I2     Delta (DAC I1 - DAC I2)

Supply Channel 1:  128 [80]    132 [84]              -4
Supply Channel 2:  128 [80]    124 [7C]              4
Supply Channel 3:  128 [80]    132 [84]              -4
Supply Channel 4:  128 [80]    124 [7C]              4
Supply Channel 5:  128 [80]    120 [78]              8
Supply Channel 6:  128 [80]    124 [7C]              4

Analog Negative 
                     DAC I1       DAC I2     Delta (DAC I1 - DAC I2)

Supply Channel 1:   128 [80]     124 [7C]             4
Supply Channel 2:   128 [80]     120 [78]             8
Supply Channel 3:   128 [80]     126 [7E]             2
Supply Channel 4:   128 [80]     120 [78]             8
Supply Channel 5:   128 [80]     120 [78]             8
Supply Channel 6:   128 [80]     120 [78]             8

Digital 
                     DAC I1       DAC I2     Delta (DAC I1 - DAC I2)

Supply Channel 1:   128 [80]     136 [88]             -8
Supply Channel 2:   128 [80]     120 [78]             8
Supply Channel 3:   128 [80]     126 [7E]             2
Supply Channel 4:   128 [80]     128 [80]             0
Supply Channel 5:   128 [80]     128 [80]             0
Supply Channel 6:   128 [80]     124 [7C]             4

Current channels
  RANGE: 0.65  -  0.85
******** 0. 0.402800    1. 0.352276  || 0.755076 
******** 2. 0.361674    3. 0.399700  || 0.761374 
******** 4. 0.365215    5. 0.378285  || 0.743499 
******** 6. 0.370066    7. 0.385260  || 0.755326 
******** 8. 0.737943    9. 0.026446  || 0.764389 
******** 10. 0.329610    11. 0.429699  || 0.759309 
  RANGE: 0.65  -  0.85
******** 12. 0.398361    13. 0.351173  || 0.749534 
******** 14. 0.003000    15. 0.740940  || 0.743940 
******** 16. 0.387898    17. 0.344003  || 0.731902 
******** 18. 0.000894    19. 0.737470  || 0.738364 
******** 20. 0.003351    21. 0.740655  || 0.744005 
******** 22. 0.002416    23. 0.728576  || 0.730991 
  RANGE: 0.55  -  0.75
******** 24. 0.234448    25. 0.373670  || 0.608118 
******** 26. 0.229343    27. 0.384500  || 0.613843 
******** 28. 0.248545    29. 0.364445  || 0.612991 
******** 30. 0.262400    31. 0.360652  || 0.623052 
******** 32. 0.272141    33. 0.353116  || 0.625257 
******** 34. 0.236924    35. 0.390574  || 0.627498 

Voltage channels:
  RANGE: 3.65  -  3.85
ELMB Channel 36:   3.726 V   [V AN_POS dtmroc 1]
ELMB Channel 37:   3.763 V   [V AN_POS dtmroc 2]
ELMB Channel 38:   3.735 V   [V AN_POS dtmroc 3]
ELMB Channel 39:   3.733 V   [V AN_POS dtmroc 4]
ELMB Channel 40:   3.781 V   [V AN_POS dtmroc 5]
ELMB Channel 41:   3.761 V   [V AN_POS dtmroc 5]
ELMB Channel 42:   3.764 V   [V AN_POS dtmroc 6]
ELMB Channel 43:   3.765 V   [V AN_POS dtmroc 6]
  RANGE: 3.50  -  3.70
ELMB Channel 44:   -3.534 V   [V AN_NEG dtmroc 1]
ELMB Channel 45:   -3.608 V   [V AN_NEG dtmroc 2]
ELMB Channel 46:   -3.563 V   [V AN_NEG dtmroc 3]
ELMB Channel 47:   -3.568 V   [V AN_NEG dtmroc 4]
ELMB Channel 48:   -3.593 V   [V AN_NEG dtmroc 5]
ELMB Channel 49:   -3.589 V   [V AN_NEG dtmroc 5]
ELMB Channel 50:   -3.599 V   [V AN_NEG dtmroc 6]
ELMB Channel 51:   -3.619 V   [V AN_NEG dtmroc 6]
  RANGE: 3.10  -  3.30
ELMB Channel 52:   3.203 V   [V DIGI dtmroc 9]
ELMB Channel 53:   3.206 V   [V DIGI dtmroc 10]
ELMB Channel 54:   3.193 V   [V DIGI dtmroc 11]
ELMB Channel 55:   3.166 V   [V DIGI dtmroc 12]
ELMB Channel 56:   3.170 V   [V DIGI dtmroc 13]
ELMB Channel 57:   3.165 V   [V DIGI dtmroc 13]
ELMB Channel 58:   3.176 V   [V DIGI dtmroc 14]
ELMB Channel 59:   3.172 V   [V DIGI dtmroc 14]

Temperature channels:
Channel 60, temperature 41.18
Channel 61, temperature 43.48
Channel 62, temperature 40.99
Channel 63, temperature 41.55

 Loop: 9
DAC Settings:

Analog Positive 
                     DAC I1       DAC I2     Delta (DAC I1 - DAC I2)

Supply Channel 1:  128 [80]    131 [83]              -3
Supply Channel 2:  128 [80]    125 [7D]              3
Supply Channel 3:  128 [80]    133 [85]              -5
Supply Channel 4:  128 [80]    125 [7D]              3
Supply Channel 5:  128 [80]    119 [77]              9
Supply Channel 6:  128 [80]    125 [7D]              3

Analog Negative 
                     DAC I1       DAC I2     Delta (DAC I1 - DAC I2)

Supply Channel 1:   128 [80]     125 [7D]             3
Supply Channel 2:   128 [80]     119 [77]             9
Supply Channel 3:   128 [80]     127 [7F]             1
Supply Channel 4:   128 [80]     119 [77]             9
Supply Channel 5:   128 [80]     119 [77]             9
Supply Channel 6:   128 [80]     119 [77]             9

Digital 
                     DAC I1       DAC I2     Delta (DAC I1 - DAC I2)

Supply Channel 1:   128 [80]     137 [89]             -9
Supply Channel 2:   128 [80]     121 [79]             7
Supply Channel 3:   128 [80]     127 [7F]             1
Supply Channel 4:   128 [80]     129 [81]             -1
Supply Channel 5:   128 [80]     129 [81]             -1
Supply Channel 6:   128 [80]     125 [7D]             3

Current channels
  RANGE: 0.65  -  0.85
******** 0. 0.354000    1. 0.407173  || 0.761173 
******** 2. 0.413575    3. 0.350900  || 0.764475 
******** 4. 0.417116    5. 0.329488  || 0.746604 
******** 6. 0.415863    7. 0.342561  || 0.758424 
******** 8. 0.695239    9. 0.072141  || 0.767380 
******** 10. 0.381415    11. 0.374705  || 0.756120 
  RANGE: 0.65  -  0.85
******** 12. 0.337371    13. 0.412172  || 0.749542 
******** 14. 0.000000    15. 0.737802  || 0.737802 
******** 16. 0.332995    17. 0.398911  || 0.731905 
******** 18. 0.000873    19. 0.737461  || 0.738334 
******** 20. 0.003354    21. 0.737547  || 0.740900 
******** 22. 0.002408    23. 0.725467  || 0.727876 
  RANGE: 0.55  -  0.75
******** 24. 0.329043    25. 0.279064  || 0.608108 
******** 26. 0.317846    27. 0.292900  || 0.610746 
******** 28. 0.327848    29. 0.282048  || 0.609895 
******** 30. 0.338700    31. 0.287455  || 0.626155 
******** 32. 0.351542    33. 0.276814  || 0.628356 
******** 34. 0.316334    35. 0.308187  || 0.624521 

Voltage channels:
  RANGE: 3.65  -  3.85
ELMB Channel 36:   3.727 V   [V AN_POS dtmroc 1]
ELMB Channel 37:   3.763 V   [V AN_POS dtmroc 2]
ELMB Channel 38:   3.735 V   [V AN_POS dtmroc 3]
ELMB Channel 39:   3.732 V   [V AN_POS dtmroc 4]
ELMB Channel 40:   3.782 V   [V AN_POS dtmroc 5]
ELMB Channel 41:   3.763 V   [V AN_POS dtmroc 5]
ELMB Channel 42:   3.764 V   [V AN_POS dtmroc 6]
ELMB Channel 43:   3.763 V   [V AN_POS dtmroc 6]
  RANGE: 3.50  -  3.70
ELMB Channel 44:   -3.536 V   [V AN_NEG dtmroc 1]
ELMB Channel 45:   -3.606 V   [V AN_NEG dtmroc 2]
ELMB Channel 46:   -3.566 V   [V AN_NEG dtmroc 3]
ELMB Channel 47:   -3.565 V   [V AN_NEG dtmroc 4]
ELMB Channel 48:   -3.591 V   [V AN_NEG dtmroc 5]
ELMB Channel 49:   -3.587 V   [V AN_NEG dtmroc 5]
ELMB Channel 50:   -3.596 V   [V AN_NEG dtmroc 6]
ELMB Channel 51:   -3.617 V   [V AN_NEG dtmroc 6]
  RANGE: 3.10  -  3.30
ELMB Channel 52:   3.201 V   [V DIGI dtmroc 9]
ELMB Channel 53:   3.205 V   [V DIGI dtmroc 10]
ELMB Channel 54:   3.192 V   [V DIGI dtmroc 11]
ELMB Channel 55:   3.165 V   [V DIGI dtmroc 12]
ELMB Channel 56:   3.170 V   [V DIGI dtmroc 13]
ELMB Channel 57:   3.163 V   [V DIGI dtmroc 13]
ELMB Channel 58:   3.175 V   [V DIGI dtmroc 14]
ELMB Channel 59:   3.169 V   [V DIGI dtmroc 14]

Temperature channels:
Channel 60, temperature 41.74
Channel 61, temperature 44.06
Channel 62, temperature 41.45
Channel 63, temperature 42.15

 Loop: 10
DAC Settings:

Analog Positive 
                     DAC I1       DAC I2     Delta (DAC I1 - DAC I2)

Supply Channel 1:  128 [80]    132 [84]              -4
Supply Channel 2:  128 [80]    124 [7C]              4
Supply Channel 3:  128 [80]    132 [84]              -4
Supply Channel 4:  128 [80]    124 [7C]              4
Supply Channel 5:  128 [80]    118 [76]              10
Supply Channel 6:  128 [80]    124 [7C]              4

Analog Negative 
                     DAC I1       DAC I2     Delta (DAC I1 - DAC I2)

Supply Channel 1:   128 [80]     124 [7C]             4
Supply Channel 2:   128 [80]     118 [76]             10
Supply Channel 3:   128 [80]     126 [7E]             2
Supply Channel 4:   128 [80]     118 [76]             10
Supply Channel 5:   128 [80]     118 [76]             10
Supply Channel 6:   128 [80]     118 [76]             10

Digital 
                     DAC I1       DAC I2     Delta (DAC I1 - DAC I2)

Supply Channel 1:   128 [80]     136 [88]             -8
Supply Channel 2:   128 [80]     120 [78]             8
Supply Channel 3:   128 [80]     126 [7E]             2
Supply Channel 4:   128 [80]     128 [80]             0
Supply Channel 5:   128 [80]     128 [80]             0
Supply Channel 6:   128 [80]     124 [7C]             4

Current channels
  RANGE: 0.65  -  0.85
******** 0. 0.402800    1. 0.355275  || 0.758075 
******** 2. 0.361674    3. 0.402800  || 0.764474 
******** 4. 0.368313    5. 0.378282  || 0.746595 
******** 6. 0.370066    7. 0.388360  || 0.758426 
******** 8. 0.649432    9. 0.117937  || 0.767369 
******** 10. 0.329610    11. 0.429697  || 0.759307 
  RANGE: 0.65  -  0.85
******** 12. 0.401468    13. 0.351172  || 0.752640 
******** 14. 0.003000    15. 0.740869  || 0.743869 
******** 16. 0.390996    17. 0.344009  || 0.735004 
******** 18. 0.000853    19. 0.737451  || 0.738304 
******** 20. 0.003358    21. 0.740639  || 0.743997 
******** 22. 0.002400    23. 0.728557  || 0.730957 
  RANGE: 0.55  -  0.75
******** 24. 0.234449    25. 0.373671  || 0.608120 
******** 26. 0.232341    27. 0.381400  || 0.613741 
******** 28. 0.248544    29. 0.364444  || 0.612988 
******** 30. 0.259400    31. 0.363751  || 0.623151 
******** 32. 0.275239    33. 0.353116  || 0.628355 
******** 34. 0.236922    35. 0.390573  || 0.627494 

Voltage channels:
  RANGE: 3.65  -  3.85
ELMB Channel 36:   3.726 V   [V AN_POS dtmroc 1]
ELMB Channel 37:   3.763 V   [V AN_POS dtmroc 2]
ELMB Channel 38:   3.736 V   [V AN_POS dtmroc 3]
ELMB Channel 39:   3.733 V   [V AN_POS dtmroc 4]
ELMB Channel 40:   3.783 V   [V AN_POS dtmroc 5]
ELMB Channel 41:   3.764 V   [V AN_POS dtmroc 5]
ELMB Channel 42:   3.764 V   [V AN_POS dtmroc 6]
ELMB Channel 43:   3.766 V   [V AN_POS dtmroc 6]
  RANGE: 3.50  -  3.70
ELMB Channel 44:   -3.535 V   [V AN_NEG dtmroc 1]
ELMB Channel 45:   -3.603 V   [V AN_NEG dtmroc 2]
ELMB Channel 46:   -3.565 V   [V AN_NEG dtmroc 3]
ELMB Channel 47:   -3.563 V   [V AN_NEG dtmroc 4]
ELMB Channel 48:   -3.589 V   [V AN_NEG dtmroc 5]
ELMB Channel 49:   -3.585 V   [V AN_NEG dtmroc 5]
ELMB Channel 50:   -3.594 V   [V AN_NEG dtmroc 6]
ELMB Channel 51:   -3.614 V   [V AN_NEG dtmroc 6]
  RANGE: 3.10  -  3.30
ELMB Channel 52:   3.203 V   [V DIGI dtmroc 9]
ELMB Channel 53:   3.207 V   [V DIGI dtmroc 10]
ELMB Channel 54:   3.193 V   [V DIGI dtmroc 11]
ELMB Channel 55:   3.166 V   [V DIGI dtmroc 12]
ELMB Channel 56:   3.171 V   [V DIGI dtmroc 13]
ELMB Channel 57:   3.166 V   [V DIGI dtmroc 13]
ELMB Channel 58:   3.177 V   [V DIGI dtmroc 14]
ELMB Channel 59:   3.172 V   [V DIGI dtmroc 14]

Temperature channels:
Channel 60, temperature 42.21
Channel 61, temperature 44.59
Channel 62, temperature 41.90
Channel 63, temperature 42.66

 Loop: 11
DAC Settings:

Analog Positive 
                     DAC I1       DAC I2     Delta (DAC I1 - DAC I2)

Supply Channel 1:  128 [80]    131 [83]              -3
Supply Channel 2:  128 [80]    125 [7D]              3
Supply Channel 3:  128 [80]    133 [85]              -5
Supply Channel 4:  128 [80]    125 [7D]              3
Supply Channel 5:  128 [80]    117 [75]              11
Supply Channel 6:  128 [80]    125 [7D]              3

Analog Negative 
                     DAC I1       DAC I2     Delta (DAC I1 - DAC I2)

Supply Channel 1:   128 [80]     125 [7D]             3
Supply Channel 2:   128 [80]     117 [75]             11
Supply Channel 3:   128 [80]     127 [7F]             1
Supply Channel 4:   128 [80]     117 [75]             11
Supply Channel 5:   128 [80]     117 [75]             11
Supply Channel 6:   128 [80]     117 [75]             11

Digital 
                     DAC I1       DAC I2     Delta (DAC I1 - DAC I2)

Supply Channel 1:   128 [80]     137 [89]             -9
Supply Channel 2:   128 [80]     121 [79]             7
Supply Channel 3:   128 [80]     127 [7F]             1
Supply Channel 4:   128 [80]     129 [81]             -1
Supply Channel 5:   128 [80]     129 [81]             -1
Supply Channel 6:   128 [80]     125 [7D]             3

Current channels
  RANGE: 0.65  -  0.85
******** 0. 0.350900    1. 0.404073  || 0.754973 
******** 2. 0.410574    3. 0.354000  || 0.764574 
******** 4. 0.417115    5. 0.329485  || 0.746599 
******** 6. 0.415863    7. 0.342561  || 0.758424 
******** 8. 0.600627    9. 0.166832  || 0.767460 
******** 10. 0.381415    11. 0.377804  || 0.759219 
  RANGE: 0.65  -  0.85
******** 12. 0.340377    13. 0.412170  || 0.752548 
******** 14. 0.003000    15. 0.740826  || 0.743826 
******** 16. 0.336093    17. 0.398915  || 0.735007 
******** 18. 0.011368    19. 0.725242  || 0.736610 
******** 20. 0.000360    21. 0.734528  || 0.734888 
******** 22. 0.002391    23. 0.725447  || 0.727839 
  RANGE: 0.55  -  0.75
******** 24. 0.325944    25. 0.279065  || 0.605010 
******** 26. 0.320844    27. 0.289900  || 0.610744 
******** 28. 0.327849    29. 0.285149  || 0.612998 
******** 30. 0.338700    31. 0.287454  || 0.626154 
******** 32. 0.351544    33. 0.273814  || 0.625357 
******** 34. 0.316332    35. 0.311285  || 0.627617 

Voltage channels:
  RANGE: 3.65  -  3.85
ELMB Channel 36:   3.727 V   [V AN_POS dtmroc 1]
ELMB Channel 37:   3.763 V   [V AN_POS dtmroc 2]
ELMB Channel 38:   3.735 V   [V AN_POS dtmroc 3]
ELMB Channel 39:   3.732 V   [V AN_POS dtmroc 4]
ELMB Channel 40:   3.784 V   [V AN_POS dtmroc 5]
ELMB Channel 41:   3.766 V   [V AN_POS dtmroc 5]
ELMB Channel 42:   3.764 V   [V AN_POS dtmroc 6]
ELMB Channel 43:   3.764 V   [V AN_POS dtmroc 6]
  RANGE: 3.50  -  3.70
ELMB Channel 44:   -3.537 V   [V AN_NEG dtmroc 1]
ELMB Channel 45:   -3.600 V   [V AN_NEG dtmroc 2]
ELMB Channel 46:   -3.567 V   [V AN_NEG dtmroc 3]
ELMB Channel 47:   -3.560 V   [V AN_NEG dtmroc 4]
ELMB Channel 48:   -3.587 V   [V AN_NEG dtmroc 5]
ELMB Channel 49:   -3.582 V   [V AN_NEG dtmroc 5]
ELMB Channel 50:   -3.591 V   [V AN_NEG dtmroc 6]
ELMB Channel 51:   -3.612 V   [V AN_NEG dtmroc 6]
  RANGE: 3.10  -  3.30
ELMB Channel 52:   3.202 V   [V DIGI dtmroc 9]
ELMB Channel 53:   3.206 V   [V DIGI dtmroc 10]
ELMB Channel 54:   3.192 V   [V DIGI dtmroc 11]
ELMB Channel 55:   3.165 V   [V DIGI dtmroc 12]
ELMB Channel 56:   3.169 V   [V DIGI dtmroc 13]
ELMB Channel 57:   3.163 V   [V DIGI dtmroc 13]
ELMB Channel 58:   3.175 V   [V DIGI dtmroc 14]
ELMB Channel 59:   3.170 V   [V DIGI dtmroc 14]

Temperature channels:
Channel 60, temperature 42.65
Channel 61, temperature 45.06
Channel 62, temperature 42.32
Channel 63, temperature 43.15

 Loop: 12
DAC Settings:

Analog Positive 
                     DAC I1       DAC I2     Delta (DAC I1 - DAC I2)

Supply Channel 1:  128 [80]    132 [84]              -4
Supply Channel 2:  128 [80]    124 [7C]              4
Supply Channel 3:  128 [80]    132 [84]              -4
Supply Channel 4:  128 [80]    124 [7C]              4
Supply Channel 5:  128 [80]    116 [74]              12
Supply Channel 6:  128 [80]    124 [7C]              4

Analog Negative 
                     DAC I1       DAC I2     Delta (DAC I1 - DAC I2)

Supply Channel 1:   128 [80]     124 [7C]             4
Supply Channel 2:   128 [80]     116 [74]             12
Supply Channel 3:   128 [80]     126 [7E]             2
Supply Channel 4:   128 [80]     116 [74]             12
Supply Channel 5:   128 [80]     116 [74]             12
Supply Channel 6:   128 [80]     116 [74]             12

Digital 
                     DAC I1       DAC I2     Delta (DAC I1 - DAC I2)

Supply Channel 1:   128 [80]     136 [88]             -8
Supply Channel 2:   128 [80]     120 [78]             8
Supply Channel 3:   128 [80]     126 [7E]             2
Supply Channel 4:   128 [80]     128 [80]             0
Supply Channel 5:   128 [80]     128 [80]             0
Supply Channel 6:   128 [80]     124 [7C]             4

Current channels
  RANGE: 0.65  -  0.85
******** 0. 0.399700    1. 0.355275  || 0.754975 
******** 2. 0.355572    3. 0.402800  || 0.758372 
******** 4. 0.365212    5. 0.381381  || 0.746593 
******** 6. 0.373167    7. 0.385260  || 0.758427 
******** 8. 0.557921    9. 0.212526  || 0.770447 
******** 10. 0.329604    11. 0.429698  || 0.759302 
  RANGE: 0.65  -  0.85
******** 12. 0.401476    13. 0.354171  || 0.755647 
******** 14. 0.006100    15. 0.737693  || 0.743793 
******** 16. 0.393994    17. 0.340913  || 0.734906 
******** 18. 0.057171    19. 0.679541  || 0.736711 
******** 20. 0.039238    21. 0.694822  || 0.734061 
******** 22. 0.002384    23. 0.725437  || 0.727820 
  RANGE: 0.55  -  0.75
******** 24. 0.234450    25. 0.373672  || 0.608122 
******** 26. 0.235441    27. 0.381400  || 0.616841 
******** 28. 0.245443    29. 0.364443  || 0.609886 
******** 30. 0.256300    31. 0.363748  || 0.620048 
******** 32. 0.275238    33. 0.347016  || 0.622254 
******** 34. 0.233920    35. 0.390571  || 0.624491 

Voltage channels:
  RANGE: 3.65  -  3.85
ELMB Channel 36:   3.726 V   [V AN_POS dtmroc 1]
ELMB Channel 37:   3.764 V   [V AN_POS dtmroc 2]
ELMB Channel 38:   3.736 V   [V AN_POS dtmroc 3]
ELMB Channel 39:   3.733 V   [V AN_POS dtmroc 4]
ELMB Channel 40:   3.785 V   [V AN_POS dtmroc 5]
ELMB Channel 41:   3.768 V   [V AN_POS dtmroc 5]
ELMB Channel 42:   3.765 V   [V AN_POS dtmroc 6]
ELMB Channel 43:   3.765 V   [V AN_POS dtmroc 6]
  RANGE: 3.50  -  3.70
ELMB Channel 44:   -3.537 V   [V AN_NEG dtmroc 1]
ELMB Channel 45:   -3.598 V   [V AN_NEG dtmroc 2]
ELMB Channel 46:   -3.567 V   [V AN_NEG dtmroc 3]
ELMB Channel 47:   -3.560 V   [V AN_NEG dtmroc 4]
ELMB Channel 48:   -3.586 V   [V AN_NEG dtmroc 5]
ELMB Channel 49:   -3.581 V   [V AN_NEG dtmroc 5]
ELMB Channel 50:   -3.589 V   [V AN_NEG dtmroc 6]
ELMB Channel 51:   -3.609 V   [V AN_NEG dtmroc 6]
  RANGE: 3.10  -  3.30
ELMB Channel 52:   3.204 V   [V DIGI dtmroc 9]
ELMB Channel 53:   3.207 V   [V DIGI dtmroc 10]
ELMB Channel 54:   3.193 V   [V DIGI dtmroc 11]
ELMB Channel 55:   3.167 V   [V DIGI dtmroc 12]
ELMB Channel 56:   3.171 V   [V DIGI dtmroc 13]
ELMB Channel 57:   3.166 V   [V DIGI dtmroc 13]
ELMB Channel 58:   3.177 V   [V DIGI dtmroc 14]
ELMB Channel 59:   3.173 V   [V DIGI dtmroc 14]

Temperature channels:
Channel 60, temperature 43.06
Channel 61, temperature 45.49
Channel 62, temperature 42.73
Channel 63, temperature 43.57

 Loop: 13
DAC Settings:

Analog Positive 
                     DAC I1       DAC I2     Delta (DAC I1 - DAC I2)

Supply Channel 1:  128 [80]    131 [83]              -3
Supply Channel 2:  128 [80]    125 [7D]              3
Supply Channel 3:  128 [80]    133 [85]              -5
Supply Channel 4:  128 [80]    125 [7D]              3
Supply Channel 5:  128 [80]    115 [73]              13
Supply Channel 6:  128 [80]    125 [7D]              3

Analog Negative 
                     DAC I1       DAC I2     Delta (DAC I1 - DAC I2)

Supply Channel 1:   128 [80]     125 [7D]             3
Supply Channel 2:   128 [80]     115 [73]             13
Supply Channel 3:   128 [80]     127 [7F]             1
Supply Channel 4:   128 [80]     115 [73]             13
Supply Channel 5:   128 [80]     115 [73]             13
Supply Channel 6:   128 [80]     115 [73]             13

Digital 
                     DAC I1       DAC I2     Delta (DAC I1 - DAC I2)

Supply Channel 1:   128 [80]     137 [89]             -9
Supply Channel 2:   128 [80]     121 [79]             7
Supply Channel 3:   128 [80]     127 [7F]             1
Supply Channel 4:   128 [80]     129 [81]             -1
Supply Channel 5:   128 [80]     129 [81]             -1
Supply Channel 6:   128 [80]     125 [7D]             3

Current channels
  RANGE: 0.65  -  0.85
******** 0. 0.350900    1. 0.407173  || 0.758073 
******** 2. 0.407474    3. 0.357000  || 0.764474 
******** 4. 0.417115    5. 0.329485  || 0.746599 
******** 6. 0.415864    7. 0.342560  || 0.758425 
******** 8. 0.512114    9. 0.258322  || 0.770436 
******** 10. 0.381415    11. 0.380803  || 0.762218 
  RANGE: 0.65  -  0.85
******** 12. 0.343484    13. 0.412169  || 0.755653 
******** 14. 0.057900    15. 0.685783  || 0.743683 
******** 16. 0.336090    17. 0.398919  || 0.735010 
******** 18. 0.108977    19. 0.624538  || 0.733515 
******** 20. 0.088036    21. 0.652114  || 0.740151 
******** 22. 0.002373    23. 0.725424  || 0.727797 
  RANGE: 0.55  -  0.75
******** 24. 0.329045    25. 0.282166  || 0.611212 
******** 26. 0.323945    27. 0.289900  || 0.613845 
******** 28. 0.324847    29. 0.282047  || 0.606893 
******** 30. 0.332600    31. 0.290453  || 0.623053 
******** 32. 0.354542    33. 0.273814  || 0.628356 
******** 34. 0.316330    35. 0.314285  || 0.630615 

Voltage channels:
  RANGE: 3.65  -  3.85
ELMB Channel 36:   3.727 V   [V AN_POS dtmroc 1]
ELMB Channel 37:   3.763 V   [V AN_POS dtmroc 2]
ELMB Channel 38:   3.735 V   [V AN_POS dtmroc 3]
ELMB Channel 39:   3.733 V   [V AN_POS dtmroc 4]
ELMB Channel 40:   3.786 V   [V AN_POS dtmroc 5]
ELMB Channel 41:   3.770 V   [V AN_POS dtmroc 5]
ELMB Channel 42:   3.764 V   [V AN_POS dtmroc 6]
ELMB Channel 43:   3.764 V   [V AN_POS dtmroc 6]
  RANGE: 3.50  -  3.70
ELMB Channel 44:   -3.538 V   [V AN_NEG dtmroc 1]
ELMB Channel 45:   -3.597 V   [V AN_NEG dtmroc 2]
ELMB Channel 46:   -3.569 V   [V AN_NEG dtmroc 3]
ELMB Channel 47:   -3.559 V   [V AN_NEG dtmroc 4]
ELMB Channel 48:   -3.585 V   [V AN_NEG dtmroc 5]
ELMB Channel 49:   -3.579 V   [V AN_NEG dtmroc 5]
ELMB Channel 50:   -3.585 V   [V AN_NEG dtmroc 6]
ELMB Channel 51:   -3.606 V   [V AN_NEG dtmroc 6]
  RANGE: 3.10  -  3.30
ELMB Channel 52:   3.202 V   [V DIGI dtmroc 9]
ELMB Channel 53:   3.206 V   [V DIGI dtmroc 10]
ELMB Channel 54:   3.192 V   [V DIGI dtmroc 11]
ELMB Channel 55:   3.166 V   [V DIGI dtmroc 12]
ELMB Channel 56:   3.170 V   [V DIGI dtmroc 13]
ELMB Channel 57:   3.163 V   [V DIGI dtmroc 13]
ELMB Channel 58:   3.175 V   [V DIGI dtmroc 14]
ELMB Channel 59:   3.170 V   [V DIGI dtmroc 14]

Temperature channels:
Channel 60, temperature 43.45
Channel 61, temperature 45.87
Channel 62, temperature 43.08
Channel 63, temperature 43.89

 Loop: 14
DAC Settings:

Analog Positive 
                     DAC I1       DAC I2     Delta (DAC I1 - DAC I2)

Supply Channel 1:  128 [80]    132 [84]              -4
Supply Channel 2:  128 [80]    124 [7C]              4
Supply Channel 3:  128 [80]    132 [84]              -4
Supply Channel 4:  128 [80]    124 [7C]              4
Supply Channel 5:  128 [80]    114 [72]              14
Supply Channel 6:  128 [80]    124 [7C]              4

Analog Negative 
                     DAC I1       DAC I2     Delta (DAC I1 - DAC I2)

Supply Channel 1:   128 [80]     124 [7C]             4
Supply Channel 2:   128 [80]     114 [72]             14
Supply Channel 3:   128 [80]     126 [7E]             2
Supply Channel 4:   128 [80]     114 [72]             14
Supply Channel 5:   128 [80]     114 [72]             14
Supply Channel 6:   128 [80]     114 [72]             14

Digital 
                     DAC I1       DAC I2     Delta (DAC I1 - DAC I2)

Supply Channel 1:   128 [80]     136 [88]             -8
Supply Channel 2:   128 [80]     120 [78]             8
Supply Channel 3:   128 [80]     126 [7E]             2
Supply Channel 4:   128 [80]     128 [80]             0
Supply Channel 5:   128 [80]     128 [80]             0
Supply Channel 6:   128 [80]     124 [7C]             4

Current channels
  RANGE: 0.65  -  0.85
******** 0. 0.399700    1. 0.358375  || 0.758075 
******** 2. 0.355572    3. 0.405800  || 0.761372 
******** 4. 0.365212    5. 0.381381  || 0.746593 
******** 6. 0.370068    7. 0.385260  || 0.755328 
******** 8. 0.466310    9. 0.304117  || 0.770426 
******** 10. 0.326504    11. 0.432697  || 0.759201 
  RANGE: 0.65  -  0.85
******** 12. 0.404479    13. 0.351170  || 0.755649 
******** 14. 0.115900    15. 0.627764  || 0.743664 
******** 16. 0.393991    17. 0.340917  || 0.734909 
******** 18. 0.163986    19. 0.572634  || 0.736619 
******** 20. 0.139936    21. 0.600208  || 0.740144 
******** 22. 0.002364    23. 0.725414  || 0.727778 
  RANGE: 0.55  -  0.75
******** 24. 0.234451    25. 0.373673  || 0.608124 
******** 26. 0.238440    27. 0.378400  || 0.616840 
******** 28. 0.245442    29. 0.364442  || 0.609884 
******** 30. 0.256300    31. 0.366749  || 0.623049 
******** 32. 0.275238    33. 0.350116  || 0.625355 
******** 34. 0.233920    35. 0.390569  || 0.624489 

Voltage channels:
  RANGE: 3.65  -  3.85
ELMB Channel 36:   3.726 V   [V AN_POS dtmroc 1]
ELMB Channel 37:   3.764 V   [V AN_POS dtmroc 2]
ELMB Channel 38:   3.736 V   [V AN_POS dtmroc 3]
ELMB Channel 39:   3.734 V   [V AN_POS dtmroc 4]
ELMB Channel 40:   3.786 V   [V AN_POS dtmroc 5]
ELMB Channel 41:   3.772 V   [V AN_POS dtmroc 5]
ELMB Channel 42:   3.765 V   [V AN_POS dtmroc 6]
ELMB Channel 43:   3.766 V   [V AN_POS dtmroc 6]
  RANGE: 3.50  -  3.70
ELMB Channel 44:   -3.537 V   [V AN_NEG dtmroc 1]
ELMB Channel 45:   -3.596 V   [V AN_NEG dtmroc 2]
ELMB Channel 46:   -3.568 V   [V AN_NEG dtmroc 3]
ELMB Channel 47:   -3.558 V   [V AN_NEG dtmroc 4]
ELMB Channel 48:   -3.585 V   [V AN_NEG dtmroc 5]
ELMB Channel 49:   -3.577 V   [V AN_NEG dtmroc 5]
ELMB Channel 50:   -3.583 V   [V AN_NEG dtmroc 6]
ELMB Channel 51:   -3.603 V   [V AN_NEG dtmroc 6]
  RANGE: 3.10  -  3.30
ELMB Channel 52:   3.204 V   [V DIGI dtmroc 9]
ELMB Channel 53:   3.207 V   [V DIGI dtmroc 10]
ELMB Channel 54:   3.194 V   [V DIGI dtmroc 11]
ELMB Channel 55:   3.167 V   [V DIGI dtmroc 12]
ELMB Channel 56:   3.171 V   [V DIGI dtmroc 13]
ELMB Channel 57:   3.166 V   [V DIGI dtmroc 13]
ELMB Channel 58:   3.177 V   [V DIGI dtmroc 14]
ELMB Channel 59:   3.173 V   [V DIGI dtmroc 14]

Temperature channels:
Channel 60, temperature 43.81
Channel 61, temperature 46.17
Channel 62, temperature 43.44
Channel 63, temperature 44.23

 Loop: 15
DAC Settings:

Analog Positive 
                     DAC I1       DAC I2     Delta (DAC I1 - DAC I2)

Supply Channel 1:  128 [80]    131 [83]              -3
Supply Channel 2:  128 [80]    125 [7D]              3
Supply Channel 3:  128 [80]    133 [85]              -5
Supply Channel 4:  128 [80]    125 [7D]              3
Supply Channel 5:  128 [80]    113 [71]              15
Supply Channel 6:  128 [80]    125 [7D]              3

Analog Negative 
                     DAC I1       DAC I2     Delta (DAC I1 - DAC I2)

Supply Channel 1:   128 [80]     125 [7D]             3
Supply Channel 2:   128 [80]     113 [71]             15
Supply Channel 3:   128 [80]     127 [7F]             1
Supply Channel 4:   128 [80]     113 [71]             15
Supply Channel 5:   128 [80]     113 [71]             15
Supply Channel 6:   128 [80]     113 [71]             15

Digital 
                     DAC I1       DAC I2     Delta (DAC I1 - DAC I2)

Supply Channel 1:   128 [80]     137 [89]             -9
Supply Channel 2:   128 [80]     121 [79]             7
Supply Channel 3:   128 [80]     127 [7F]             1
Supply Channel 4:   128 [80]     129 [81]             -1
Supply Channel 5:   128 [80]     129 [81]             -1
Supply Channel 6:   128 [80]     125 [7D]             3

Current channels
  RANGE: 0.65  -  0.85
******** 0. 0.350900    1. 0.407173  || 0.758073 
******** 2. 0.407474    3. 0.357000  || 0.764474 
******** 4. 0.414114    5. 0.332584  || 0.746697 
******** 6. 0.415864    7. 0.342560  || 0.758425 
******** 8. 0.420501    9. 0.349913  || 0.770414 
******** 10. 0.381415    11. 0.380803  || 0.762218 
  RANGE: 0.65  -  0.85
******** 12. 0.340390    13. 0.412168  || 0.752559 
******** 14. 0.177000    15. 0.566754  || 0.743754 
******** 16. 0.336089    17. 0.398921  || 0.735011 
******** 18. 0.221991    19. 0.514731  || 0.736723 
******** 20. 0.188835    21. 0.548300  || 0.737134 
******** 22. 0.002356    23. 0.725402  || 0.727757 
  RANGE: 0.55  -  0.75
******** 24. 0.325946    25. 0.282168  || 0.608114 
******** 26. 0.323942    27. 0.286800  || 0.610742 
******** 28. 0.324847    29. 0.285147  || 0.609993 
******** 30. 0.332600    31. 0.290453  || 0.623053 
******** 32. 0.354542    33. 0.273814  || 0.628356 
******** 34. 0.313230    35. 0.314285  || 0.627515 

Voltage channels:
  RANGE: 3.65  -  3.85
ELMB Channel 36:   3.727 V   [V AN_POS dtmroc 1]
ELMB Channel 37:   3.763 V   [V AN_POS dtmroc 2]
ELMB Channel 38:   3.736 V   [V AN_POS dtmroc 3]
ELMB Channel 39:   3.733 V   [V AN_POS dtmroc 4]
ELMB Channel 40:   3.788 V   [V AN_POS dtmroc 5]
ELMB Channel 41:   3.773 V   [V AN_POS dtmroc 5]
ELMB Channel 42:   3.764 V   [V AN_POS dtmroc 6]
ELMB Channel 43:   3.764 V   [V AN_POS dtmroc 6]
  RANGE: 3.50  -  3.70
ELMB Channel 44:   -3.540 V   [V AN_NEG dtmroc 1]
ELMB Channel 45:   -3.595 V   [V AN_NEG dtmroc 2]
ELMB Channel 46:   -3.569 V   [V AN_NEG dtmroc 3]
ELMB Channel 47:   -3.558 V   [V AN_NEG dtmroc 4]
ELMB Channel 48:   -3.584 V   [V AN_NEG dtmroc 5]
ELMB Channel 49:   -3.575 V   [V AN_NEG dtmroc 5]
ELMB Channel 50:   -3.580 V   [V AN_NEG dtmroc 6]
ELMB Channel 51:   -3.600 V   [V AN_NEG dtmroc 6]
  RANGE: 3.10  -  3.30
ELMB Channel 52:   3.202 V   [V DIGI dtmroc 9]
ELMB Channel 53:   3.207 V   [V DIGI dtmroc 10]
ELMB Channel 54:   3.192 V   [V DIGI dtmroc 11]
ELMB Channel 55:   3.166 V   [V DIGI dtmroc 12]
ELMB Channel 56:   3.170 V   [V DIGI dtmroc 13]
ELMB Channel 57:   3.163 V   [V DIGI dtmroc 13]
ELMB Channel 58:   3.175 V   [V DIGI dtmroc 14]
ELMB Channel 59:   3.170 V   [V DIGI dtmroc 14]

Temperature channels:
Channel 60, temperature 44.14
Channel 61, temperature 46.48
Channel 62, temperature 43.77
Channel 63, temperature 44.54

 Loop: 16
DAC Settings:

Analog Positive 
                     DAC I1       DAC I2     Delta (DAC I1 - DAC I2)

Supply Channel 1:  128 [80]    132 [84]              -4
Supply Channel 2:  128 [80]    124 [7C]              4
Supply Channel 3:  128 [80]    132 [84]              -4
Supply Channel 4:  128 [80]    124 [7C]              4
Supply Channel 5:  128 [80]    112 [70]              16
Supply Channel 6:  128 [80]    124 [7C]              4

Analog Negative 
                     DAC I1       DAC I2     Delta (DAC I1 - DAC I2)

Supply Channel 1:   128 [80]     124 [7C]             4
Supply Channel 2:   128 [80]     112 [70]             16
Supply Channel 3:   128 [80]     126 [7E]             2
Supply Channel 4:   128 [80]     112 [70]             16
Supply Channel 5:   128 [80]     112 [70]             16
Supply Channel 6:   128 [80]     112 [70]             16

Digital 
                     DAC I1       DAC I2     Delta (DAC I1 - DAC I2)

Supply Channel 1:   128 [80]     136 [88]             -8
Supply Channel 2:   128 [80]     120 [78]             8
Supply Channel 3:   128 [80]     126 [7E]             2
Supply Channel 4:   128 [80]     128 [80]             0
Supply Channel 5:   128 [80]     128 [80]             0
Supply Channel 6:   128 [80]     126 [7E]             2

Current channels
  RANGE: 0.65  -  0.85
******** 0. 0.399700    1. 0.358374  || 0.758074 
******** 2. 0.355572    3. 0.408900  || 0.764472 
******** 4. 0.362211    5. 0.381379  || 0.743590 
******** 6. 0.370067    7. 0.385260  || 0.755327 
******** 8. 0.374699    9. 0.395608  || 0.770307 
******** 10. 0.329610    11. 0.432698  || 0.762308 
  RANGE: 0.65  -  0.85
******** 12. 0.404484    13. 0.351169  || 0.755653 
******** 14. 0.238000    15. 0.502650  || 0.740650 
******** 16. 0.397090    17. 0.337920  || 0.735010 
******** 18. 0.273797    19. 0.462828  || 0.736626 
******** 20. 0.240634    21. 0.496393  || 0.737027 
******** 22. 0.002346    23. 0.722390  || 0.724736 
  RANGE: 0.55  -  0.75
******** 24. 0.234452    25. 0.373674  || 0.608126 
******** 26. 0.238439    27. 0.378400  || 0.616839 
******** 28. 0.248542    29. 0.364442  || 0.612984 
******** 30. 0.256300    31. 0.369849  || 0.626149 
******** 32. 0.278237    33. 0.350116  || 0.628354 
******** 34. 0.395640    35. 0.235000  || 0.630640 

Voltage channels:
  RANGE: 3.65  -  3.85
ELMB Channel 36:   3.727 V   [V AN_POS dtmroc 1]
ELMB Channel 37:   3.764 V   [V AN_POS dtmroc 2]
ELMB Channel 38:   3.737 V   [V AN_POS dtmroc 3]
ELMB Channel 39:   3.733 V   [V AN_POS dtmroc 4]
ELMB Channel 40:   3.788 V   [V AN_POS dtmroc 5]
ELMB Channel 41:   3.775 V   [V AN_POS dtmroc 5]
ELMB Channel 42:   3.764 V   [V AN_POS dtmroc 6]
ELMB Channel 43:   3.765 V   [V AN_POS dtmroc 6]
  RANGE: 3.50  -  3.70
ELMB Channel 44:   -3.538 V   [V AN_NEG dtmroc 1]
ELMB Channel 45:   -3.595 V   [V AN_NEG dtmroc 2]
ELMB Channel 46:   -3.569 V   [V AN_NEG dtmroc 3]
ELMB Channel 47:   -3.557 V   [V AN_NEG dtmroc 4]
ELMB Channel 48:   -3.584 V   [V AN_NEG dtmroc 5]
ELMB Channel 49:   -3.573 V   [V AN_NEG dtmroc 5]
ELMB Channel 50:   -3.577 V   [V AN_NEG dtmroc 6]
ELMB Channel 51:   -3.597 V   [V AN_NEG dtmroc 6]
  RANGE: 3.10  -  3.30
ELMB Channel 52:   3.204 V   [V DIGI dtmroc 9]
ELMB Channel 53:   3.208 V   [V DIGI dtmroc 10]
ELMB Channel 54:   3.194 V   [V DIGI dtmroc 11]
ELMB Channel 55:   3.167 V   [V DIGI dtmroc 12]
ELMB Channel 56:   3.171 V   [V DIGI dtmroc 13]
ELMB Channel 57:   3.166 V   [V DIGI dtmroc 13]
ELMB Channel 58:   3.174 V   [V DIGI dtmroc 14]
ELMB Channel 59:   3.167 V   [V DIGI dtmroc 14]

Temperature channels:
Channel 60, temperature 44.45
Channel 61, temperature 46.76
Channel 62, temperature 44.11
Channel 63, temperature 44.82

 Loop: 17
DAC Settings:

Analog Positive 
                     DAC I1       DAC I2     Delta (DAC I1 - DAC I2)

Supply Channel 1:  128 [80]    131 [83]              -3
Supply Channel 2:  128 [80]    125 [7D]              3
Supply Channel 3:  128 [80]    133 [85]              -5
Supply Channel 4:  128 [80]    125 [7D]              3
Supply Channel 5:  128 [80]    113 [71]              15
Supply Channel 6:  128 [80]    125 [7D]              3

Analog Negative 
                     DAC I1       DAC I2     Delta (DAC I1 - DAC I2)

Supply Channel 1:   128 [80]     125 [7D]             3
Supply Channel 2:   128 [80]     111 [6F]             17
Supply Channel 3:   128 [80]     127 [7F]             1
Supply Channel 4:   128 [80]     111 [6F]             17
Supply Channel 5:   128 [80]     111 [6F]             17
Supply Channel 6:   128 [80]     111 [6F]             17

Digital 
                     DAC I1       DAC I2     Delta (DAC I1 - DAC I2)

Supply Channel 1:   128 [80]     137 [89]             -9
Supply Channel 2:   128 [80]     121 [79]             7
Supply Channel 3:   128 [80]     127 [7F]             1
Supply Channel 4:   128 [80]     129 [81]             -1
Supply Channel 5:   128 [80]     129 [81]             -1
Supply Channel 6:   128 [80]     125 [7D]             3

Current channels
  RANGE: 0.65  -  0.85
******** 0. 0.347900    1. 0.407172  || 0.755072 
******** 2. 0.404374    3. 0.357000  || 0.761374 
******** 4. 0.417113    5. 0.332582  || 0.749695 
******** 6. 0.415864    7. 0.342560  || 0.758425 
******** 8. 0.420499    9. 0.349913  || 0.770412 
******** 10. 0.381418    11. 0.380803  || 0.762221 
  RANGE: 0.65  -  0.85
******** 12. 0.346494    13. 0.412168  || 0.758661 
******** 14. 0.299000    15. 0.447735  || 0.746735 
******** 16. 0.339087    17. 0.398926  || 0.738013 
******** 18. 0.328803    19. 0.407826  || 0.736629 
******** 20. 0.295633    21. 0.444586  || 0.740219 
******** 22. 0.002336    23. 0.722377  || 0.724714 
  RANGE: 0.55  -  0.75
******** 24. 0.325948    25. 0.279070  || 0.605018 
******** 26. 0.327043    27. 0.286800  || 0.613843 
******** 28. 0.324848    29. 0.282048  || 0.606895 
******** 30. 0.332600    31. 0.293553  || 0.626153 
******** 32. 0.354542    33. 0.270714  || 0.625256 
******** 34. 0.313228    35. 0.311284  || 0.624512 

Voltage channels:
  RANGE: 3.65  -  3.85
ELMB Channel 36:   3.728 V   [V AN_POS dtmroc 1]
ELMB Channel 37:   3.763 V   [V AN_POS dtmroc 2]
ELMB Channel 38:   3.736 V   [V AN_POS dtmroc 3]
ELMB Channel 39:   3.733 V   [V AN_POS dtmroc 4]
ELMB Channel 40:   3.788 V   [V AN_POS dtmroc 5]
ELMB Channel 41:   3.773 V   [V AN_POS dtmroc 5]
ELMB Channel 42:   3.763 V   [V AN_POS dtmroc 6]
ELMB Channel 43:   3.764 V   [V AN_POS dtmroc 6]
  RANGE: 3.50  -  3.70
ELMB Channel 44:   -3.540 V   [V AN_NEG dtmroc 1]
ELMB Channel 45:   -3.594 V   [V AN_NEG dtmroc 2]
ELMB Channel 46:   -3.571 V   [V AN_NEG dtmroc 3]
ELMB Channel 47:   -3.556 V   [V AN_NEG dtmroc 4]
ELMB Channel 48:   -3.583 V   [V AN_NEG dtmroc 5]
ELMB Channel 49:   -3.572 V   [V AN_NEG dtmroc 5]
ELMB Channel 50:   -3.574 V   [V AN_NEG dtmroc 6]
ELMB Channel 51:   -3.594 V   [V AN_NEG dtmroc 6]
  RANGE: 3.10  -  3.30
ELMB Channel 52:   3.203 V   [V DIGI dtmroc 9]
ELMB Channel 53:   3.206 V   [V DIGI dtmroc 10]
ELMB Channel 54:   3.192 V   [V DIGI dtmroc 11]
ELMB Channel 55:   3.166 V   [V DIGI dtmroc 12]
ELMB Channel 56:   3.170 V   [V DIGI dtmroc 13]
ELMB Channel 57:   3.163 V   [V DIGI dtmroc 13]
ELMB Channel 58:   3.176 V   [V DIGI dtmroc 14]
ELMB Channel 59:   3.170 V   [V DIGI dtmroc 14]

Temperature channels:
Channel 60, temperature 44.69
Channel 61, temperature 47.01
Channel 62, temperature 44.39
Channel 63, temperature 45.10

 Loop: 18
DAC Settings:

Analog Positive 
                     DAC I1       DAC I2     Delta (DAC I1 - DAC I2)

Supply Channel 1:  128 [80]    132 [84]              -4
Supply Channel 2:  128 [80]    124 [7C]              4
Supply Channel 3:  128 [80]    132 [84]              -4
Supply Channel 4:  128 [80]    124 [7C]              4
Supply Channel 5:  128 [80]    112 [70]              16
Supply Channel 6:  128 [80]    124 [7C]              4

Analog Negative 
                     DAC I1       DAC I2     Delta (DAC I1 - DAC I2)

Supply Channel 1:   128 [80]     124 [7C]             4
Supply Channel 2:   128 [80]     110 [6E]             18
Supply Channel 3:   128 [80]     126 [7E]             2
Supply Channel 4:   128 [80]     110 [6E]             18
Supply Channel 5:   128 [80]     110 [6E]             18
Supply Channel 6:   128 [80]     110 [6E]             18

Digital 
                     DAC I1       DAC I2     Delta (DAC I1 - DAC I2)

Supply Channel 1:   128 [80]     136 [88]             -8
Supply Channel 2:   128 [80]     120 [78]             8
Supply Channel 3:   128 [80]     126 [7E]             2
Supply Channel 4:   128 [80]     128 [80]             0
Supply Channel 5:   128 [80]     128 [80]             0
Supply Channel 6:   128 [80]     126 [7E]             2

Current channels
  RANGE: 0.65  -  0.85
******** 0. 0.399700    1. 0.358374  || 0.758074 
******** 2. 0.352572    3. 0.408900  || 0.761472 
******** 4. 0.365211    5. 0.381379  || 0.746590 
******** 6. 0.370068    7. 0.385260  || 0.755328 
******** 8. 0.377796    9. 0.398708  || 0.776504 
******** 10. 0.329610    11. 0.435796  || 0.765406 
  RANGE: 0.65  -  0.85
******** 12. 0.404489    13. 0.348069  || 0.752557 
******** 14. 0.360100    15. 0.383621  || 0.743721 
******** 16. 0.397089    17. 0.334823  || 0.731911 
******** 18. 0.386809    19. 0.349923  || 0.736732 
******** 20. 0.347533    21. 0.389578  || 0.737111 
******** 22. 0.002327    23. 0.722367  || 0.724694 
  RANGE: 0.55  -  0.75
******** 24. 0.234452    25. 0.373674  || 0.608126 
******** 26. 0.241537    27. 0.375300  || 0.616837 
******** 28. 0.245441    29. 0.364441  || 0.609882 
******** 30. 0.253300    31. 0.369847  || 0.623147 
******** 32. 0.278235    33. 0.347016  || 0.625252 
******** 34. 0.392538    35. 0.231898  || 0.624436 

Voltage channels:
  RANGE: 3.65  -  3.85
ELMB Channel 36:   3.727 V   [V AN_POS dtmroc 1]
ELMB Channel 37:   3.764 V   [V AN_POS dtmroc 2]
ELMB Channel 38:   3.737 V   [V AN_POS dtmroc 3]
ELMB Channel 39:   3.734 V   [V AN_POS dtmroc 4]
ELMB Channel 40:   3.788 V   [V AN_POS dtmroc 5]
ELMB Channel 41:   3.775 V   [V AN_POS dtmroc 5]
ELMB Channel 42:   3.764 V   [V AN_POS dtmroc 6]
ELMB Channel 43:   3.766 V   [V AN_POS dtmroc 6]
  RANGE: 3.50  -  3.70
ELMB Channel 44:   -3.539 V   [V AN_NEG dtmroc 1]
ELMB Channel 45:   -3.593 V   [V AN_NEG dtmroc 2]
ELMB Channel 46:   -3.570 V   [V AN_NEG dtmroc 3]
ELMB Channel 47:   -3.556 V   [V AN_NEG dtmroc 4]
ELMB Channel 48:   -3.583 V   [V AN_NEG dtmroc 5]
ELMB Channel 49:   -3.570 V   [V AN_NEG dtmroc 5]
ELMB Channel 50:   -3.571 V   [V AN_NEG dtmroc 6]
ELMB Channel 51:   -3.592 V   [V AN_NEG dtmroc 6]
  RANGE: 3.10  -  3.30
ELMB Channel 52:   3.204 V   [V DIGI dtmroc 9]
ELMB Channel 53:   3.209 V   [V DIGI dtmroc 10]
ELMB Channel 54:   3.194 V   [V DIGI dtmroc 11]
ELMB Channel 55:   3.168 V   [V DIGI dtmroc 12]
ELMB Channel 56:   3.172 V   [V DIGI dtmroc 13]
ELMB Channel 57:   3.166 V   [V DIGI dtmroc 13]
ELMB Channel 58:   3.174 V   [V DIGI dtmroc 14]
ELMB Channel 59:   3.167 V   [V DIGI dtmroc 14]

Temperature channels:
Channel 60, temperature 44.93
Channel 61, temperature 47.20
Channel 62, temperature 44.66
Channel 63, temperature 45.32

 Loop: 19
DAC Settings:

Analog Positive 
                     DAC I1       DAC I2     Delta (DAC I1 - DAC I2)

Supply Channel 1:  128 [80]    131 [83]              -3
Supply Channel 2:  128 [80]    125 [7D]              3
Supply Channel 3:  128 [80]    133 [85]              -5
Supply Channel 4:  128 [80]    125 [7D]              3
Supply Channel 5:  128 [80]    113 [71]              15
Supply Channel 6:  128 [80]    125 [7D]              3

Analog Negative 
                     DAC I1       DAC I2     Delta (DAC I1 - DAC I2)

Supply Channel 1:   128 [80]     125 [7D]             3
Supply Channel 2:   128 [80]     109 [6D]             19
Supply Channel 3:   128 [80]     127 [7F]             1
Supply Channel 4:   128 [80]     111 [6F]             17
Supply Channel 5:   128 [80]     109 [6D]             19
Supply Channel 6:   128 [80]     109 [6D]             19

Digital 
                     DAC I1       DAC I2     Delta (DAC I1 - DAC I2)

Supply Channel 1:   128 [80]     137 [89]             -9
Supply Channel 2:   128 [80]     121 [79]             7
Supply Channel 3:   128 [80]     127 [7F]             1
Supply Channel 4:   128 [80]     129 [81]             -1
Supply Channel 5:   128 [80]     129 [81]             -1
Supply Channel 6:   128 [80]     125 [7D]             3

Current channels
  RANGE: 0.65  -  0.85
******** 0. 0.347900    1. 0.410271  || 0.758171 
******** 2. 0.404373    3. 0.360100  || 0.764473 
******** 4. 0.414114    5. 0.332584  || 0.746697 
******** 6. 0.418866    7. 0.339560  || 0.758426 
******** 8. 0.420501    9. 0.352913  || 0.773414 
******** 10. 0.381415    11. 0.380802  || 0.762217 
  RANGE: 0.65  -  0.85
******** 12. 0.346497    13. 0.409067  || 0.755564 
******** 14. 0.421100    15. 0.322611  || 0.743711 
******** 16. 0.342186    17. 0.392828  || 0.735014 
******** 18. 0.328797    19. 0.404828  || 0.733626 
******** 20. 0.399331    21. 0.337670  || 0.737001 
******** 22. 0.002317    23. 0.722355  || 0.724672 
  RANGE: 0.55  -  0.75
******** 24. 0.325948    25. 0.282170  || 0.608118 
******** 26. 0.330042    27. 0.286800  || 0.616842 
******** 28. 0.327847    29. 0.285147  || 0.612993 
******** 30. 0.329500    31. 0.296553  || 0.626053 
******** 32. 0.354540    33. 0.270714  || 0.625254 
******** 34. 0.310128    35. 0.314282  || 0.624410 

Voltage channels:
  RANGE: 3.65  -  3.85
ELMB Channel 36:   3.728 V   [V AN_POS dtmroc 1]
ELMB Channel 37:   3.764 V   [V AN_POS dtmroc 2]
ELMB Channel 38:   3.736 V   [V AN_POS dtmroc 3]
ELMB Channel 39:   3.733 V   [V AN_POS dtmroc 4]
ELMB Channel 40:   3.788 V   [V AN_POS dtmroc 5]
ELMB Channel 41:   3.773 V   [V AN_POS dtmroc 5]
ELMB Channel 42:   3.764 V   [V AN_POS dtmroc 6]
ELMB Channel 43:   3.764 V   [V AN_POS dtmroc 6]
  RANGE: 3.50  -  3.70
ELMB Channel 44:   -3.541 V   [V AN_NEG dtmroc 1]
ELMB Channel 45:   -3.592 V   [V AN_NEG dtmroc 2]
ELMB Channel 46:   -3.571 V   [V AN_NEG dtmroc 3]
ELMB Channel 47:   -3.557 V   [V AN_NEG dtmroc 4]
ELMB Channel 48:   -3.582 V   [V AN_NEG dtmroc 5]
ELMB Channel 49:   -3.568 V   [V AN_NEG dtmroc 5]
ELMB Channel 50:   -3.568 V   [V AN_NEG dtmroc 6]
ELMB Channel 51:   -3.589 V   [V AN_NEG dtmroc 6]
  RANGE: 3.10  -  3.30
ELMB Channel 52:   3.203 V   [V DIGI dtmroc 9]
ELMB Channel 53:   3.207 V   [V DIGI dtmroc 10]
ELMB Channel 54:   3.192 V   [V DIGI dtmroc 11]
ELMB Channel 55:   3.166 V   [V DIGI dtmroc 12]
ELMB Channel 56:   3.170 V   [V DIGI dtmroc 13]
ELMB Channel 57:   3.163 V   [V DIGI dtmroc 13]
ELMB Channel 58:   3.176 V   [V DIGI dtmroc 14]
ELMB Channel 59:   3.170 V   [V DIGI dtmroc 14]

Temperature channels:
Channel 60, temperature 45.18
Channel 61, temperature 47.40
Channel 62, temperature 44.90
Channel 63, temperature 45.55

 Loop: 20
DAC Settings:

Analog Positive 
                     DAC I1       DAC I2     Delta (DAC I1 - DAC I2)

Supply Channel 1:  128 [80]    132 [84]              -4
Supply Channel 2:  128 [80]    124 [7C]              4
Supply Channel 3:  128 [80]    132 [84]              -4
Supply Channel 4:  128 [80]    124 [7C]              4
Supply Channel 5:  128 [80]    112 [70]              16
Supply Channel 6:  128 [80]    124 [7C]              4

Analog Negative 
                     DAC I1       DAC I2     Delta (DAC I1 - DAC I2)

Supply Channel 1:   128 [80]     124 [7C]             4
Supply Channel 2:   128 [80]     110 [6E]             18
Supply Channel 3:   128 [80]     126 [7E]             2
Supply Channel 4:   128 [80]     110 [6E]             18
Supply Channel 5:   128 [80]     110 [6E]             18
Supply Channel 6:   128 [80]     108 [6C]             20

Digital 
                     DAC I1       DAC I2     Delta (DAC I1 - DAC I2)

Supply Channel 1:   128 [80]     136 [88]             -8
Supply Channel 2:   128 [80]     120 [78]             8
Supply Channel 3:   128 [80]     126 [7E]             2
Supply Channel 4:   128 [80]     128 [80]             0
Supply Channel 5:   128 [80]     128 [80]             0
Supply Channel 6:   128 [80]     126 [7E]             2

Current channels
  RANGE: 0.65  -  0.85
******** 0. 0.399700    1. 0.358374  || 0.758074 
******** 2. 0.352572    3. 0.408900  || 0.761472 
******** 4. 0.362211    5. 0.381379  || 0.743590 
******** 6. 0.373167    7. 0.385260  || 0.758427 
******** 8. 0.374694    9. 0.395608  || 0.770302 
******** 10. 0.326507    11. 0.432696  || 0.759203 
  RANGE: 0.65  -  0.85
******** 12. 0.410595    13. 0.348067  || 0.758663 
******** 14. 0.363100    15. 0.386731  || 0.749831 
******** 16. 0.397087    17. 0.340926  || 0.738013 
******** 18. 0.383703    19. 0.352926  || 0.736629 
******** 20. 0.344434    21. 0.395681  || 0.740115 
******** 22. 0.002307    23. 0.719240  || 0.721547 
  RANGE: 0.55  -  0.75
******** 24. 0.234453    25. 0.373676  || 0.608130 
******** 26. 0.241537    27. 0.372300  || 0.613837 
******** 28. 0.242441    29. 0.364441  || 0.606882 
******** 30. 0.253300    31. 0.369847  || 0.623147 
******** 32. 0.278237    33. 0.350116  || 0.628354 
******** 34. 0.392538    35. 0.234998  || 0.627536 

Voltage channels:
  RANGE: 3.65  -  3.85
ELMB Channel 36:   3.727 V   [V AN_POS dtmroc 1]
ELMB Channel 37:   3.764 V   [V AN_POS dtmroc 2]
ELMB Channel 38:   3.737 V   [V AN_POS dtmroc 3]
ELMB Channel 39:   3.733 V   [V AN_POS dtmroc 4]
ELMB Channel 40:   3.789 V   [V AN_POS dtmroc 5]
ELMB Channel 41:   3.775 V   [V AN_POS dtmroc 5]
ELMB Channel 42:   3.765 V   [V AN_POS dtmroc 6]
ELMB Channel 43:   3.766 V   [V AN_POS dtmroc 6]
  RANGE: 3.50  -  3.70
ELMB Channel 44:   -3.541 V   [V AN_NEG dtmroc 1]
ELMB Channel 45:   -3.594 V   [V AN_NEG dtmroc 2]
ELMB Channel 46:   -3.571 V   [V AN_NEG dtmroc 3]
ELMB Channel 47:   -3.556 V   [V AN_NEG dtmroc 4]
ELMB Channel 48:   -3.584 V   [V AN_NEG dtmroc 5]
ELMB Channel 49:   -3.570 V   [V AN_NEG dtmroc 5]
ELMB Channel 50:   -3.565 V   [V AN_NEG dtmroc 6]
ELMB Channel 51:   -3.585 V   [V AN_NEG dtmroc 6]
  RANGE: 3.10  -  3.30
ELMB Channel 52:   3.205 V   [V DIGI dtmroc 9]
ELMB Channel 53:   3.209 V   [V DIGI dtmroc 10]
ELMB Channel 54:   3.194 V   [V DIGI dtmroc 11]
ELMB Channel 55:   3.168 V   [V DIGI dtmroc 12]
ELMB Channel 56:   3.171 V   [V DIGI dtmroc 13]
ELMB Channel 57:   3.166 V   [V DIGI dtmroc 13]
ELMB Channel 58:   3.174 V   [V DIGI dtmroc 14]
ELMB Channel 59:   3.167 V   [V DIGI dtmroc 14]

Temperature channels:
Channel 60, temperature 45.40
Channel 61, temperature 47.63
Channel 62, temperature 45.17
Channel 63, temperature 45.79

 CARD 309: TEST is finished:  08.03.2012 18:37:02

 NO ERRORS  in   20 loops
