============================================
Check basic functions of a card TYPE A
============================================
Card Serial Number: 309
CALIBRATION FILE: C:\LVPP_TESTS\data\card_309\LVPP_CALIB_309.csv
Load: 5 ohms, valid current range: <0.520 A - 0.820 A> 
                temperature range: <15.10 C - 60.00 C> 

TEST is started: 30.09.2009 10:51:57

ELMB <1> init OK
ELMB NB: 1 Initializing of DTMROCS: 1 2 3 4 5 6 9 10 11 12 13 14 
Single Write/Read DACs 01 23 in all DTMROCS

Write to all DACs  - broadcast
Check set INHIBITS
Set all regulators ON one by one
Set all regulators OFF one by one
Set all regulators ON - BROADCAST
Set all regulators OFF - BROADCAST

Check ANALOG readout

Hard reset: all regulators are off, all DACs are set to 0xFF.

Current channels
******** 0. 0.003000    1. 0.002989  || 0.005989 
******** 2. 0.002990    3. 0.003000  || 0.005990 
******** 4. 0.000013    5. 0.000019  || 0.000032 
******** 6. 0.000016    7. 0.000003  || 0.000019 
******** 8. 0.000033    9. 0.000013  || 0.000046 
******** 10. 0.002959    11. 0.000017  || 0.002976 
******** 12. 0.003024    13. 0.000004  || 0.003028 
******** 14. 0.000000    15. 0.000071  || 0.000071 
******** 16. 0.009092    17. 0.000016  || 0.009108 
******** 18. 0.000041    19. 0.003019  || 0.003060 
******** 20. 0.000001    21. 0.009103  || 0.009104 
******** 22. 0.000002    23. 0.000003  || 0.000005 
******** 24. 0.003006    25. 0.003008  || 0.006014 
******** 26. 0.000006    27. 0.003000  || 0.003006 
******** 28. 0.002992    29. 0.000008  || 0.003000 
******** 30. 0.003000    31. 0.000005  || 0.003005 
******** 32. 0.002995    33. 0.003001  || 0.005997 
******** 34. 0.002988    35. 0.002994  || 0.005981 

Voltage channels:
ELMB Channel 36:   0.005 V   [V AN_POS dtmroc 1]
ELMB Channel 37:   0.005 V   [V AN_POS dtmroc 2]
ELMB Channel 38:   0.005 V   [V AN_POS dtmroc 3]
ELMB Channel 39:   0.005 V   [V AN_POS dtmroc 4]
ELMB Channel 40:   0.005 V   [V AN_POS dtmroc 5]
ELMB Channel 41:   0.005 V   [V AN_POS dtmroc 5]
ELMB Channel 42:   0.005 V   [V AN_POS dtmroc 6]
ELMB Channel 43:   0.005 V   [V AN_POS dtmroc 6]
ELMB Channel 44:   0.005 V   [V AN_NEG dtmroc 1]
ELMB Channel 45:   0.005 V   [V AN_NEG dtmroc 2]
ELMB Channel 46:   0.005 V   [V AN_NEG dtmroc 3]
ELMB Channel 47:   0.005 V   [V AN_NEG dtmroc 4]
ELMB Channel 48:   0.001 V   [V AN_NEG dtmroc 5]
ELMB Channel 49:   0.001 V   [V AN_NEG dtmroc 5]
ELMB Channel 50:   0.001 V   [V AN_NEG dtmroc 6]
ELMB Channel 51:   0.001 V   [V AN_NEG dtmroc 6]
ELMB Channel 52:   0.002 V   [V DIGI dtmroc 9]
ELMB Channel 53:   0.002 V   [V DIGI dtmroc 10]
ELMB Channel 54:   0.002 V   [V DIGI dtmroc 11]
ELMB Channel 55:   0.002 V   [V DIGI dtmroc 12]
ELMB Channel 56:   0.002 V   [V DIGI dtmroc 13]
ELMB Channel 57:   0.002 V   [V DIGI dtmroc 13]
ELMB Channel 58:   0.002 V   [V DIGI dtmroc 14]
ELMB Channel 59:   0.001 V   [V DIGI dtmroc 14]

Temperature channels:
Channel 60, temperature 45.18
Channel 61, temperature 45.76
Channel 62, temperature 45.35
Channel 63, temperature 44.38

Set all regulators ON

Current channels
******** 0. 0.741500    1. 0.001440  || 0.742940 
******** 2. 0.743347    3. 0.003000  || 0.746347 
******** 4. 0.740837    5. 0.011976  || 0.752814 
******** 6. 0.739078    7. 0.002190  || 0.741268 
******** 8. 0.750642    9. 0.005250  || 0.755891 
******** 10. 0.745330    11. 0.003375  || 0.748706 
******** 12. 0.755730    13. 0.015428  || 0.771159 
******** 14. 0.741500    15. 0.012160  || 0.753660 
******** 16. 0.741909    17. 0.000617  || 0.742526 
******** 18. 0.737290    19. 0.005314  || 0.742604 
******** 20. 0.735104    21. 0.008318  || 0.743421 
******** 22. 0.731714    23. 0.006867  || 0.738581 
******** 24. 0.742618    25. 0.021012  || 0.763629 
******** 26. 0.746579    27. 0.015200  || 0.761779 
******** 28. 0.740961    29. 0.018939  || 0.759900 
******** 30. 0.747700    31. 0.007119  || 0.754819 
******** 32. 0.752785    33. 0.006488  || 0.759273 
******** 34. 0.746163    35. 0.002698  || 0.748861 

Voltage channels:
ELMB Channel 36:   3.647 V   [V AN_POS dtmroc 1]
ELMB Channel 37:   3.677 V   [V AN_POS dtmroc 2]
ELMB Channel 38:   3.653 V   [V AN_POS dtmroc 3]
ELMB Channel 39:   3.651 V   [V AN_POS dtmroc 4]
ELMB Channel 40:   3.706 V   [V AN_POS dtmroc 5]
ELMB Channel 41:   3.685 V   [V AN_POS dtmroc 5]
ELMB Channel 42:   3.675 V   [V AN_POS dtmroc 6]
ELMB Channel 43:   3.669 V   [V AN_POS dtmroc 6]
ELMB Channel 44:   -3.590 V   [V AN_NEG dtmroc 1]
ELMB Channel 45:   -3.645 V   [V AN_NEG dtmroc 2]
ELMB Channel 46:   -3.620 V   [V AN_NEG dtmroc 3]
ELMB Channel 47:   -3.603 V   [V AN_NEG dtmroc 4]
ELMB Channel 48:   -3.627 V   [V AN_NEG dtmroc 5]
ELMB Channel 49:   -3.604 V   [V AN_NEG dtmroc 5]
ELMB Channel 50:   -3.598 V   [V AN_NEG dtmroc 6]
ELMB Channel 51:   -3.608 V   [V AN_NEG dtmroc 6]
ELMB Channel 52:   3.784 V   [V DIGI dtmroc 9]
ELMB Channel 53:   3.785 V   [V DIGI dtmroc 10]
ELMB Channel 54:   3.776 V   [V DIGI dtmroc 11]
ELMB Channel 55:   3.748 V   [V DIGI dtmroc 12]
ELMB Channel 56:   3.746 V   [V DIGI dtmroc 13]
ELMB Channel 57:   3.732 V   [V DIGI dtmroc 13]
ELMB Channel 58:   3.744 V   [V DIGI dtmroc 14]
ELMB Channel 59:   3.729 V   [V DIGI dtmroc 14]

Temperature channels:
Channel 60, temperature 45.07
Channel 61, temperature 45.47
Channel 62, temperature 45.01
Channel 63, temperature 44.11

Set all regulators ON

Current channels
******** 0. 0.003000    1. 0.746135  || 0.749135 
******** 2. 0.001225    3. 0.744600  || 0.745825 
******** 4. 0.003766    5. 0.732718  || 0.736484 
******** 6. 0.005585    7. 0.742420  || 0.748005 
******** 8. 0.002862    9. 0.750035  || 0.752896 
******** 10. 0.002277    11. 0.741330  || 0.743608 
******** 12. 0.014269    13. 0.753922  || 0.768191 
******** 14. 0.000000    15. 0.763561  || 0.763561 
******** 16. 0.006414    17. 0.737872  || 0.744286 
******** 18. 0.001680    19. 0.756127  || 0.757807 
******** 20. 0.003214    21. 0.759292  || 0.762506 
******** 22. 0.002700    23. 0.744133  || 0.746832 
******** 24. 0.014086    25. 0.741906  || 0.755992 
******** 26. 0.013103    27. 0.735400  || 0.748503 
******** 28. 0.012787    29. 0.734913  || 0.747700 
******** 30. 0.006100    31. 0.746706  || 0.752806 
******** 32. 0.003995    33. 0.747218  || 0.751213 
******** 34. 0.007514    35. 0.745025  || 0.752539 

Voltage channels:
ELMB Channel 36:   3.650 V   [V AN_POS dtmroc 1]
ELMB Channel 37:   3.663 V   [V AN_POS dtmroc 2]
ELMB Channel 38:   3.654 V   [V AN_POS dtmroc 3]
ELMB Channel 39:   3.633 V   [V AN_POS dtmroc 4]
ELMB Channel 40:   3.661 V   [V AN_POS dtmroc 5]
ELMB Channel 41:   3.654 V   [V AN_POS dtmroc 5]
ELMB Channel 42:   3.664 V   [V AN_POS dtmroc 6]
ELMB Channel 43:   3.668 V   [V AN_POS dtmroc 6]
ELMB Channel 44:   -3.598 V   [V AN_NEG dtmroc 1]
ELMB Channel 45:   -3.701 V   [V AN_NEG dtmroc 2]
ELMB Channel 46:   -3.616 V   [V AN_NEG dtmroc 3]
ELMB Channel 47:   -3.657 V   [V AN_NEG dtmroc 4]
ELMB Channel 48:   -3.679 V   [V AN_NEG dtmroc 5]
ELMB Channel 49:   -3.673 V   [V AN_NEG dtmroc 5]
ELMB Channel 50:   -3.687 V   [V AN_NEG dtmroc 6]
ELMB Channel 51:   -3.708 V   [V AN_NEG dtmroc 6]
ELMB Channel 52:   3.820 V   [V DIGI dtmroc 9]
ELMB Channel 53:   3.742 V   [V DIGI dtmroc 10]
ELMB Channel 54:   3.761 V   [V DIGI dtmroc 11]
ELMB Channel 55:   3.738 V   [V DIGI dtmroc 12]
ELMB Channel 56:   3.739 V   [V DIGI dtmroc 13]
ELMB Channel 57:   3.740 V   [V DIGI dtmroc 13]
ELMB Channel 58:   3.724 V   [V DIGI dtmroc 14]
ELMB Channel 59:   3.724 V   [V DIGI dtmroc 14]

Temperature channels:
Channel 60, temperature 44.98
Channel 61, temperature 45.45
Channel 62, temperature 44.99
Channel 63, temperature 44.08

Set all regulators ON

Current channels
******** 0. 0.741500    1. 0.001440  || 0.742940 
******** 2. 0.746447    3. 0.000000  || 0.746447 
******** 4. 0.740838    5. 0.014975  || 0.755813 
******** 6. 0.739077    7. 0.002190  || 0.741267 
******** 8. 0.747642    9. 0.002250  || 0.749891 
******** 10. 0.745333    11. 0.003375  || 0.748708 
******** 12. 0.755730    13. 0.012328  || 0.768059 
******** 14. 0.741500    15. 0.012160  || 0.753660 
******** 16. 0.741909    17. 0.000617  || 0.742526 
******** 18. 0.737287    19. 0.008315  || 0.745602 
******** 20. 0.735104    21. 0.011419  || 0.746523 
******** 22. 0.731713    23. 0.003869  || 0.735582 
******** 24. 0.742618    25. 0.018012  || 0.760629 
******** 26. 0.746579    27. 0.015200  || 0.761779 
******** 28. 0.740959    29. 0.018941  || 0.759900 
******** 30. 0.747700    31. 0.007119  || 0.754819 
******** 32. 0.752785    33. 0.009588  || 0.762373 
******** 34. 0.746163    35. 0.002698  || 0.748861 

Voltage channels:
ELMB Channel 36:   3.647 V   [V AN_POS dtmroc 1]
ELMB Channel 37:   3.676 V   [V AN_POS dtmroc 2]
ELMB Channel 38:   3.652 V   [V AN_POS dtmroc 3]
ELMB Channel 39:   3.650 V   [V AN_POS dtmroc 4]
ELMB Channel 40:   3.706 V   [V AN_POS dtmroc 5]
ELMB Channel 41:   3.685 V   [V AN_POS dtmroc 5]
ELMB Channel 42:   3.675 V   [V AN_POS dtmroc 6]
ELMB Channel 43:   3.669 V   [V AN_POS dtmroc 6]
ELMB Channel 44:   -3.590 V   [V AN_NEG dtmroc 1]
ELMB Channel 45:   -3.645 V   [V AN_NEG dtmroc 2]
ELMB Channel 46:   -3.620 V   [V AN_NEG dtmroc 3]
ELMB Channel 47:   -3.604 V   [V AN_NEG dtmroc 4]
ELMB Channel 48:   -3.628 V   [V AN_NEG dtmroc 5]
ELMB Channel 49:   -3.605 V   [V AN_NEG dtmroc 5]
ELMB Channel 50:   -3.598 V   [V AN_NEG dtmroc 6]
ELMB Channel 51:   -3.608 V   [V AN_NEG dtmroc 6]
ELMB Channel 52:   3.784 V   [V DIGI dtmroc 9]
ELMB Channel 53:   3.785 V   [V DIGI dtmroc 10]
ELMB Channel 54:   3.777 V   [V DIGI dtmroc 11]
ELMB Channel 55:   3.748 V   [V DIGI dtmroc 12]
ELMB Channel 56:   3.746 V   [V DIGI dtmroc 13]
ELMB Channel 57:   3.732 V   [V DIGI dtmroc 13]
ELMB Channel 58:   3.744 V   [V DIGI dtmroc 14]
ELMB Channel 59:   3.729 V   [V DIGI dtmroc 14]

Temperature channels:
Channel 60, temperature 44.96
Channel 61, temperature 45.52
Channel 62, temperature 45.05
Channel 63, temperature 44.14

Current channels
******** 0. 0.003000    1. 0.746135  || 0.749135 
******** 2. 0.001225    3. 0.744600  || 0.745825 
******** 4. 0.003765    5. 0.735719  || 0.739485 
******** 6. 0.005585    7. 0.742420  || 0.748005 
******** 8. 0.000238    9. 0.750035  || 0.750273 
******** 10. 0.002275    11. 0.741330  || 0.743605 
******** 12. 0.014271    13. 0.753922  || 0.768192 
******** 14. 0.000000    15. 0.763566  || 0.763566 
******** 16. 0.006414    17. 0.737872  || 0.744286 
******** 18. 0.001317    19. 0.756129  || 0.757446 
******** 20. 0.003213    21. 0.759293  || 0.762506 
******** 22. 0.002701    23. 0.744134  || 0.746835 
******** 24. 0.017086    25. 0.741906  || 0.758992 
******** 26. 0.010103    27. 0.735400  || 0.745503 
******** 28. 0.012787    29. 0.734913  || 0.747700 
******** 30. 0.006100    31. 0.746706  || 0.752806 
******** 32. 0.003995    33. 0.747218  || 0.751214 
******** 34. 0.007512    35. 0.745025  || 0.752537 

Voltage channels:
ELMB Channel 36:   3.650 V   [V AN_POS dtmroc 1]
ELMB Channel 37:   3.663 V   [V AN_POS dtmroc 2]
ELMB Channel 38:   3.654 V   [V AN_POS dtmroc 3]
ELMB Channel 39:   3.633 V   [V AN_POS dtmroc 4]
ELMB Channel 40:   3.661 V   [V AN_POS dtmroc 5]
ELMB Channel 41:   3.654 V   [V AN_POS dtmroc 5]
ELMB Channel 42:   3.664 V   [V AN_POS dtmroc 6]
ELMB Channel 43:   3.668 V   [V AN_POS dtmroc 6]
ELMB Channel 44:   -3.598 V   [V AN_NEG dtmroc 1]
ELMB Channel 45:   -3.702 V   [V AN_NEG dtmroc 2]
ELMB Channel 46:   -3.616 V   [V AN_NEG dtmroc 3]
ELMB Channel 47:   -3.657 V   [V AN_NEG dtmroc 4]
ELMB Channel 48:   -3.679 V   [V AN_NEG dtmroc 5]
ELMB Channel 49:   -3.673 V   [V AN_NEG dtmroc 5]
ELMB Channel 50:   -3.688 V   [V AN_NEG dtmroc 6]
ELMB Channel 51:   -3.709 V   [V AN_NEG dtmroc 6]
ELMB Channel 52:   3.820 V   [V DIGI dtmroc 9]
ELMB Channel 53:   3.742 V   [V DIGI dtmroc 10]
ELMB Channel 54:   3.761 V   [V DIGI dtmroc 11]
ELMB Channel 55:   3.738 V   [V DIGI dtmroc 12]
ELMB Channel 56:   3.739 V   [V DIGI dtmroc 13]
ELMB Channel 57:   3.740 V   [V DIGI dtmroc 13]
ELMB Channel 58:   3.723 V   [V DIGI dtmroc 14]
ELMB Channel 59:   3.724 V   [V DIGI dtmroc 14]

Temperature channels:
Channel 60, temperature 44.92
Channel 61, temperature 45.57
Channel 62, temperature 45.08
Channel 63, temperature 44.13

Current channels
******** 0. 0.186100    1. 0.559923  || 0.746023 
******** 2. 0.548042    3. 0.198300  || 0.746342 
******** 4. 0.185417    5. 0.543392  || 0.728809 
******** 6. 0.540687    7. 0.199208  || 0.739895 
******** 8. 0.750644    9. 0.002250  || 0.752894 
******** 10. 0.507303    11. 0.237702  || 0.745005 
******** 12. 0.151493    13. 0.619618  || 0.771111 
******** 14. 0.000000    15. 0.763566  || 0.763566 
******** 16. 0.320694    17. 0.423512  || 0.744206 
******** 18. 0.001683    19. 0.756129  || 0.757811 
******** 20. 0.003213    21. 0.759294  || 0.762507 
******** 22. 0.002702    23. 0.744134  || 0.746836 
******** 24. 0.014084    25. 0.741908  || 0.755992 
******** 26. 0.746579    27. 0.015200  || 0.761779 
******** 28. 0.515047    29. 0.209847  || 0.724894 
******** 30. 0.360100    31. 0.383464  || 0.743564 
******** 32. 0.356067    33. 0.390123  || 0.746190 
******** 34. 0.599649    35. 0.140677  || 0.740325 

Voltage channels:
ELMB Channel 36:   3.656 V   [V AN_POS dtmroc 1]
ELMB Channel 37:   3.679 V   [V AN_POS dtmroc 2]
ELMB Channel 38:   3.661 V   [V AN_POS dtmroc 3]
ELMB Channel 39:   3.653 V   [V AN_POS dtmroc 4]
ELMB Channel 40:   3.705 V   [V AN_POS dtmroc 5]
ELMB Channel 41:   3.685 V   [V AN_POS dtmroc 5]
ELMB Channel 42:   3.679 V   [V AN_POS dtmroc 6]
ELMB Channel 43:   3.676 V   [V AN_POS dtmroc 6]
ELMB Channel 44:   -3.603 V   [V AN_NEG dtmroc 1]
ELMB Channel 45:   -3.702 V   [V AN_NEG dtmroc 2]
ELMB Channel 46:   -3.629 V   [V AN_NEG dtmroc 3]
ELMB Channel 47:   -3.657 V   [V AN_NEG dtmroc 4]
ELMB Channel 48:   -3.680 V   [V AN_NEG dtmroc 5]
ELMB Channel 49:   -3.674 V   [V AN_NEG dtmroc 5]
ELMB Channel 50:   -3.688 V   [V AN_NEG dtmroc 6]
ELMB Channel 51:   -3.709 V   [V AN_NEG dtmroc 6]
ELMB Channel 52:   3.821 V   [V DIGI dtmroc 9]
ELMB Channel 53:   3.786 V   [V DIGI dtmroc 10]
ELMB Channel 54:   3.780 V   [V DIGI dtmroc 11]
ELMB Channel 55:   3.754 V   [V DIGI dtmroc 12]
ELMB Channel 56:   3.753 V   [V DIGI dtmroc 13]
ELMB Channel 57:   3.746 V   [V DIGI dtmroc 13]
ELMB Channel 58:   3.746 V   [V DIGI dtmroc 14]
ELMB Channel 59:   3.734 V   [V DIGI dtmroc 14]

Temperature channels:
Channel 60, temperature 44.91
Channel 61, temperature 45.63
Channel 62, temperature 45.15
Channel 63, temperature 44.13

Current channels
******** 0. 0.744600    1. 0.001440  || 0.746040 
******** 2. 0.743347    3. 0.000000  || 0.743347 
******** 4. 0.740838    5. 0.011975  || 0.752813 
******** 6. 0.739077    7. 0.002190  || 0.741267 
******** 8. 0.747639    9. 0.002250  || 0.749889 
******** 10. 0.745333    11. 0.000275  || 0.745608 
******** 12. 0.752630    13. 0.012328  || 0.764959 
******** 14. 0.741500    15. 0.012165  || 0.753665 
******** 16. 0.741908    17. 0.000616  || 0.742525 
******** 18. 0.734287    19. 0.008315  || 0.742602 
******** 20. 0.735105    21. 0.008320  || 0.743425 
******** 22. 0.731714    23. 0.003867  || 0.735581 
******** 24. 0.742619    25. 0.018010  || 0.760629 
******** 26. 0.746579    27. 0.015200  || 0.761779 
******** 28. 0.740959    29. 0.018941  || 0.759900 
******** 30. 0.744600    31. 0.007119  || 0.751719 
******** 32. 0.752785    33. 0.009588  || 0.762373 
******** 34. 0.746163    35. 0.002696  || 0.748859 

Voltage channels:
ELMB Channel 36:   3.647 V   [V AN_POS dtmroc 1]
ELMB Channel 37:   3.677 V   [V AN_POS dtmroc 2]
ELMB Channel 38:   3.652 V   [V AN_POS dtmroc 3]
ELMB Channel 39:   3.650 V   [V AN_POS dtmroc 4]
ELMB Channel 40:   3.706 V   [V AN_POS dtmroc 5]
ELMB Channel 41:   3.685 V   [V AN_POS dtmroc 5]
ELMB Channel 42:   3.675 V   [V AN_POS dtmroc 6]
ELMB Channel 43:   3.669 V   [V AN_POS dtmroc 6]
ELMB Channel 44:   -3.590 V   [V AN_NEG dtmroc 1]
ELMB Channel 45:   -3.645 V   [V AN_NEG dtmroc 2]
ELMB Channel 46:   -3.620 V   [V AN_NEG dtmroc 3]
ELMB Channel 47:   -3.604 V   [V AN_NEG dtmroc 4]
ELMB Channel 48:   -3.628 V   [V AN_NEG dtmroc 5]
ELMB Channel 49:   -3.605 V   [V AN_NEG dtmroc 5]
ELMB Channel 50:   -3.598 V   [V AN_NEG dtmroc 6]
ELMB Channel 51:   -3.608 V   [V AN_NEG dtmroc 6]
ELMB Channel 52:   3.785 V   [V DIGI dtmroc 9]
ELMB Channel 53:   3.785 V   [V DIGI dtmroc 10]
ELMB Channel 54:   3.777 V   [V DIGI dtmroc 11]
ELMB Channel 55:   3.748 V   [V DIGI dtmroc 12]
ELMB Channel 56:   3.746 V   [V DIGI dtmroc 13]
ELMB Channel 57:   3.732 V   [V DIGI dtmroc 13]
ELMB Channel 58:   3.744 V   [V DIGI dtmroc 14]
ELMB Channel 59:   3.728 V   [V DIGI dtmroc 14]

Temperature channels:
Channel 60, temperature 44.96
Channel 61, temperature 45.95
Channel 62, temperature 45.27
Channel 63, temperature 44.37

Current channels
******** 0. 0.003000    1. 0.746135  || 0.749135 
******** 2. 0.001225    3. 0.747700  || 0.748925 
******** 4. 0.003765    5. 0.732719  || 0.736485 
******** 6. 0.005585    7. 0.742420  || 0.748005 
******** 8. 0.002862    9. 0.750035  || 0.752896 
******** 10. 0.002275    11. 0.741330  || 0.743605 
******** 12. 0.014272    13. 0.753921  || 0.768194 
******** 14. 0.000000    15. 0.760570  || 0.760570 
******** 16. 0.003314    17. 0.737873  || 0.741186 
******** 18. 0.001689    19. 0.756131  || 0.757820 
******** 20. 0.003212    21. 0.759296  || 0.762508 
******** 22. 0.002703    23. 0.747235  || 0.749938 
******** 24. 0.014086    25. 0.738906  || 0.752992 
******** 26. 0.013103    27. 0.735400  || 0.748503 
******** 28. 0.012787    29. 0.734913  || 0.747700 
******** 30. 0.006100    31. 0.746706  || 0.752806 
******** 32. 0.003995    33. 0.747218  || 0.751214 
******** 34. 0.007512    35. 0.745023  || 0.752535 

Voltage channels:
ELMB Channel 36:   3.650 V   [V AN_POS dtmroc 1]
ELMB Channel 37:   3.663 V   [V AN_POS dtmroc 2]
ELMB Channel 38:   3.654 V   [V AN_POS dtmroc 3]
ELMB Channel 39:   3.633 V   [V AN_POS dtmroc 4]
ELMB Channel 40:   3.661 V   [V AN_POS dtmroc 5]
ELMB Channel 41:   3.654 V   [V AN_POS dtmroc 5]
ELMB Channel 42:   3.664 V   [V AN_POS dtmroc 6]
ELMB Channel 43:   3.668 V   [V AN_POS dtmroc 6]
ELMB Channel 44:   -3.598 V   [V AN_NEG dtmroc 1]
ELMB Channel 45:   -3.702 V   [V AN_NEG dtmroc 2]
ELMB Channel 46:   -3.617 V   [V AN_NEG dtmroc 3]
ELMB Channel 47:   -3.658 V   [V AN_NEG dtmroc 4]
ELMB Channel 48:   -3.680 V   [V AN_NEG dtmroc 5]
ELMB Channel 49:   -3.674 V   [V AN_NEG dtmroc 5]
ELMB Channel 50:   -3.688 V   [V AN_NEG dtmroc 6]
ELMB Channel 51:   -3.709 V   [V AN_NEG dtmroc 6]
ELMB Channel 52:   3.820 V   [V DIGI dtmroc 9]
ELMB Channel 53:   3.742 V   [V DIGI dtmroc 10]
ELMB Channel 54:   3.761 V   [V DIGI dtmroc 11]
ELMB Channel 55:   3.738 V   [V DIGI dtmroc 12]
ELMB Channel 56:   3.739 V   [V DIGI dtmroc 13]
ELMB Channel 57:   3.740 V   [V DIGI dtmroc 13]
ELMB Channel 58:   3.723 V   [V DIGI dtmroc 14]
ELMB Channel 59:   3.724 V   [V DIGI dtmroc 14]

Temperature channels:
Channel 60, temperature 44.95
Channel 61, temperature 45.98
Channel 62, temperature 45.31
Channel 63, temperature 44.39

Current channels
******** 0. 0.186100    1. 0.559923  || 0.746023 
******** 2. 0.551041    3. 0.195300  || 0.746341 
******** 4. 0.188417    5. 0.546492  || 0.734909 
******** 6. 0.537687    7. 0.199208  || 0.736895 
******** 8. 0.747644    9. 0.002250  || 0.749893 
******** 10. 0.504206    11. 0.237702  || 0.741908 
******** 12. 0.154593    13. 0.616618  || 0.771211 
******** 14. 0.000000    15. 0.763566  || 0.763566 
******** 16. 0.320694    17. 0.423513  || 0.744206 
******** 18. 0.001689    19. 0.756131  || 0.757820 
******** 20. 0.000211    21. 0.759297  || 0.759509 
******** 22. 0.002703    23. 0.744137  || 0.746840 
******** 24. 0.014085    25. 0.741907  || 0.755992 
******** 26. 0.746579    27. 0.015200  || 0.761779 
******** 28. 0.515047    29. 0.209847  || 0.724894 
******** 30. 0.360100    31. 0.383464  || 0.743564 
******** 32. 0.359067    33. 0.390123  || 0.749190 
******** 34. 0.599649    35. 0.140677  || 0.740325 

Voltage channels:
ELMB Channel 36:   3.656 V   [V AN_POS dtmroc 1]
ELMB Channel 37:   3.679 V   [V AN_POS dtmroc 2]
ELMB Channel 38:   3.661 V   [V AN_POS dtmroc 3]
ELMB Channel 39:   3.653 V   [V AN_POS dtmroc 4]
ELMB Channel 40:   3.705 V   [V AN_POS dtmroc 5]
ELMB Channel 41:   3.685 V   [V AN_POS dtmroc 5]
ELMB Channel 42:   3.678 V   [V AN_POS dtmroc 6]
ELMB Channel 43:   3.676 V   [V AN_POS dtmroc 6]
ELMB Channel 44:   -3.603 V   [V AN_NEG dtmroc 1]
ELMB Channel 45:   -3.702 V   [V AN_NEG dtmroc 2]
ELMB Channel 46:   -3.629 V   [V AN_NEG dtmroc 3]
ELMB Channel 47:   -3.658 V   [V AN_NEG dtmroc 4]
ELMB Channel 48:   -3.680 V   [V AN_NEG dtmroc 5]
ELMB Channel 49:   -3.674 V   [V AN_NEG dtmroc 5]
ELMB Channel 50:   -3.688 V   [V AN_NEG dtmroc 6]
ELMB Channel 51:   -3.709 V   [V AN_NEG dtmroc 6]
ELMB Channel 52:   3.820 V   [V DIGI dtmroc 9]
ELMB Channel 53:   3.786 V   [V DIGI dtmroc 10]
ELMB Channel 54:   3.780 V   [V DIGI dtmroc 11]
ELMB Channel 55:   3.754 V   [V DIGI dtmroc 12]
ELMB Channel 56:   3.753 V   [V DIGI dtmroc 13]
ELMB Channel 57:   3.746 V   [V DIGI dtmroc 13]
ELMB Channel 58:   3.746 V   [V DIGI dtmroc 14]
ELMB Channel 59:   3.734 V   [V DIGI dtmroc 14]

Temperature channels:
Channel 60, temperature 44.96
Channel 61, temperature 46.02
Channel 62, temperature 45.40
Channel 63, temperature 44.42

Current channels
******** 0. 0.744600    1. 0.001440  || 0.746040 
******** 2. 0.746447    3. 0.000000  || 0.746447 
******** 4. 0.740837    5. 0.014976  || 0.755814 
******** 6. 0.739078    7. 0.002190  || 0.741268 
******** 8. 0.750639    9. 0.002249  || 0.752888 
******** 10. 0.745333    11. 0.000275  || 0.745608 
******** 12. 0.752632    13. 0.012328  || 0.764960 
******** 14. 0.741500    15. 0.015165  || 0.756665 
******** 16. 0.741908    17. 0.000616  || 0.742525 
******** 18. 0.737284    19. 0.005316  || 0.742600 
******** 20. 0.735105    21. 0.011422  || 0.746527 
******** 22. 0.731714    23. 0.006867  || 0.738581 
******** 24. 0.742619    25. 0.021010  || 0.763629 
******** 26. 0.746579    27. 0.015200  || 0.761779 
******** 28. 0.740959    29. 0.018941  || 0.759900 
******** 30. 0.747700    31. 0.007119  || 0.754819 
******** 32. 0.752785    33. 0.009588  || 0.762374 
******** 34. 0.743163    35. 0.002696  || 0.745859 

Voltage channels:
ELMB Channel 36:   3.647 V   [V AN_POS dtmroc 1]
ELMB Channel 37:   3.677 V   [V AN_POS dtmroc 2]
ELMB Channel 38:   3.653 V   [V AN_POS dtmroc 3]
ELMB Channel 39:   3.651 V   [V AN_POS dtmroc 4]
ELMB Channel 40:   3.706 V   [V AN_POS dtmroc 5]
ELMB Channel 41:   3.686 V   [V AN_POS dtmroc 5]
ELMB Channel 42:   3.675 V   [V AN_POS dtmroc 6]
ELMB Channel 43:   3.669 V   [V AN_POS dtmroc 6]
ELMB Channel 44:   -3.590 V   [V AN_NEG dtmroc 1]
ELMB Channel 45:   -3.645 V   [V AN_NEG dtmroc 2]
ELMB Channel 46:   -3.620 V   [V AN_NEG dtmroc 3]
ELMB Channel 47:   -3.604 V   [V AN_NEG dtmroc 4]
ELMB Channel 48:   -3.628 V   [V AN_NEG dtmroc 5]
ELMB Channel 49:   -3.605 V   [V AN_NEG dtmroc 5]
ELMB Channel 50:   -3.598 V   [V AN_NEG dtmroc 6]
ELMB Channel 51:   -3.608 V   [V AN_NEG dtmroc 6]
ELMB Channel 52:   3.785 V   [V DIGI dtmroc 9]
ELMB Channel 53:   3.786 V   [V DIGI dtmroc 10]
ELMB Channel 54:   3.777 V   [V DIGI dtmroc 11]
ELMB Channel 55:   3.748 V   [V DIGI dtmroc 12]
ELMB Channel 56:   3.746 V   [V DIGI dtmroc 13]
ELMB Channel 57:   3.731 V   [V DIGI dtmroc 13]
ELMB Channel 58:   3.744 V   [V DIGI dtmroc 14]
ELMB Channel 59:   3.728 V   [V DIGI dtmroc 14]

Temperature channels:
Channel 60, temperature 45.09
Channel 61, temperature 46.26
Channel 62, temperature 45.47
Channel 63, temperature 44.68

Current channels
******** 0. 0.003000    1. 0.746135  || 0.749135 
******** 2. 0.001226    3. 0.744600  || 0.745826 
******** 4. 0.003766    5. 0.732718  || 0.736484 
******** 6. 0.005585    7. 0.745520  || 0.751105 
******** 8. 0.002862    9. 0.750034  || 0.752895 
******** 10. 0.002275    11. 0.744330  || 0.746605 
******** 12. 0.014272    13. 0.753921  || 0.768194 
******** 14. 0.003000    15. 0.763570  || 0.766570 
******** 16. 0.003313    17. 0.737874  || 0.741187 
******** 18. 0.001692    19. 0.756133  || 0.757824 
******** 20. 0.003211    21. 0.759300  || 0.762511 
******** 22. 0.002704    23. 0.747238  || 0.749942 
******** 24. 0.014085    25. 0.741907  || 0.755992 
******** 26. 0.013104    27. 0.735400  || 0.748504 
******** 28. 0.012788    29. 0.734912  || 0.747700 
******** 30. 0.006100    31. 0.746705  || 0.752805 
******** 32. 0.003995    33. 0.747218  || 0.751213 
******** 34. 0.007512    35. 0.745023  || 0.752535 

Voltage channels:
ELMB Channel 36:   3.650 V   [V AN_POS dtmroc 1]
ELMB Channel 37:   3.663 V   [V AN_POS dtmroc 2]
ELMB Channel 38:   3.654 V   [V AN_POS dtmroc 3]
ELMB Channel 39:   3.633 V   [V AN_POS dtmroc 4]
ELMB Channel 40:   3.661 V   [V AN_POS dtmroc 5]
ELMB Channel 41:   3.654 V   [V AN_POS dtmroc 5]
ELMB Channel 42:   3.664 V   [V AN_POS dtmroc 6]
ELMB Channel 43:   3.668 V   [V AN_POS dtmroc 6]
ELMB Channel 44:   -3.598 V   [V AN_NEG dtmroc 1]
ELMB Channel 45:   -3.702 V   [V AN_NEG dtmroc 2]
ELMB Channel 46:   -3.617 V   [V AN_NEG dtmroc 3]
ELMB Channel 47:   -3.658 V   [V AN_NEG dtmroc 4]
ELMB Channel 48:   -3.681 V   [V AN_NEG dtmroc 5]
ELMB Channel 49:   -3.675 V   [V AN_NEG dtmroc 5]
ELMB Channel 50:   -3.689 V   [V AN_NEG dtmroc 6]
ELMB Channel 51:   -3.710 V   [V AN_NEG dtmroc 6]
ELMB Channel 52:   3.820 V   [V DIGI dtmroc 9]
ELMB Channel 53:   3.742 V   [V DIGI dtmroc 10]
ELMB Channel 54:   3.761 V   [V DIGI dtmroc 11]
ELMB Channel 55:   3.739 V   [V DIGI dtmroc 12]
ELMB Channel 56:   3.739 V   [V DIGI dtmroc 13]
ELMB Channel 57:   3.740 V   [V DIGI dtmroc 13]
ELMB Channel 58:   3.723 V   [V DIGI dtmroc 14]
ELMB Channel 59:   3.724 V   [V DIGI dtmroc 14]

Temperature channels:
Channel 60, temperature 45.08
Channel 61, temperature 46.28
Channel 62, temperature 45.52
Channel 63, temperature 44.71

Current channels
******** 0. 0.186100    1. 0.559923  || 0.746023 
******** 2. 0.548041    3. 0.198300  || 0.746341 
******** 4. 0.185417    5. 0.546492  || 0.731909 
******** 6. 0.537687    7. 0.199208  || 0.736895 
******** 8. 0.747642    9. 0.005250  || 0.752892 
******** 10. 0.504203    11. 0.237702  || 0.741905 
******** 12. 0.154595    13. 0.616618  || 0.771212 
******** 14. 0.000000    15. 0.763570  || 0.763570 
******** 16. 0.314593    17. 0.429714  || 0.744307 
******** 18. 0.001692    19. 0.756133  || 0.757824 
******** 20. 0.003211    21. 0.759298  || 0.762509 
******** 22. 0.002705    23. 0.747239  || 0.749944 
******** 24. 0.014085    25. 0.741907  || 0.755992 
******** 26. 0.746579    27. 0.015200  || 0.761779 
******** 28. 0.515047    29. 0.209847  || 0.724894 
******** 30. 0.360100    31. 0.383464  || 0.743564 
******** 32. 0.356068    33. 0.387122  || 0.743191 
******** 34. 0.599649    35. 0.140678  || 0.740327 

Voltage channels:
ELMB Channel 36:   3.656 V   [V AN_POS dtmroc 1]
ELMB Channel 37:   3.679 V   [V AN_POS dtmroc 2]
ELMB Channel 38:   3.661 V   [V AN_POS dtmroc 3]
ELMB Channel 39:   3.653 V   [V AN_POS dtmroc 4]
ELMB Channel 40:   3.706 V   [V AN_POS dtmroc 5]
ELMB Channel 41:   3.685 V   [V AN_POS dtmroc 5]
ELMB Channel 42:   3.679 V   [V AN_POS dtmroc 6]
ELMB Channel 43:   3.676 V   [V AN_POS dtmroc 6]
ELMB Channel 44:   -3.603 V   [V AN_NEG dtmroc 1]
ELMB Channel 45:   -3.702 V   [V AN_NEG dtmroc 2]
ELMB Channel 46:   -3.629 V   [V AN_NEG dtmroc 3]
ELMB Channel 47:   -3.658 V   [V AN_NEG dtmroc 4]
ELMB Channel 48:   -3.681 V   [V AN_NEG dtmroc 5]
ELMB Channel 49:   -3.675 V   [V AN_NEG dtmroc 5]
ELMB Channel 50:   -3.689 V   [V AN_NEG dtmroc 6]
ELMB Channel 51:   -3.710 V   [V AN_NEG dtmroc 6]
ELMB Channel 52:   3.820 V   [V DIGI dtmroc 9]
ELMB Channel 53:   3.786 V   [V DIGI dtmroc 10]
ELMB Channel 54:   3.780 V   [V DIGI dtmroc 11]
ELMB Channel 55:   3.754 V   [V DIGI dtmroc 12]
ELMB Channel 56:   3.752 V   [V DIGI dtmroc 13]
ELMB Channel 57:   3.746 V   [V DIGI dtmroc 13]
ELMB Channel 58:   3.746 V   [V DIGI dtmroc 14]
ELMB Channel 59:   3.734 V   [V DIGI dtmroc 14]

Temperature channels:
Channel 60, temperature 45.10
Channel 61, temperature 46.29
Channel 62, temperature 45.61
Channel 63, temperature 44.75

Current channels
******** 0. 0.744600    1. 0.001440  || 0.746040 
******** 2. 0.746447    3. 0.000000  || 0.746447 
******** 4. 0.743937    5. 0.011976  || 0.755914 
******** 6. 0.739078    7. 0.002190  || 0.741268 
******** 8. 0.750639    9. 0.002249  || 0.752888 
******** 10. 0.745333    11. 0.003375  || 0.748708 
******** 12. 0.752634    13. 0.012328  || 0.764961 
******** 14. 0.741500    15. 0.012170  || 0.753670 
******** 16. 0.741908    17. 0.000615  || 0.742523 
******** 18. 0.737281    19. 0.005318  || 0.742599 
******** 20. 0.735106    21. 0.008324  || 0.743431 
******** 22. 0.731716    23. 0.006865  || 0.738581 
******** 24. 0.742619    25. 0.018010  || 0.760629 
******** 26. 0.746579    27. 0.015200  || 0.761779 
******** 28. 0.740959    29. 0.015841  || 0.756800 
******** 30. 0.747700    31. 0.007119  || 0.754819 
******** 32. 0.752785    33. 0.009588  || 0.762373 
******** 34. 0.746163    35. 0.005696  || 0.751859 

Voltage channels:
ELMB Channel 36:   3.647 V   [V AN_POS dtmroc 1]
ELMB Channel 37:   3.677 V   [V AN_POS dtmroc 2]
ELMB Channel 38:   3.653 V   [V AN_POS dtmroc 3]
ELMB Channel 39:   3.651 V   [V AN_POS dtmroc 4]
ELMB Channel 40:   3.706 V   [V AN_POS dtmroc 5]
ELMB Channel 41:   3.686 V   [V AN_POS dtmroc 5]
ELMB Channel 42:   3.675 V   [V AN_POS dtmroc 6]
ELMB Channel 43:   3.669 V   [V AN_POS dtmroc 6]
ELMB Channel 44:   -3.590 V   [V AN_NEG dtmroc 1]
ELMB Channel 45:   -3.646 V   [V AN_NEG dtmroc 2]
ELMB Channel 46:   -3.620 V   [V AN_NEG dtmroc 3]
ELMB Channel 47:   -3.604 V   [V AN_NEG dtmroc 4]
ELMB Channel 48:   -3.629 V   [V AN_NEG dtmroc 5]
ELMB Channel 49:   -3.606 V   [V AN_NEG dtmroc 5]
ELMB Channel 50:   -3.599 V   [V AN_NEG dtmroc 6]
ELMB Channel 51:   -3.609 V   [V AN_NEG dtmroc 6]
ELMB Channel 52:   3.785 V   [V DIGI dtmroc 9]
ELMB Channel 53:   3.786 V   [V DIGI dtmroc 10]
ELMB Channel 54:   3.777 V   [V DIGI dtmroc 11]
ELMB Channel 55:   3.748 V   [V DIGI dtmroc 12]
ELMB Channel 56:   3.746 V   [V DIGI dtmroc 13]
ELMB Channel 57:   3.732 V   [V DIGI dtmroc 13]
ELMB Channel 58:   3.744 V   [V DIGI dtmroc 14]
ELMB Channel 59:   3.728 V   [V DIGI dtmroc 14]

Temperature channels:
Channel 60, temperature 45.26
Channel 61, temperature 46.51
Channel 62, temperature 45.70
Channel 63, temperature 44.93

Current channels
******** 0. 0.003000    1. 0.746135  || 0.749135 
******** 2. 0.001225    3. 0.744600  || 0.745825 
******** 4. 0.003766    5. 0.732718  || 0.736484 
******** 6. 0.005583    7. 0.745520  || 0.751103 
******** 8. 0.002862    9. 0.750034  || 0.752895 
******** 10. 0.002275    11. 0.741330  || 0.743605 
******** 12. 0.014274    13. 0.753921  || 0.768195 
******** 14. 0.003000    15. 0.760580  || 0.763580 
******** 16. 0.006412    17. 0.737875  || 0.744288 
******** 18. 0.001695    19. 0.756134  || 0.757829 
******** 20. 0.003210    21. 0.759300  || 0.762510 
******** 22. 0.002705    23. 0.747239  || 0.749944 
******** 24. 0.014086    25. 0.741906  || 0.755992 
******** 26. 0.013103    27. 0.735400  || 0.748503 
******** 28. 0.012787    29. 0.734913  || 0.747700 
******** 30. 0.006100    31. 0.746705  || 0.752805 
******** 32. 0.003995    33. 0.747218  || 0.751214 
******** 34. 0.007512    35. 0.745025  || 0.752537 

Voltage channels:
ELMB Channel 36:   3.650 V   [V AN_POS dtmroc 1]
ELMB Channel 37:   3.663 V   [V AN_POS dtmroc 2]
ELMB Channel 38:   3.654 V   [V AN_POS dtmroc 3]
ELMB Channel 39:   3.633 V   [V AN_POS dtmroc 4]
ELMB Channel 40:   3.661 V   [V AN_POS dtmroc 5]
ELMB Channel 41:   3.654 V   [V AN_POS dtmroc 5]
ELMB Channel 42:   3.664 V   [V AN_POS dtmroc 6]
ELMB Channel 43:   3.668 V   [V AN_POS dtmroc 6]
ELMB Channel 44:   -3.599 V   [V AN_NEG dtmroc 1]
ELMB Channel 45:   -3.703 V   [V AN_NEG dtmroc 2]
ELMB Channel 46:   -3.617 V   [V AN_NEG dtmroc 3]
ELMB Channel 47:   -3.658 V   [V AN_NEG dtmroc 4]
ELMB Channel 48:   -3.681 V   [V AN_NEG dtmroc 5]
ELMB Channel 49:   -3.675 V   [V AN_NEG dtmroc 5]
ELMB Channel 50:   -3.689 V   [V AN_NEG dtmroc 6]
ELMB Channel 51:   -3.710 V   [V AN_NEG dtmroc 6]
ELMB Channel 52:   3.820 V   [V DIGI dtmroc 9]
ELMB Channel 53:   3.742 V   [V DIGI dtmroc 10]
ELMB Channel 54:   3.761 V   [V DIGI dtmroc 11]
ELMB Channel 55:   3.739 V   [V DIGI dtmroc 12]
ELMB Channel 56:   3.739 V   [V DIGI dtmroc 13]
ELMB Channel 57:   3.740 V   [V DIGI dtmroc 13]
ELMB Channel 58:   3.723 V   [V DIGI dtmroc 14]
ELMB Channel 59:   3.724 V   [V DIGI dtmroc 14]

Temperature channels:
Channel 60, temperature 45.26
Channel 61, temperature 46.53
Channel 62, temperature 45.75
Channel 63, temperature 44.93

Current channels
******** 0. 0.186100    1. 0.559923  || 0.746023 
******** 2. 0.548041    3. 0.198300  || 0.746341 
******** 4. 0.185417    5. 0.543392  || 0.728809 
******** 6. 0.540687    7. 0.199208  || 0.739895 
******** 8. 0.747644    9. 0.005250  || 0.752893 
******** 10. 0.504203    11. 0.237702  || 0.741905 
******** 12. 0.154596    13. 0.616617  || 0.771214 
******** 14. 0.000000    15. 0.763580  || 0.763580 
******** 16. 0.317593    17. 0.429714  || 0.747307 
******** 18. 0.001695    19. 0.756134  || 0.757829 
******** 20. 0.003210    21. 0.759301  || 0.762511 
******** 22. 0.002706    23. 0.747241  || 0.749947 
******** 24. 0.014085    25. 0.741907  || 0.755992 
******** 26. 0.746579    27. 0.015200  || 0.761779 
******** 28. 0.515047    29. 0.212947  || 0.727994 
******** 30. 0.357000    31. 0.383464  || 0.740464 
******** 32. 0.359067    33. 0.387123  || 0.746190 
******** 34. 0.599649    35. 0.140677  || 0.740325 

Voltage channels:
ELMB Channel 36:   3.656 V   [V AN_POS dtmroc 1]
ELMB Channel 37:   3.679 V   [V AN_POS dtmroc 2]
ELMB Channel 38:   3.661 V   [V AN_POS dtmroc 3]
ELMB Channel 39:   3.653 V   [V AN_POS dtmroc 4]
ELMB Channel 40:   3.705 V   [V AN_POS dtmroc 5]
ELMB Channel 41:   3.685 V   [V AN_POS dtmroc 5]
ELMB Channel 42:   3.679 V   [V AN_POS dtmroc 6]
ELMB Channel 43:   3.676 V   [V AN_POS dtmroc 6]
ELMB Channel 44:   -3.603 V   [V AN_NEG dtmroc 1]
ELMB Channel 45:   -3.703 V   [V AN_NEG dtmroc 2]
ELMB Channel 46:   -3.629 V   [V AN_NEG dtmroc 3]
ELMB Channel 47:   -3.658 V   [V AN_NEG dtmroc 4]
ELMB Channel 48:   -3.681 V   [V AN_NEG dtmroc 5]
ELMB Channel 49:   -3.675 V   [V AN_NEG dtmroc 5]
ELMB Channel 50:   -3.689 V   [V AN_NEG dtmroc 6]
ELMB Channel 51:   -3.710 V   [V AN_NEG dtmroc 6]
ELMB Channel 52:   3.820 V   [V DIGI dtmroc 9]
ELMB Channel 53:   3.786 V   [V DIGI dtmroc 10]
ELMB Channel 54:   3.780 V   [V DIGI dtmroc 11]
ELMB Channel 55:   3.754 V   [V DIGI dtmroc 12]
ELMB Channel 56:   3.753 V   [V DIGI dtmroc 13]
ELMB Channel 57:   3.746 V   [V DIGI dtmroc 13]
ELMB Channel 58:   3.746 V   [V DIGI dtmroc 14]
ELMB Channel 59:   3.734 V   [V DIGI dtmroc 14]

Temperature channels:
Channel 60, temperature 45.28
Channel 61, temperature 46.55
Channel 62, temperature 45.83
Channel 63, temperature 44.93

Current channels
******** 0. 0.003000    1. 0.002989  || 0.005989 
ERROR: curr not in range ON  (0.003 A): ELMB channel 0 [I AN_POS dtmroc 1]
******** 2. 0.002990    3. 0.003000  || 0.005990 
ERROR: curr not in range ON  (0.003 A): ELMB channel 2 [I AN_POS dtmroc 2]
******** 4. 0.000014    5. 0.000021  || 0.000034 
ERROR: curr not in range ON  (0.000 A): ELMB channel 4 [I AN_POS dtmroc 3]
******** 6. 0.000016    7. 0.000003  || 0.000019 
ERROR: curr not in range ON  (0.000 A): ELMB channel 6 [I AN_POS dtmroc 4]
******** 8. 0.002969    9. 0.002987  || 0.005956 
ERROR: curr not in range ON  (0.003 A): ELMB channel 8 [I AN_POS dtmroc 5]
******** 10. 0.000041    11. 0.000017  || 0.000058 
ERROR: curr not in range ON  (0.000 A): ELMB channel 10 [I AN_POS dtmroc 6]
******** 12. 0.003026    13. 0.000004  || 0.003030 
ERROR: curr not in range ON  (0.003 A): ELMB channel 12 [I AN_NEG dtmroc 1]
******** 14. 0.000000    15. 0.000071  || 0.000071 
ERROR: curr not in range ON  (0.000 A): ELMB channel 14 [I AN_NEG dtmroc 2]
******** 16. 0.009092    17. 0.003016  || 0.012108 
ERROR: curr not in range ON  (0.009 A): ELMB channel 16 [I AN_NEG dtmroc 3]
******** 18. 0.000041    19. 0.003019  || 0.003060 
ERROR: curr not in range ON  (0.000 A): ELMB channel 18 [I AN_NEG dtmroc 4]
******** 20. 0.000001    21. 0.009101  || 0.009102 
ERROR: curr not in range ON  (0.000 A): ELMB channel 20 [I AN_NEG dtmroc 5]
******** 22. 0.003002    23. 0.000003  || 0.003005 
ERROR: curr not in range ON  (0.003 A): ELMB channel 22 [I AN_NEG dtmroc 6]
******** 24. 0.000005    25. 0.003007  || 0.003012 
ERROR: curr not in range ON  (0.000 A): ELMB channel 24 [I DIGI dtmroc 9]
******** 26. 0.000005    27. 0.000000  || 0.000005 
ERROR: curr not in range ON  (0.000 A): ELMB channel 26 [I DIGI dtmroc 10]
******** 28. 0.000007    29. 0.000007  || 0.000014 
ERROR: curr not in range ON  (0.000 A): ELMB channel 28 [I DIGI dtmroc 11]
******** 30. 0.000000    31. 0.000005  || 0.000005 
ERROR: curr not in range ON  (0.000 A): ELMB channel 30 [I DIGI dtmroc 12]
******** 32. 0.002995    33. 0.003001  || 0.005996 
ERROR: curr not in range ON  (0.003 A): ELMB channel 32 [I DIGI dtmroc 13]
******** 34. 0.002990    35. 0.002995  || 0.005985 
ERROR: curr not in range ON  (0.003 A): ELMB channel 34 [I DIGI dtmroc 14]

Voltage channels:
ELMB Channel 36:   0.005 V   [V AN_POS dtmroc 1]
ERROR: voltage too LOW (0.005 V) in ELMB channel 36 [V AN_POS dtmroc 1]
ELMB Channel 37:   0.005 V   [V AN_POS dtmroc 2]
ERROR: voltage too LOW (0.005 V) in ELMB channel 37 [V AN_POS dtmroc 2]
ELMB Channel 38:   0.005 V   [V AN_POS dtmroc 3]
ERROR: voltage too LOW (0.005 V) in ELMB channel 38 [V AN_POS dtmroc 3]
ELMB Channel 39:   0.005 V   [V AN_POS dtmroc 4]
ERROR: voltage too LOW (0.005 V) in ELMB channel 39 [V AN_POS dtmroc 4]
ELMB Channel 40:   0.005 V   [V AN_POS dtmroc 5]
ERROR: voltage too LOW (0.005 V) in ELMB channel 40 [V AN_POS dtmroc 5]
ELMB Channel 41:   0.005 V   [V AN_POS dtmroc 5]
ERROR: voltage too LOW (0.005 V) in ELMB channel 41 [V AN_POS dtmroc 5]
ELMB Channel 42:   0.005 V   [V AN_POS dtmroc 6]
ERROR: voltage too LOW (0.005 V) in ELMB channel 42 [V AN_POS dtmroc 6]
ELMB Channel 43:   0.005 V   [V AN_POS dtmroc 6]
ERROR: voltage too LOW (0.005 V) in ELMB channel 43 [V AN_POS dtmroc 6]
ELMB Channel 44:   0.005 V   [V AN_NEG dtmroc 1]
ERROR: voltage too LOW (0.005 V) in ELMB channel 44 [V AN_NEG dtmroc 1]
ELMB Channel 45:   0.005 V   [V AN_NEG dtmroc 2]
ERROR: voltage too LOW (0.005 V) in ELMB channel 45 [V AN_NEG dtmroc 2]
ELMB Channel 46:   0.005 V   [V AN_NEG dtmroc 3]
ERROR: voltage too LOW (0.005 V) in ELMB channel 46 [V AN_NEG dtmroc 3]
ELMB Channel 47:   0.005 V   [V AN_NEG dtmroc 4]
ERROR: voltage too LOW (0.005 V) in ELMB channel 47 [V AN_NEG dtmroc 4]
ELMB Channel 48:   0.001 V   [V AN_NEG dtmroc 5]
ERROR: voltage too LOW (0.001 V) in ELMB channel 48 [V AN_NEG dtmroc 5]
ELMB Channel 49:   0.000 V   [V AN_NEG dtmroc 5]
ERROR: voltage too LOW (0.000 V) in ELMB channel 49 [V AN_NEG dtmroc 5]
ELMB Channel 50:   0.001 V   [V AN_NEG dtmroc 6]
ERROR: voltage too LOW (0.001 V) in ELMB channel 50 [V AN_NEG dtmroc 6]
ELMB Channel 51:   0.001 V   [V AN_NEG dtmroc 6]
ERROR: voltage too LOW (0.001 V) in ELMB channel 51 [V AN_NEG dtmroc 6]
ELMB Channel 52:   0.002 V   [V DIGI dtmroc 9]
ERROR: voltage too LOW (0.002 V) in ELMB channel 52 [V DIGI dtmroc 9]
ELMB Channel 53:   0.002 V   [V DIGI dtmroc 10]
ERROR: voltage too LOW (0.002 V) in ELMB channel 53 [V DIGI dtmroc 10]
ELMB Channel 54:   0.002 V   [V DIGI dtmroc 11]
ERROR: voltage too LOW (0.002 V) in ELMB channel 54 [V DIGI dtmroc 11]
ELMB Channel 55:   0.002 V   [V DIGI dtmroc 12]
ERROR: voltage too LOW (0.002 V) in ELMB channel 55 [V DIGI dtmroc 12]
ELMB Channel 56:   0.002 V   [V DIGI dtmroc 13]
ERROR: voltage too LOW (0.002 V) in ELMB channel 56 [V DIGI dtmroc 13]
ELMB Channel 57:   0.001 V   [V DIGI dtmroc 13]
ERROR: voltage too LOW (0.001 V) in ELMB channel 57 [V DIGI dtmroc 13]
ELMB Channel 58:   0.002 V   [V DIGI dtmroc 14]
ERROR: voltage too LOW (0.002 V) in ELMB channel 58 [V DIGI dtmroc 14]
ELMB Channel 59:   0.001 V   [V DIGI dtmroc 14]
ERROR: voltage too LOW (0.001 V) in ELMB channel 59 [V DIGI dtmroc 14]

Temperature channels:
Channel 60, temperature 45.16
Channel 61, temperature 45.85
Channel 62, temperature 45.20
Channel 63, temperature 44.46

Current channels
******** 0. 0.003000    1. 0.002989  || 0.005989 
ERROR: curr not in range ON  (0.003 A): ELMB channel 1 [I AN_POS dtmroc 1]
******** 2. 0.002990    3. 0.003000  || 0.005990 
ERROR: curr not in range ON  (0.003 A): ELMB channel 3 [I AN_POS dtmroc 2]
******** 4. 0.000014    5. 0.000021  || 0.000034 
ERROR: curr not in range ON  (0.000 A): ELMB channel 5 [I AN_POS dtmroc 3]
******** 6. 0.000016    7. 0.000003  || 0.000019 
ERROR: curr not in range ON  (0.000 A): ELMB channel 7 [I AN_POS dtmroc 4]
******** 8. 0.002967    9. 0.000013  || 0.002980 
ERROR: curr not in range ON  (0.000 A): ELMB channel 9 [I AN_POS dtmroc 5]
******** 10. 0.000038    11. 0.000017  || 0.000055 
ERROR: curr not in range ON  (0.000 A): ELMB channel 11 [I AN_POS dtmroc 6]
******** 12. 0.000026    13. 0.002996  || 0.003021 
ERROR: curr not in range ON  (0.003 A): ELMB channel 13 [I AN_NEG dtmroc 1]
******** 14. 0.000000    15. 0.000071  || 0.000071 
ERROR: curr not in range ON  (0.000 A): ELMB channel 15 [I AN_NEG dtmroc 2]
******** 16. 0.009092    17. 0.003016  || 0.012108 
ERROR: curr not in range ON  (0.003 A): ELMB channel 17 [I AN_NEG dtmroc 3]
******** 18. 0.000041    19. 0.003019  || 0.003060 
ERROR: curr not in range ON  (0.003 A): ELMB channel 19 [I AN_NEG dtmroc 4]
******** 20. 0.000001    21. 0.009101  || 0.009102 
ERROR: curr not in range ON  (0.009 A): ELMB channel 21 [I AN_NEG dtmroc 5]
******** 22. 0.000002    23. 0.000003  || 0.000005 
ERROR: curr not in range ON  (0.000 A): ELMB channel 23 [I AN_NEG dtmroc 6]
******** 24. 0.000005    25. 0.003007  || 0.003012 
ERROR: curr not in range ON  (0.003 A): ELMB channel 25 [I DIGI dtmroc 9]
******** 26. 0.000005    27. 0.000000  || 0.000005 
ERROR: curr not in range ON  (0.000 A): ELMB channel 27 [I DIGI dtmroc 10]
******** 28. 0.000007    29. 0.000007  || 0.000014 
ERROR: curr not in range ON  (0.000 A): ELMB channel 29 [I DIGI dtmroc 11]
******** 30. 0.000000    31. 0.000005  || 0.000005 
ERROR: curr not in range ON  (0.000 A): ELMB channel 31 [I DIGI dtmroc 12]
******** 32. 0.002995    33. 0.003001  || 0.005996 
ERROR: curr not in range ON  (0.003 A): ELMB channel 33 [I DIGI dtmroc 13]
******** 34. 0.002990    35. 0.002995  || 0.005985 
ERROR: curr not in range ON  (0.003 A): ELMB channel 35 [I DIGI dtmroc 14]

Voltage channels:
ELMB Channel 36:   0.005 V   [V AN_POS dtmroc 1]
ERROR: voltage too LOW (0.005 V) in ELMB channel 36 [V AN_POS dtmroc 1]
ELMB Channel 37:   0.005 V   [V AN_POS dtmroc 2]
ERROR: voltage too LOW (0.005 V) in ELMB channel 37 [V AN_POS dtmroc 2]
ELMB Channel 38:   0.005 V   [V AN_POS dtmroc 3]
ERROR: voltage too LOW (0.005 V) in ELMB channel 38 [V AN_POS dtmroc 3]
ELMB Channel 39:   0.005 V   [V AN_POS dtmroc 4]
ERROR: voltage too LOW (0.005 V) in ELMB channel 39 [V AN_POS dtmroc 4]
ELMB Channel 40:   0.005 V   [V AN_POS dtmroc 5]
ERROR: voltage too LOW (0.005 V) in ELMB channel 40 [V AN_POS dtmroc 5]
ELMB Channel 41:   0.005 V   [V AN_POS dtmroc 5]
ERROR: voltage too LOW (0.005 V) in ELMB channel 41 [V AN_POS dtmroc 5]
ELMB Channel 42:   0.005 V   [V AN_POS dtmroc 6]
ERROR: voltage too LOW (0.005 V) in ELMB channel 42 [V AN_POS dtmroc 6]
ELMB Channel 43:   0.005 V   [V AN_POS dtmroc 6]
ERROR: voltage too LOW (0.005 V) in ELMB channel 43 [V AN_POS dtmroc 6]
ELMB Channel 44:   0.005 V   [V AN_NEG dtmroc 1]
ERROR: voltage too LOW (0.005 V) in ELMB channel 44 [V AN_NEG dtmroc 1]
ELMB Channel 45:   0.005 V   [V AN_NEG dtmroc 2]
ERROR: voltage too LOW (0.005 V) in ELMB channel 45 [V AN_NEG dtmroc 2]
ELMB Channel 46:   0.005 V   [V AN_NEG dtmroc 3]
ERROR: voltage too LOW (0.005 V) in ELMB channel 46 [V AN_NEG dtmroc 3]
ELMB Channel 47:   0.005 V   [V AN_NEG dtmroc 4]
ERROR: voltage too LOW (0.005 V) in ELMB channel 47 [V AN_NEG dtmroc 4]
ELMB Channel 48:   0.001 V   [V AN_NEG dtmroc 5]
ERROR: voltage too LOW (0.001 V) in ELMB channel 48 [V AN_NEG dtmroc 5]
ELMB Channel 49:   0.000 V   [V AN_NEG dtmroc 5]
ERROR: voltage too LOW (0.000 V) in ELMB channel 49 [V AN_NEG dtmroc 5]
ELMB Channel 50:   0.001 V   [V AN_NEG dtmroc 6]
ERROR: voltage too LOW (0.001 V) in ELMB channel 50 [V AN_NEG dtmroc 6]
ELMB Channel 51:   0.001 V   [V AN_NEG dtmroc 6]
ERROR: voltage too LOW (0.001 V) in ELMB channel 51 [V AN_NEG dtmroc 6]
ELMB Channel 52:   0.002 V   [V DIGI dtmroc 9]
ERROR: voltage too LOW (0.002 V) in ELMB channel 52 [V DIGI dtmroc 9]
ELMB Channel 53:   0.002 V   [V DIGI dtmroc 10]
ERROR: voltage too LOW (0.002 V) in ELMB channel 53 [V DIGI dtmroc 10]
ELMB Channel 54:   0.002 V   [V DIGI dtmroc 11]
ERROR: voltage too LOW (0.002 V) in ELMB channel 54 [V DIGI dtmroc 11]
ELMB Channel 55:   0.002 V   [V DIGI dtmroc 12]
ERROR: voltage too LOW (0.002 V) in ELMB channel 55 [V DIGI dtmroc 12]
ELMB Channel 56:   0.002 V   [V DIGI dtmroc 13]
ERROR: voltage too LOW (0.002 V) in ELMB channel 56 [V DIGI dtmroc 13]
ELMB Channel 57:   0.001 V   [V DIGI dtmroc 13]
ERROR: voltage too LOW (0.001 V) in ELMB channel 57 [V DIGI dtmroc 13]
ELMB Channel 58:   0.002 V   [V DIGI dtmroc 14]
ERROR: voltage too LOW (0.002 V) in ELMB channel 58 [V DIGI dtmroc 14]
ELMB Channel 59:   0.001 V   [V DIGI dtmroc 14]
ERROR: voltage too LOW (0.001 V) in ELMB channel 59 [V DIGI dtmroc 14]

Temperature channels:
Channel 60, temperature 45.06
Channel 61, temperature 45.64
Channel 62, temperature 45.00
Channel 63, temperature 44.26

Current channels
******** 0. 0.003000    1. 0.002989  || 0.005989 
ERROR: not in range ON  (0.006 A): ELMB channels 0 1 [I AN_POS dtmroc 1]
******** 2. 0.002990    3. 0.003000  || 0.005990 
ERROR: not in range ON  (0.006 A): ELMB channels 2 3 [I AN_POS dtmroc 2]
******** 4. 0.000014    5. 0.000021  || 0.000034 
ERROR: not in range ON  (0.000 A): ELMB channels 4 5 [I AN_POS dtmroc 3]
******** 6. 0.000015    7. 0.000003  || 0.000018 
ERROR: not in range ON  (0.000 A): ELMB channels 6 7 [I AN_POS dtmroc 4]
******** 8. 0.002969    9. 0.000014  || 0.002983 
ERROR: not in range ON  (0.003 A): ELMB channels 8 9 [I AN_POS dtmroc 5]
******** 10. 0.002959    11. 0.000017  || 0.002976 
ERROR: not in range ON  (0.003 A): ELMB channels 10 11 [I AN_POS dtmroc 6]
******** 12. 0.003026    13. 0.000004  || 0.003030 
ERROR: not in range ON  (0.003 A): ELMB channels 12 13 [I AN_NEG dtmroc 1]
******** 14. 0.000000    15. 0.000071  || 0.000071 
ERROR: not in range ON  (0.000 A): ELMB channels 14 15 [I AN_NEG dtmroc 2]
******** 16. 0.006092    17. 0.003016  || 0.009108 
ERROR: not in range ON  (0.009 A): ELMB channels 16 17 [I AN_NEG dtmroc 3]
******** 18. 0.000041    19. 0.003019  || 0.003060 
ERROR: not in range ON  (0.003 A): ELMB channels 18 19 [I AN_NEG dtmroc 4]
******** 20. 0.000001    21. 0.009101  || 0.009102 
ERROR: not in range ON  (0.009 A): ELMB channels 20 21 [I AN_NEG dtmroc 5]
******** 22. 0.000002    23. 0.000003  || 0.000005 
ERROR: not in range ON  (0.000 A): ELMB channels 22 23 [I AN_NEG dtmroc 6]
******** 24. 0.000005    25. 0.000007  || 0.000012 
ERROR: not in range ON  (0.000 A): ELMB channels 24 25 [I DIGI dtmroc 9]
******** 26. 0.000005    27. 0.000000  || 0.000005 
ERROR: not in range ON  (0.000 A): ELMB channels 26 27 [I DIGI dtmroc 10]
******** 28. 0.002993    29. 0.000007  || 0.003000 
ERROR: not in range ON  (0.003 A): ELMB channels 28 29 [I DIGI dtmroc 11]
******** 30. 0.003000    31. 0.002995  || 0.005995 
ERROR: not in range ON  (0.006 A): ELMB channels 30 31 [I DIGI dtmroc 12]
******** 32. 0.002995    33. 0.003001  || 0.005996 
ERROR: not in range ON  (0.006 A): ELMB channels 32 33 [I DIGI dtmroc 13]
******** 34. 0.002990    35. 0.002995  || 0.005985 
ERROR: not in range ON  (0.006 A): ELMB channels 34 35 [I DIGI dtmroc 14]

Voltage channels:
ELMB Channel 36:   0.005 V   [V AN_POS dtmroc 1]
ERROR: voltage too LOW (0.005 V) in ELMB channel 36 [V AN_POS dtmroc 1]
ELMB Channel 37:   0.005 V   [V AN_POS dtmroc 2]
ERROR: voltage too LOW (0.005 V) in ELMB channel 37 [V AN_POS dtmroc 2]
ELMB Channel 38:   0.005 V   [V AN_POS dtmroc 3]
ERROR: voltage too LOW (0.005 V) in ELMB channel 38 [V AN_POS dtmroc 3]
ELMB Channel 39:   0.004 V   [V AN_POS dtmroc 4]
ERROR: voltage too LOW (0.004 V) in ELMB channel 39 [V AN_POS dtmroc 4]
ELMB Channel 40:   0.005 V   [V AN_POS dtmroc 5]
ERROR: voltage too LOW (0.005 V) in ELMB channel 40 [V AN_POS dtmroc 5]
ELMB Channel 41:   0.005 V   [V AN_POS dtmroc 5]
ERROR: voltage too LOW (0.005 V) in ELMB channel 41 [V AN_POS dtmroc 5]
ELMB Channel 42:   0.005 V   [V AN_POS dtmroc 6]
ERROR: voltage too LOW (0.005 V) in ELMB channel 42 [V AN_POS dtmroc 6]
ELMB Channel 43:   0.005 V   [V AN_POS dtmroc 6]
ERROR: voltage too LOW (0.005 V) in ELMB channel 43 [V AN_POS dtmroc 6]
ELMB Channel 44:   0.005 V   [V AN_NEG dtmroc 1]
ERROR: voltage too LOW (0.005 V) in ELMB channel 44 [V AN_NEG dtmroc 1]
ELMB Channel 45:   0.005 V   [V AN_NEG dtmroc 2]
ERROR: voltage too LOW (0.005 V) in ELMB channel 45 [V AN_NEG dtmroc 2]
ELMB Channel 46:   0.005 V   [V AN_NEG dtmroc 3]
ERROR: voltage too LOW (0.005 V) in ELMB channel 46 [V AN_NEG dtmroc 3]
ELMB Channel 47:   0.005 V   [V AN_NEG dtmroc 4]
ERROR: voltage too LOW (0.005 V) in ELMB channel 47 [V AN_NEG dtmroc 4]
ELMB Channel 48:   0.000 V   [V AN_NEG dtmroc 5]
ERROR: voltage too LOW (0.000 V) in ELMB channel 48 [V AN_NEG dtmroc 5]
ELMB Channel 49:   0.000 V   [V AN_NEG dtmroc 5]
ERROR: voltage too LOW (0.000 V) in ELMB channel 49 [V AN_NEG dtmroc 5]
ELMB Channel 50:   0.001 V   [V AN_NEG dtmroc 6]
ERROR: voltage too LOW (0.001 V) in ELMB channel 50 [V AN_NEG dtmroc 6]
ELMB Channel 51:   0.001 V   [V AN_NEG dtmroc 6]
ERROR: voltage too LOW (0.001 V) in ELMB channel 51 [V AN_NEG dtmroc 6]
ELMB Channel 52:   0.002 V   [V DIGI dtmroc 9]
ERROR: voltage too LOW (0.002 V) in ELMB channel 52 [V DIGI dtmroc 9]
ELMB Channel 53:   0.002 V   [V DIGI dtmroc 10]
ERROR: voltage too LOW (0.002 V) in ELMB channel 53 [V DIGI dtmroc 10]
ELMB Channel 54:   0.002 V   [V DIGI dtmroc 11]
ERROR: voltage too LOW (0.002 V) in ELMB channel 54 [V DIGI dtmroc 11]
ELMB Channel 55:   0.002 V   [V DIGI dtmroc 12]
ERROR: voltage too LOW (0.002 V) in ELMB channel 55 [V DIGI dtmroc 12]
ELMB Channel 56:   0.002 V   [V DIGI dtmroc 13]
ERROR: voltage too LOW (0.002 V) in ELMB channel 56 [V DIGI dtmroc 13]
ELMB Channel 57:   0.001 V   [V DIGI dtmroc 13]
ERROR: voltage too LOW (0.001 V) in ELMB channel 57 [V DIGI dtmroc 13]
ELMB Channel 58:   0.002 V   [V DIGI dtmroc 14]
ERROR: voltage too LOW (0.002 V) in ELMB channel 58 [V DIGI dtmroc 14]
ELMB Channel 59:   0.001 V   [V DIGI dtmroc 14]
ERROR: voltage too LOW (0.001 V) in ELMB channel 59 [V DIGI dtmroc 14]

Temperature channels:
Channel 60, temperature 44.95
Channel 61, temperature 45.42
Channel 62, temperature 44.79
Channel 63, temperature 44.06

 TEST is finished: temperature,current or voltage error. 30.09.2009 10:59:49
