Calibration done: 27.03.2007 16:05:07,,
F870,,
Current channel, calibration factor,
0,-0.000857,-0.3204
1,0.000383,0.1434
2,0.000603,0.2258
3,0.000914,0.3448
4,-0.000799,-0.3021
5,0.001553,0.5859
6,-0.000604,-0.2288
7,0.00026,0.0976
8,0.000728,0.2777
9,-0.000587,-0.2227
10,-0.000676,-0.2563
11,-0.00053,-0.1983
12,-0.000302,0.1068
13,-0.000174,0.061
14,0.000011,-0.0061
15,0.000174,-0.064
16,-0.000275,0.0976
17,0.000144,-0.0518
18,0.000879,-0.3173
19,-0.000251,0.0885
20,-0.00098,0.357
21,0.000672,-0.2441
22,0.000295,-0.1037
23,-0.001059,0.3784
24,-0.000485,-0.1556
25,0.000244,0.0793
26,0.00012,0.0396
27,0.000284,0.0946
28,0.000703,0.2288
29,0.000796,0.2563
30,-0.001685,-0.5462
31,0.000789,0.2563
32,-0.000016,-0.0061
33,0.001941,0.6317
34,-0.000805,-0.2624
35,-0.001629,-0.531
