Calibration done: 17.05.2007 14:40:43
F040
Current channel, calibration factor
0  , -0.000027 ,  -0.009100
1  , 0.000008 ,  0.003000
2  , -0.000012 ,  -0.006100
3  , 0.000009 ,  0.003000
4  , 0.000057 ,  0.021300
5  , 0.000000 ,  0.000000
6  , 0.000049 ,  0.018300
7  , 0.000001 ,  0.000000
8  , 0.000121 ,  0.045700
9  , -0.000101 ,  -0.036600
10  , 0.000125 ,  0.045700
11  , -0.000020 ,  -0.009100
12  , -0.000055 ,  0.018300
13  , -0.000003 ,  0.000000
14  , -0.000068 ,  0.024400
15  , -0.000003 ,  0.000000
16  , 0.000099 ,  -0.036600
17  , -0.000010 ,  0.003000
18  , -0.000068 ,  0.024400
19  , -0.000010 ,  0.003000
20  , -0.000039 ,  0.015200
21  , 0.000096 ,  -0.036600
22  , -0.000029 ,  0.009100
23  , -0.000147 ,  0.054900
24  , 0.000054 ,  0.015200
25  , 0.000010 ,  0.003000
26  , 0.000092 ,  0.030500
27  , 0.000005 ,  0.000000
28  , -0.000053 ,  -0.015200
29  , 0.000004 ,  0.000000
30  , -0.000138 ,  -0.042700
31  , 0.000003 ,  0.000000
32  , 0.000019 ,  0.006100
33  , 0.000008 ,  0.003000
34  , 0.000059 ,  0.018300
35  , 0.000025 ,  0.009100
