=====================================================
Calibration: card TYPE Wheel A
=====================================================
Calibration File Name: C:\LVPP_TESTS\data\card_149\LVPP_CALIB_149.csv

Calibration started: 06.05.2007 20:08:59
ELMB serial number: F455
Calibration file stored
Calibration started: 06.05.2007 20:10:26

