=====================================================
Calibration: card TYPE Wheel A
=====================================================
Calibration File Name: C:\LVPP_TESTS\data\card_104\LVPP_CALIB_104.csv

Calibration started: 27.04.2007 09:20:12

Calibration file stored
Calibration started: 27.04.2007 09:21:35

