Calibration done: 22.09.2009 15:16:09
F735
Current channel, calibration factor
0  , 0.000007 ,  0.003000
1  , 0.000008 ,  0.003000
2  , 0.000009 ,  0.003000
3  , 0.000008 ,  0.003000
4  , 0.000040 ,  0.015200
5  , 0.000001 ,  0.000000
6  , -0.000022 ,  -0.009100
7  , 0.000000 ,  0.000000
8  , -0.000040 ,  -0.015200
9  , -0.000076 ,  -0.027400
10  , 0.000053 ,  0.018300
11  , 0.000042 ,  0.015200
12  , 0.000038 ,  -0.015200
13  , -0.000002 ,  0.003000
14  , -0.000019 ,  0.006100
15  , -0.000002 ,  0.000000
16  , 0.000046 ,  -0.018300
17  , -0.000003 ,  0.003000
18  , 0.000027 ,  -0.009100
19  , -0.000006 ,  0.003000
20  , 0.000000 ,  0.000000
21  , -0.000038 ,  0.012200
22  , -0.000048 ,  0.018300
23  , -0.000143 ,  0.051800
24  , -0.000119 ,  -0.036600
25  , 0.000008 ,  0.000000
26  , 0.000106 ,  0.033500
27  , 0.000010 ,  0.003000
28  , 0.000000 ,  0.000000
29  , 0.000000 ,  0.000000
30  , 0.000057 ,  0.018300
31  , 0.000003 ,  0.000000
32  , 0.000010 ,  0.003000
33  , 0.000129 ,  0.042700
34  , -0.000001 ,  -0.003000
35  , -0.000127 ,  -0.039600
