Card Number: 2

ELMB Channel 0 DAC 3: 0x8080 (-1520198844)(i<i+1)
ELMB Channel 2 DAC 3: 0x8080 (32896)(i>i+1)
ELMB Channel 4 DAC 3: 0x8080 (32896)(i>i+1)
ELMB Channel 6 DAC 3: 0x8080 (-1520198844)(i<i+1)
ELMB Channel 8 DAC 3: 0x8080 (-1520198844)(i<i+1)
ELMB Channel 10 DAC 3: 0x8080 (-1520198844)(i<i+1)
ELMB Channel 12 DAC 3: 0x8081 (32897)(i>i+1)
ELMB Channel 14 DAC 3: 0x807F (32895)(i>i+1)
ELMB Channel 16 DAC 3: 0x807F (32895)(i>i+1)
ELMB Channel 18 DAC 3: 0x8081 (32897)(i>i+1)
ELMB Channel 20 DAC 3: 0x8081 (32897)(i>i+1)
ELMB Channel 22 DAC 3: 0x8081 (-1520198844)(i<i+1)
ELMB Channel 24 DAC 2: 0x8080 (32896)(i>i+1)
ELMB Channel 26 DAC 2: 0x8080 (32896)(i>i+1)
ELMB Channel 28 DAC 2: 0x8080 (-1520198844)(i<i+1)
ELMB Channel 30 DAC 2: 0x8080 (-1520198844)(i<i+1)
ELMB Channel 32 DAC 2: 0x8080 (32896)(i>i+1)
ELMB Channel 34 DAC 2: 0x8080 (-1520198844)(i<i+1)

Analog Positive 
Voltage channel 1: DAC I1: 128 DAC I2: 129 
Voltage channel 2: DAC I1: 128 DAC I2: 127 
Voltage channel 3: DAC I1: 128 DAC I2: 127 
Voltage channel 4: DAC I1: 128 DAC I2: 129 
Voltage channel 5: DAC I1: 128 DAC I2: 129 
Voltage channel 6: DAC I1: 128 DAC I2: 129 

Analog Negative 
Voltage channel 1: DAC I1: 128 DAC I2: 127 
Voltage channel 2: DAC I1: 128 DAC I2: 127 
Voltage channel 3: DAC I1: 128 DAC I2: 127 
Voltage channel 4: DAC I1: 128 DAC I2: 127 
Voltage channel 5: DAC I1: 128 DAC I2: 127 
Voltage channel 6: DAC I1: 128 DAC I2: 129 

Digital 
Voltage channel 7: DAC I1: 128 DAC I2: 127 
Voltage channel 8: DAC I1: 128 DAC I2: 127 
Voltage channel 8: DAC I1: 128 DAC I2: 129 
Voltage channel 9: DAC I1: 128 DAC I2: 129 
Voltage channel 9: DAC I1: 128 DAC I2: 127 
Voltage channel 10: DAC I1: 128 DAC I2: 129 
