Calibration done: 21.06.2007 10:51:22
F355
Current channel, calibration factor
0  , 0.000348 ,  0.131200
1  , 0.000199 ,  0.073200
2  , -0.000031 ,  -0.012200
3  , 0.000161 ,  0.061000
4  , 0.000401 ,  0.152500
5  , 0.000188 ,  0.070100
6  , 0.000504 ,  0.189200
7  , 0.000197 ,  0.073200
8  , -0.000908 ,  -0.341800
9  , -0.001005 ,  -0.378400
10  , -0.000120 ,  -0.045700
11  , 0.000345 ,  0.131200
12  , -0.000125 ,  0.045700
13  , 0.000191 ,  -0.070100
14  , -0.000116 ,  0.039600
15  , 0.000762 ,  -0.274600
16  , -0.000896 ,  0.320400
17  , 0.000812 ,  -0.289900
18  , 0.000082 ,  -0.030500
19  , -0.000577 ,  0.204400
20  , -0.001063 ,  0.387500
21  , -0.000076 ,  0.027400
22  , 0.000685 ,  -0.250200
23  , -0.001684 ,  0.610300
24  , 0.000147 ,  0.048800
25  , -0.000104 ,  -0.033500
26  , 0.000414 ,  0.134200
27  , 0.000356 ,  0.112900
28  , -0.000554 ,  -0.180000
29  , 0.000871 ,  0.280700
30  , 0.000316 ,  0.100700
31  , -0.000376 ,  -0.122000
32  , -0.000199 ,  -0.061000
33  , 0.000031 ,  0.009100
34  , 0.000153 ,  0.051800
35  , 0.000089 ,  0.030500
