=====================================================
Calibration: card TYPE Wheel A
=====================================================
Calibration File Name: C:\LVPP_TESTS\data\card_109\LVPP_CALIB_109.csv

Calibration started: 08.05.2007 14:45:42
ELMB serial number: F583
Calibration file stored
Calibration started: 08.05.2007 14:47:09

