Calibration done: 18.03.2014 11:53:32
G967
Current channel, calibration factor
0  , -0.000318 ,  -0.119000
1  , 0.000246 ,  0.091500
2  , -0.000512 ,  -0.192200
3  , -0.000134 ,  -0.048800
4  , -0.000738 ,  -0.277700
5  , 0.001180 ,  0.442500
6  , -0.000622 ,  -0.234900
7  , -0.000069 ,  -0.027400
8  , -0.000038 ,  -0.015200
9  , -0.000360 ,  -0.140300
10  , 0.000186 ,  0.070100
11  , -0.000100 ,  -0.036600
12  , 0.000181 ,  -0.064000
13  , -0.000402 ,  0.143400
14  , -0.000244 ,  0.088500
15  , -0.000602 ,  0.219700
16  , 0.000027 ,  -0.009100
17  , -0.000320 ,  0.115900
18  , -0.000703 ,  0.259400
19  , -0.000215 ,  0.079300
20  , 0.000743 ,  -0.274600
21  , 0.001295 ,  -0.473000
22  , -0.000143 ,  0.051800
23  , -0.000170 ,  0.061000
24  , 0.000041 ,  0.012200
25  , -0.000057 ,  -0.018300
26  , -0.000084 ,  -0.024400
27  , 0.000077 ,  0.024400
28  , 0.000114 ,  0.036600
29  , 0.000794 ,  0.259400
30  , -0.000074 ,  -0.021300
31  , 0.000204 ,  0.064000
32  , -0.000509 ,  -0.161700
33  , -0.000101 ,  -0.030500
34  , 0.000126 ,  0.039600
35  , 0.000150 ,  0.051800
