Calibration done: 04.05.2007 15:50:45,,
F918,,
Current channel, calibration factor,
0,0.000298,0.1129
1,0.000014,0.0061
2,0.000166,0.064
3,0.000001,0
4,-0.000842,-0.3173
5,0.000032,0.0122
6,-0.001388,-0.5218
7,-0.000004,-0.003
8,-0.001228,-0.4669
9,-0.000899,-0.3357
10,0.000987,0.3723
11,0.000658,0.2502
12,-0.000137,0.0518
13,0,0
14,0.000888,-0.3295
15,0,0
16,0.001392,-0.5188
17,-0.000006,0.003
18,0.001116,-0.415
19,-0.000003,0.003
20,0.000752,-0.2838
21,0.001292,-0.4791
22,0.000825,-0.3112
23,0.00033,-0.1251
24,0.000296,0.0946
25,0,0.003
26,-0.000245,-0.0762
27,0,0
28,0.001176,0.3784
29,0,0.003
30,0.001633,0.5249
31,0,0
32,0.001097,0.354
33,-0.000421,-0.1373
34,0.00166,0.534
35,-0.000301,-0.0946
