=====================================================
Calibration: card TYPE Wheel A
=====================================================
Calibration File Name: C:\LVPP_TESTS\data\card_165\LVPP_CALIB_165.csv

Calibration started: 10.05.2007 11:23:27
ELMB serial number: F455
Calibration file stored
Calibration started: 10.05.2007 11:24:54

