Calibration done: 20.04.2007 14:48:13,,
F684,,
Current channel, calibration factor,
0,0.000005,0.003
1,0.000003,0.003
2,0.000027,0.0091
3,0.000007,0
4,-0.000035,-0.0152
5,0,0
6,-0.000005,-0.003
7,0,0
8,-0.000105,-0.0396
9,-0.000042,-0.0152
10,0,0
11,-0.00009,-0.0335
12,-0.000018,0.0061
13,-0.000001,0
14,0.000097,-0.0366
15,-0.000001,0
16,-0.000036,0.0122
17,-0.000004,0
18,-0.000015,0.0061
19,-0.000009,0
20,-0.00007,0.0244
21,-0.000014,0.003
22,0.000033,-0.0122
23,-0.000071,0.0274
24,-0.000024,-0.0061
25,0.000009,0.003
26,0.000063,0.0213
27,0.000002,0.003
28,-0.000048,-0.0152
29,0.000003,0
30,-0.000043,-0.0152
31,0.000001,0
32,-0.000003,0
33,-0.000031,-0.0091
34,0.000008,0.003
35,-0.000032,-0.0091
