===================================================
Check basic functions of a card TYPE Wheel B/Barrel
====================================================
Card Serial Number: 101
Starting test: CAN device can4  ELMB ID 1   Card number 101  - 40 loops 

CANBus,ELMB,DTMROC initialization 
Initializing of CANBUS OK
Initializing of Init_ELMB OK
Initializing of DTMROCS OK
DTMROC-i: 1 2 3 4 5 6 9 10 11 12 13 14 
CALIBRATION FILE: lvppCalib/card_101/LVPP_CALIB_101.csv
Load: 5 ohms, valid current range: <0.520 A - 0.820 A> 
                temperature range: <15.10 C - 60.00 C> 

TEST is started: 08.06.2015 16:16:10

ELMB <1> init OK
ELMB NB: 1 Initializing of DTMROCS: 1 2 3 4 5 6 9 10 11 12 13 14 
Single Write/Read DACs 01 23 in all DTMROCS

Write to all DACs  - broadcast
Check set INHIBITS
Set all regulators ON one by one
Set all regulators OFF one by one
Set all regulators ON - BROADCAST
Set all regulators OFF - BROADCAST

Check ANALOG readout

Hard reset: all regulators are off, all DACs are set to 0xFF.
Current channels
******** 0. 0.002380  
******** 2. 0.003645  
******** 4. 0.000811  
******** 6. 0.000020  
******** 8. 0.002849  
******** 9. 0.003016  
******** 10. 0.002678  
******** 11. 0.003156  
******** 12. 0.000104  
******** 14. 0.000329  
******** 16. 0.009183  
******** 18. 0.000218  
******** 20. 0.002973  
******** 21. 0.009069  
******** 22. 0.002997  
******** 23. 0.000056  
******** 24. 0.003105  
******** 26. 0.002851  
******** 28. 0.000036  
******** 30. 0.000258  
******** 32. 0.003017  
******** 33. 0.002881  
******** 34. 0.003289  
******** 35. 0.003085  
Voltage channels 3.000000  3.920000
ELMB Channel 36:   0.006 V   [V AN_POS dtmroc 1]
ELMB Channel 37:   0.005 V   [V AN_POS dtmroc 2]
ELMB Channel 38:   0.005 V   [V AN_POS dtmroc 3]
ELMB Channel 39:   0.005 V   [V AN_POS dtmroc 4]
ELMB Channel 40:   0.005 V   [V AN_POS dtmroc 5]
ELMB Channel 41:   0.005 V   [V AN_POS dtmroc 5]
ELMB Channel 42:   0.005 V   [V AN_POS dtmroc 6]
ELMB Channel 43:   0.005 V   [V AN_POS dtmroc 6]
ELMB Channel 44:   0.005 V   [V AN_NEG dtmroc 1]
ELMB Channel 45:   0.005 V   [V AN_NEG dtmroc 2]
ELMB Channel 46:   0.005 V   [V AN_NEG dtmroc 3]
ELMB Channel 47:   0.005 V   [V AN_NEG dtmroc 4]
ELMB Channel 48:   0.001 V   [V AN_NEG dtmroc 5]
ELMB Channel 49:   0.000 V   [V AN_NEG dtmroc 5]
ELMB Channel 50:   0.001 V   [V AN_NEG dtmroc 6]
ELMB Channel 51:   0.001 V   [V AN_NEG dtmroc 6]
ELMB Channel 52:   0.002 V   [V DIGI dtmroc 9]
ELMB Channel 53:   0.003 V   [V DIGI dtmroc 10]
ELMB Channel 54:   0.003 V   [V DIGI dtmroc 11]
ELMB Channel 55:   0.002 V   [V DIGI dtmroc 12]
ELMB Channel 56:   0.002 V   [V DIGI dtmroc 13]
ELMB Channel 57:   0.002 V   [V DIGI dtmroc 13]
ELMB Channel 58:   0.002 V   [V DIGI dtmroc 14]
ELMB Channel 59:   0.001 V   [V DIGI dtmroc 14]
Channel 60, temperature 39.69
Channel 61, temperature 39.07
Channel 62, temperature 38.48
Channel 63, temperature 38.04
Temperature channels

Set all regulators ON
Current channels
******** 0. 0.774038  
******** 2. 0.766546  
******** 4. 0.759582  
******** 6. 0.757198  
******** 8. 0.737890  
******** 9. 0.758993  
******** 10. 0.757892  
******** 11. 0.740650  
******** 12. 0.758689  
******** 14. 0.752004  
******** 16. 0.752528  
******** 18. 0.741063  
******** 20. 0.736689  
******** 21. 0.750918  
******** 22. 0.770926  
******** 23. 0.757833  
******** 24. 0.725877  
******** 26. 0.718375  
******** 28. 0.733289  
******** 30. 0.720933  
******** 32. 0.745474  
******** 33. 0.736060  
******** 34. 0.728372  
******** 35. 0.762693  
Voltage channels 3.000000  3.920000
ELMB Channel 36:   3.657 V   [V AN_POS dtmroc 1]
ELMB Channel 37:   3.639 V   [V AN_POS dtmroc 2]
ELMB Channel 38:   3.667 V   [V AN_POS dtmroc 3]
ELMB Channel 39:   3.651 V   [V AN_POS dtmroc 4]
ELMB Channel 40:   3.684 V   [V AN_POS dtmroc 5]
ELMB Channel 41:   3.643 V   [V AN_POS dtmroc 5]
ELMB Channel 42:   3.655 V   [V AN_POS dtmroc 6]
ELMB Channel 43:   3.653 V   [V AN_POS dtmroc 6]
ELMB Channel 44:   -3.681 V   [V AN_NEG dtmroc 1]
ELMB Channel 45:   -3.619 V   [V AN_NEG dtmroc 2]
ELMB Channel 46:   -3.626 V   [V AN_NEG dtmroc 3]
ELMB Channel 47:   -3.628 V   [V AN_NEG dtmroc 4]
ELMB Channel 48:   -3.621 V   [V AN_NEG dtmroc 5]
ELMB Channel 49:   -3.629 V   [V AN_NEG dtmroc 5]
ELMB Channel 50:   -3.639 V   [V AN_NEG dtmroc 6]
ELMB Channel 51:   -3.643 V   [V AN_NEG dtmroc 6]
ELMB Channel 52:   3.730 V   [V DIGI dtmroc 9]
ELMB Channel 53:   3.718 V   [V DIGI dtmroc 10]
ELMB Channel 54:   3.681 V   [V DIGI dtmroc 11]
ELMB Channel 55:   3.683 V   [V DIGI dtmroc 12]
ELMB Channel 56:   3.691 V   [V DIGI dtmroc 13]
ELMB Channel 57:   3.667 V   [V DIGI dtmroc 13]
ELMB Channel 58:   3.666 V   [V DIGI dtmroc 14]
ELMB Channel 59:   3.692 V   [V DIGI dtmroc 14]
Channel 60, temperature 39.67
Channel 61, temperature 39.13
Channel 62, temperature 38.50
Channel 63, temperature 38.13
Temperature channels
Current channels
******** 0. 0.774038  
******** 2. 0.763546  
******** 4. 0.759582  
******** 6. 0.757198  
******** 8. 0.737890  
******** 9. 0.758993  
******** 10. 0.760971  
******** 11. 0.740650  
******** 12. 0.758676  
******** 14. 0.754984  
******** 16. 0.752539  
******** 18. 0.744132  
******** 20. 0.736648  
******** 21. 0.753856  
******** 22. 0.770923  
******** 23. 0.757777  
******** 24. 0.728992  
******** 26. 0.721375  
******** 28. 0.733289  
******** 30. 0.720933  
******** 32. 0.745477  
******** 33. 0.733037  
******** 34. 0.725331  
******** 35. 0.762715  
Voltage channels 3.000000  3.920000
ELMB Channel 36:   3.657 V   [V AN_POS dtmroc 1]
ELMB Channel 37:   3.639 V   [V AN_POS dtmroc 2]
ELMB Channel 38:   3.667 V   [V AN_POS dtmroc 3]
ELMB Channel 39:   3.651 V   [V AN_POS dtmroc 4]
ELMB Channel 40:   3.684 V   [V AN_POS dtmroc 5]
ELMB Channel 41:   3.643 V   [V AN_POS dtmroc 5]
ELMB Channel 42:   3.655 V   [V AN_POS dtmroc 6]
ELMB Channel 43:   3.653 V   [V AN_POS dtmroc 6]
ELMB Channel 44:   -3.682 V   [V AN_NEG dtmroc 1]
ELMB Channel 45:   -3.620 V   [V AN_NEG dtmroc 2]
ELMB Channel 46:   -3.627 V   [V AN_NEG dtmroc 3]
ELMB Channel 47:   -3.629 V   [V AN_NEG dtmroc 4]
ELMB Channel 48:   -3.622 V   [V AN_NEG dtmroc 5]
ELMB Channel 49:   -3.630 V   [V AN_NEG dtmroc 5]
ELMB Channel 50:   -3.639 V   [V AN_NEG dtmroc 6]
ELMB Channel 51:   -3.643 V   [V AN_NEG dtmroc 6]
ELMB Channel 52:   3.730 V   [V DIGI dtmroc 9]
ELMB Channel 53:   3.718 V   [V DIGI dtmroc 10]
ELMB Channel 54:   3.681 V   [V DIGI dtmroc 11]
ELMB Channel 55:   3.683 V   [V DIGI dtmroc 12]
ELMB Channel 56:   3.691 V   [V DIGI dtmroc 13]
ELMB Channel 57:   3.668 V   [V DIGI dtmroc 13]
ELMB Channel 58:   3.666 V   [V DIGI dtmroc 14]
ELMB Channel 59:   3.692 V   [V DIGI dtmroc 14]
Channel 60, temperature 39.67
Channel 61, temperature 39.35
Channel 62, temperature 38.59
Channel 63, temperature 38.44
Temperature channels
Current channels
******** 0. 0.774038  
******** 2. 0.766546  
******** 4. 0.759582  
******** 6. 0.757197  
******** 8. 0.737880  
******** 9. 0.758994  
******** 10. 0.757871  
******** 11. 0.737650  
******** 12. 0.755576  
******** 14. 0.754963  
******** 16. 0.752539  
******** 18. 0.744132  
******** 20. 0.736635  
******** 21. 0.753793  
******** 22. 0.774021  
******** 23. 0.757750  
******** 24. 0.728992  
******** 26. 0.721356  
******** 28. 0.733289  
******** 30. 0.723933  
******** 32. 0.745474  
******** 33. 0.736037  
******** 34. 0.728431  
******** 35. 0.762715  
Voltage channels 3.000000  3.920000
ELMB Channel 36:   3.657 V   [V AN_POS dtmroc 1]
ELMB Channel 37:   3.639 V   [V AN_POS dtmroc 2]
ELMB Channel 38:   3.667 V   [V AN_POS dtmroc 3]
ELMB Channel 39:   3.650 V   [V AN_POS dtmroc 4]
ELMB Channel 40:   3.684 V   [V AN_POS dtmroc 5]
ELMB Channel 41:   3.643 V   [V AN_POS dtmroc 5]
ELMB Channel 42:   3.655 V   [V AN_POS dtmroc 6]
ELMB Channel 43:   3.653 V   [V AN_POS dtmroc 6]
ELMB Channel 44:   -3.682 V   [V AN_NEG dtmroc 1]
ELMB Channel 45:   -3.620 V   [V AN_NEG dtmroc 2]
ELMB Channel 46:   -3.627 V   [V AN_NEG dtmroc 3]
ELMB Channel 47:   -3.629 V   [V AN_NEG dtmroc 4]
ELMB Channel 48:   -3.623 V   [V AN_NEG dtmroc 5]
ELMB Channel 49:   -3.630 V   [V AN_NEG dtmroc 5]
ELMB Channel 50:   -3.640 V   [V AN_NEG dtmroc 6]
ELMB Channel 51:   -3.644 V   [V AN_NEG dtmroc 6]
ELMB Channel 52:   3.730 V   [V DIGI dtmroc 9]
ELMB Channel 53:   3.718 V   [V DIGI dtmroc 10]
ELMB Channel 54:   3.681 V   [V DIGI dtmroc 11]
ELMB Channel 55:   3.683 V   [V DIGI dtmroc 12]
ELMB Channel 56:   3.691 V   [V DIGI dtmroc 13]
ELMB Channel 57:   3.668 V   [V DIGI dtmroc 13]
ELMB Channel 58:   3.666 V   [V DIGI dtmroc 14]
ELMB Channel 59:   3.692 V   [V DIGI dtmroc 14]
Channel 60, temperature 39.70
Channel 61, temperature 39.63
Channel 62, temperature 38.74
Channel 63, temperature 38.82
Temperature channels
Current channels
******** 0. 0.777038  
******** 2. 0.763546  
******** 4. 0.756427  
******** 6. 0.754197  
******** 8. 0.737880  
******** 9. 0.758993  
******** 10. 0.760971  
******** 11. 0.737650  
******** 12. 0.758663  
******** 14. 0.754922  
******** 16. 0.752550  
******** 18. 0.744116  
******** 20. 0.739708  
******** 21. 0.756862  
******** 22. 0.774018  
******** 23. 0.757721  
******** 24. 0.728992  
******** 26. 0.718356  
******** 28. 0.733289  
******** 30. 0.720933  
******** 32. 0.745477  
******** 33. 0.736037  
******** 34. 0.728431  
******** 35. 0.762715  
Voltage channels 3.000000  3.920000
ELMB Channel 36:   3.657 V   [V AN_POS dtmroc 1]
ELMB Channel 37:   3.639 V   [V AN_POS dtmroc 2]
ELMB Channel 38:   3.666 V   [V AN_POS dtmroc 3]
ELMB Channel 39:   3.650 V   [V AN_POS dtmroc 4]
ELMB Channel 40:   3.684 V   [V AN_POS dtmroc 5]
ELMB Channel 41:   3.643 V   [V AN_POS dtmroc 5]
ELMB Channel 42:   3.655 V   [V AN_POS dtmroc 6]
ELMB Channel 43:   3.653 V   [V AN_POS dtmroc 6]
ELMB Channel 44:   -3.682 V   [V AN_NEG dtmroc 1]
ELMB Channel 45:   -3.621 V   [V AN_NEG dtmroc 2]
ELMB Channel 46:   -3.627 V   [V AN_NEG dtmroc 3]
ELMB Channel 47:   -3.629 V   [V AN_NEG dtmroc 4]
ELMB Channel 48:   -3.623 V   [V AN_NEG dtmroc 5]
ELMB Channel 49:   -3.631 V   [V AN_NEG dtmroc 5]
ELMB Channel 50:   -3.640 V   [V AN_NEG dtmroc 6]
ELMB Channel 51:   -3.644 V   [V AN_NEG dtmroc 6]
ELMB Channel 52:   3.730 V   [V DIGI dtmroc 9]
ELMB Channel 53:   3.718 V   [V DIGI dtmroc 10]
ELMB Channel 54:   3.681 V   [V DIGI dtmroc 11]
ELMB Channel 55:   3.683 V   [V DIGI dtmroc 12]
ELMB Channel 56:   3.691 V   [V DIGI dtmroc 13]
ELMB Channel 57:   3.668 V   [V DIGI dtmroc 13]
ELMB Channel 58:   3.666 V   [V DIGI dtmroc 14]
ELMB Channel 59:   3.692 V   [V DIGI dtmroc 14]
Channel 60, temperature 39.75
Channel 61, temperature 39.93
Channel 62, temperature 38.92
Channel 63, temperature 39.20
Temperature channels
Current channels
******** 0. 0.777038  
******** 2. 0.763546  
******** 4. 0.756482  
******** 6. 0.757197  
******** 8. 0.740880  
******** 9. 0.758994  
******** 10. 0.760950  
******** 11. 0.737660  
******** 12. 0.758663  
******** 14. 0.754922  
******** 16. 0.752550  
******** 18. 0.744116  
******** 20. 0.739681  
******** 21. 0.753668  
******** 22. 0.777015  
******** 23. 0.757665  
******** 24. 0.728992  
******** 26. 0.721356  
******** 28. 0.736289  
******** 30. 0.720933  
******** 32. 0.745480  
******** 33. 0.736012  
******** 34. 0.728431  
******** 35. 0.762715  
Voltage channels 3.000000  3.920000
ELMB Channel 36:   3.657 V   [V AN_POS dtmroc 1]
ELMB Channel 37:   3.639 V   [V AN_POS dtmroc 2]
ELMB Channel 38:   3.667 V   [V AN_POS dtmroc 3]
ELMB Channel 39:   3.650 V   [V AN_POS dtmroc 4]
ELMB Channel 40:   3.684 V   [V AN_POS dtmroc 5]
ELMB Channel 41:   3.643 V   [V AN_POS dtmroc 5]
ELMB Channel 42:   3.655 V   [V AN_POS dtmroc 6]
ELMB Channel 43:   3.654 V   [V AN_POS dtmroc 6]
ELMB Channel 44:   -3.682 V   [V AN_NEG dtmroc 1]
ELMB Channel 45:   -3.621 V   [V AN_NEG dtmroc 2]
ELMB Channel 46:   -3.627 V   [V AN_NEG dtmroc 3]
ELMB Channel 47:   -3.629 V   [V AN_NEG dtmroc 4]
ELMB Channel 48:   -3.624 V   [V AN_NEG dtmroc 5]
ELMB Channel 49:   -3.632 V   [V AN_NEG dtmroc 5]
ELMB Channel 50:   -3.641 V   [V AN_NEG dtmroc 6]
ELMB Channel 51:   -3.645 V   [V AN_NEG dtmroc 6]
ELMB Channel 52:   3.730 V   [V DIGI dtmroc 9]
ELMB Channel 53:   3.718 V   [V DIGI dtmroc 10]
ELMB Channel 54:   3.681 V   [V DIGI dtmroc 11]
ELMB Channel 55:   3.683 V   [V DIGI dtmroc 12]
ELMB Channel 56:   3.692 V   [V DIGI dtmroc 13]
ELMB Channel 57:   3.668 V   [V DIGI dtmroc 13]
ELMB Channel 58:   3.666 V   [V DIGI dtmroc 14]
ELMB Channel 59:   3.692 V   [V DIGI dtmroc 14]
Channel 60, temperature 39.84
Channel 61, temperature 40.23
Channel 62, temperature 39.12
Channel 63, temperature 39.59
Temperature channels
Current channels
******** 0. 0.777002  
******** 2. 0.766587  
******** 4. 0.759527  
******** 6. 0.757198  
******** 8. 0.737880  
******** 9. 0.758994  
******** 10. 0.757850  
******** 11. 0.737660  
******** 12. 0.758656  
******** 14. 0.754901  
******** 16. 0.752561  
******** 18. 0.744101  
******** 20. 0.736568  
******** 21. 0.753637  
******** 22. 0.774015  
******** 23. 0.757638  
******** 24. 0.725892  
******** 26. 0.721356  
******** 28. 0.733293  
******** 30. 0.720896  
******** 32. 0.748480  
******** 33. 0.739137  
******** 34. 0.728431  
******** 35. 0.765815  
Voltage channels 3.000000  3.920000
ELMB Channel 36:   3.657 V   [V AN_POS dtmroc 1]
ELMB Channel 37:   3.639 V   [V AN_POS dtmroc 2]
ELMB Channel 38:   3.666 V   [V AN_POS dtmroc 3]
ELMB Channel 39:   3.651 V   [V AN_POS dtmroc 4]
ELMB Channel 40:   3.684 V   [V AN_POS dtmroc 5]
ELMB Channel 41:   3.643 V   [V AN_POS dtmroc 5]
ELMB Channel 42:   3.655 V   [V AN_POS dtmroc 6]
ELMB Channel 43:   3.654 V   [V AN_POS dtmroc 6]
ELMB Channel 44:   -3.683 V   [V AN_NEG dtmroc 1]
ELMB Channel 45:   -3.621 V   [V AN_NEG dtmroc 2]
ELMB Channel 46:   -3.628 V   [V AN_NEG dtmroc 3]
ELMB Channel 47:   -3.629 V   [V AN_NEG dtmroc 4]
ELMB Channel 48:   -3.624 V   [V AN_NEG dtmroc 5]
ELMB Channel 49:   -3.632 V   [V AN_NEG dtmroc 5]
ELMB Channel 50:   -3.641 V   [V AN_NEG dtmroc 6]
ELMB Channel 51:   -3.645 V   [V AN_NEG dtmroc 6]
ELMB Channel 52:   3.730 V   [V DIGI dtmroc 9]
ELMB Channel 53:   3.718 V   [V DIGI dtmroc 10]
ELMB Channel 54:   3.681 V   [V DIGI dtmroc 11]
ELMB Channel 55:   3.684 V   [V DIGI dtmroc 12]
ELMB Channel 56:   3.692 V   [V DIGI dtmroc 13]
ELMB Channel 57:   3.668 V   [V DIGI dtmroc 13]
ELMB Channel 58:   3.666 V   [V DIGI dtmroc 14]
ELMB Channel 59:   3.692 V   [V DIGI dtmroc 14]
Channel 60, temperature 39.95
Channel 61, temperature 40.54
Channel 62, temperature 39.33
Channel 63, temperature 39.99
Temperature channels
Current channels
******** 0. 0.777002  
******** 2. 0.766587  
******** 4. 0.759582  
******** 6. 0.757198  
******** 8. 0.740870  
******** 9. 0.758994  
******** 10. 0.760950  
******** 11. 0.737660  
******** 12. 0.755550  
******** 14. 0.754901  
******** 16. 0.752561  
******** 18. 0.744085  
******** 20. 0.736527  
******** 21. 0.753575  
******** 22. 0.777012  
******** 23. 0.757582  
******** 24. 0.725907  
******** 26. 0.718337  
******** 28. 0.736293  
******** 30. 0.720859  
******** 32. 0.745480  
******** 33. 0.736012  
******** 34. 0.725331  
******** 35. 0.762715  
Voltage channels 3.000000  3.920000
ELMB Channel 36:   3.657 V   [V AN_POS dtmroc 1]
ELMB Channel 37:   3.639 V   [V AN_POS dtmroc 2]
ELMB Channel 38:   3.667 V   [V AN_POS dtmroc 3]
ELMB Channel 39:   3.651 V   [V AN_POS dtmroc 4]
ELMB Channel 40:   3.684 V   [V AN_POS dtmroc 5]
ELMB Channel 41:   3.643 V   [V AN_POS dtmroc 5]
ELMB Channel 42:   3.655 V   [V AN_POS dtmroc 6]
ELMB Channel 43:   3.654 V   [V AN_POS dtmroc 6]
ELMB Channel 44:   -3.683 V   [V AN_NEG dtmroc 1]
ELMB Channel 45:   -3.621 V   [V AN_NEG dtmroc 2]
ELMB Channel 46:   -3.628 V   [V AN_NEG dtmroc 3]
ELMB Channel 47:   -3.630 V   [V AN_NEG dtmroc 4]
ELMB Channel 48:   -3.625 V   [V AN_NEG dtmroc 5]
ELMB Channel 49:   -3.633 V   [V AN_NEG dtmroc 5]
ELMB Channel 50:   -3.642 V   [V AN_NEG dtmroc 6]
ELMB Channel 51:   -3.646 V   [V AN_NEG dtmroc 6]
ELMB Channel 52:   3.731 V   [V DIGI dtmroc 9]
ELMB Channel 53:   3.718 V   [V DIGI dtmroc 10]
ELMB Channel 54:   3.681 V   [V DIGI dtmroc 11]
ELMB Channel 55:   3.684 V   [V DIGI dtmroc 12]
ELMB Channel 56:   3.692 V   [V DIGI dtmroc 13]
ELMB Channel 57:   3.668 V   [V DIGI dtmroc 13]
ELMB Channel 58:   3.666 V   [V DIGI dtmroc 14]
ELMB Channel 59:   3.692 V   [V DIGI dtmroc 14]
Channel 60, temperature 40.07
Channel 61, temperature 40.84
Channel 62, temperature 39.56
Channel 63, temperature 40.39
Temperature channels
Current channels
******** 0. 0.776965  
******** 2. 0.766587  
******** 4. 0.759582  
******** 6. 0.757198  
******** 8. 0.743970  
******** 9. 0.758994  
******** 10. 0.760950  
******** 11. 0.737660  
******** 12. 0.758637  
******** 14. 0.757960  
******** 16. 0.752567  
******** 18. 0.744054  
******** 20. 0.736514  
******** 21. 0.753512  
******** 22. 0.777011  
******** 23. 0.757525  
******** 24. 0.729007  
******** 26. 0.718337  
******** 28. 0.736293  
******** 30. 0.720859  
******** 32. 0.745480  
******** 33. 0.736012  
******** 34. 0.728488  
******** 35. 0.765837  
Voltage channels 3.000000  3.920000
ELMB Channel 36:   3.657 V   [V AN_POS dtmroc 1]
ELMB Channel 37:   3.639 V   [V AN_POS dtmroc 2]
ELMB Channel 38:   3.667 V   [V AN_POS dtmroc 3]
ELMB Channel 39:   3.651 V   [V AN_POS dtmroc 4]
ELMB Channel 40:   3.684 V   [V AN_POS dtmroc 5]
ELMB Channel 41:   3.643 V   [V AN_POS dtmroc 5]
ELMB Channel 42:   3.655 V   [V AN_POS dtmroc 6]
ELMB Channel 43:   3.654 V   [V AN_POS dtmroc 6]
ELMB Channel 44:   -3.684 V   [V AN_NEG dtmroc 1]
ELMB Channel 45:   -3.622 V   [V AN_NEG dtmroc 2]
ELMB Channel 46:   -3.628 V   [V AN_NEG dtmroc 3]
ELMB Channel 47:   -3.630 V   [V AN_NEG dtmroc 4]
ELMB Channel 48:   -3.626 V   [V AN_NEG dtmroc 5]
ELMB Channel 49:   -3.633 V   [V AN_NEG dtmroc 5]
ELMB Channel 50:   -3.642 V   [V AN_NEG dtmroc 6]
ELMB Channel 51:   -3.646 V   [V AN_NEG dtmroc 6]
ELMB Channel 52:   3.731 V   [V DIGI dtmroc 9]
ELMB Channel 53:   3.718 V   [V DIGI dtmroc 10]
ELMB Channel 54:   3.681 V   [V DIGI dtmroc 11]
ELMB Channel 55:   3.684 V   [V DIGI dtmroc 12]
ELMB Channel 56:   3.692 V   [V DIGI dtmroc 13]
ELMB Channel 57:   3.668 V   [V DIGI dtmroc 13]
ELMB Channel 58:   3.666 V   [V DIGI dtmroc 14]
ELMB Channel 59:   3.692 V   [V DIGI dtmroc 14]
Channel 60, temperature 40.21
Channel 61, temperature 41.15
Channel 62, temperature 39.78
Channel 63, temperature 40.80
Temperature channels
Current channels
******** 0. 0.776965  
******** 2. 0.766587  
******** 4. 0.759635  
******** 6. 0.757200  
******** 8. 0.740870  
******** 9. 0.758994  
******** 10. 0.760950  
******** 11. 0.737670  
******** 12. 0.758630  
******** 14. 0.757919  
******** 16. 0.752578  
******** 18. 0.744039  
******** 20. 0.736487  
******** 21. 0.753449  
******** 22. 0.777008  
******** 23. 0.757497  
******** 24. 0.725907  
******** 26. 0.718319  
******** 28. 0.733298  
******** 30. 0.720859  
******** 32. 0.748483  
******** 33. 0.736012  
******** 34. 0.728488  
******** 35. 0.765837  
Voltage channels 3.000000  3.920000
ELMB Channel 36:   3.657 V   [V AN_POS dtmroc 1]
ELMB Channel 37:   3.639 V   [V AN_POS dtmroc 2]
ELMB Channel 38:   3.667 V   [V AN_POS dtmroc 3]
ELMB Channel 39:   3.651 V   [V AN_POS dtmroc 4]
ELMB Channel 40:   3.684 V   [V AN_POS dtmroc 5]
ELMB Channel 41:   3.643 V   [V AN_POS dtmroc 5]
ELMB Channel 42:   3.655 V   [V AN_POS dtmroc 6]
ELMB Channel 43:   3.654 V   [V AN_POS dtmroc 6]
ELMB Channel 44:   -3.684 V   [V AN_NEG dtmroc 1]
ELMB Channel 45:   -3.622 V   [V AN_NEG dtmroc 2]
ELMB Channel 46:   -3.629 V   [V AN_NEG dtmroc 3]
ELMB Channel 47:   -3.631 V   [V AN_NEG dtmroc 4]
ELMB Channel 48:   -3.626 V   [V AN_NEG dtmroc 5]
ELMB Channel 49:   -3.634 V   [V AN_NEG dtmroc 5]
ELMB Channel 50:   -3.643 V   [V AN_NEG dtmroc 6]
ELMB Channel 51:   -3.647 V   [V AN_NEG dtmroc 6]
ELMB Channel 52:   3.731 V   [V DIGI dtmroc 9]
ELMB Channel 53:   3.719 V   [V DIGI dtmroc 10]
ELMB Channel 54:   3.681 V   [V DIGI dtmroc 11]
ELMB Channel 55:   3.684 V   [V DIGI dtmroc 12]
ELMB Channel 56:   3.692 V   [V DIGI dtmroc 13]
ELMB Channel 57:   3.668 V   [V DIGI dtmroc 13]
ELMB Channel 58:   3.666 V   [V DIGI dtmroc 14]
ELMB Channel 59:   3.692 V   [V DIGI dtmroc 14]
Channel 60, temperature 40.37
Channel 61, temperature 41.45
Channel 62, temperature 40.01
Channel 63, temperature 41.19
Temperature channels
Current channels
******** 0. 0.776965  
******** 2. 0.766587  
******** 4. 0.759635  
******** 6. 0.757198  
******** 8. 0.740860  
******** 9. 0.758996  
******** 10. 0.760928  
******** 11. 0.737670  
******** 12. 0.758630  
******** 14. 0.754798  
******** 16. 0.752578  
******** 18. 0.740939  
******** 20. 0.739560  
******** 21. 0.753387  
******** 22. 0.777006  
******** 23. 0.757413  
******** 24. 0.729007  
******** 26. 0.721319  
******** 28. 0.736302  
******** 30. 0.720823  
******** 32. 0.748483  
******** 33. 0.736012  
******** 34. 0.728488  
******** 35. 0.765837  
Voltage channels 3.000000  3.920000
ELMB Channel 36:   3.657 V   [V AN_POS dtmroc 1]
ELMB Channel 37:   3.639 V   [V AN_POS dtmroc 2]
ELMB Channel 38:   3.667 V   [V AN_POS dtmroc 3]
ELMB Channel 39:   3.651 V   [V AN_POS dtmroc 4]
ELMB Channel 40:   3.685 V   [V AN_POS dtmroc 5]
ELMB Channel 41:   3.644 V   [V AN_POS dtmroc 5]
ELMB Channel 42:   3.656 V   [V AN_POS dtmroc 6]
ELMB Channel 43:   3.654 V   [V AN_POS dtmroc 6]
ELMB Channel 44:   -3.684 V   [V AN_NEG dtmroc 1]
ELMB Channel 45:   -3.623 V   [V AN_NEG dtmroc 2]
ELMB Channel 46:   -3.629 V   [V AN_NEG dtmroc 3]
ELMB Channel 47:   -3.631 V   [V AN_NEG dtmroc 4]
ELMB Channel 48:   -3.627 V   [V AN_NEG dtmroc 5]
ELMB Channel 49:   -3.635 V   [V AN_NEG dtmroc 5]
ELMB Channel 50:   -3.643 V   [V AN_NEG dtmroc 6]
ELMB Channel 51:   -3.648 V   [V AN_NEG dtmroc 6]
ELMB Channel 52:   3.731 V   [V DIGI dtmroc 9]
ELMB Channel 53:   3.719 V   [V DIGI dtmroc 10]
ELMB Channel 54:   3.682 V   [V DIGI dtmroc 11]
ELMB Channel 55:   3.684 V   [V DIGI dtmroc 12]
ELMB Channel 56:   3.692 V   [V DIGI dtmroc 13]
ELMB Channel 57:   3.668 V   [V DIGI dtmroc 13]
ELMB Channel 58:   3.666 V   [V DIGI dtmroc 14]
ELMB Channel 59:   3.692 V   [V DIGI dtmroc 14]
Channel 60, temperature 40.52
Channel 61, temperature 41.74
Channel 62, temperature 40.23
Channel 63, temperature 41.57
Temperature channels
Current channels
******** 0. 0.776965  
******** 2. 0.766627  
******** 4. 0.759635  
******** 6. 0.760300  
******** 8. 0.740860  
******** 9. 0.758996  
******** 10. 0.760928  
******** 11. 0.737670  
******** 12. 0.758624  
******** 14. 0.757898  
******** 16. 0.752583  
******** 18. 0.744023  
******** 20. 0.736433  
******** 21. 0.753324  
******** 22. 0.777005  
******** 23. 0.757413  
******** 24. 0.725922  
******** 26. 0.721319  
******** 28. 0.736302  
******** 30. 0.720859  
******** 32. 0.748483  
******** 33. 0.736012  
******** 34. 0.728488  
******** 35. 0.765837  
Voltage channels 3.000000  3.920000
ELMB Channel 36:   3.657 V   [V AN_POS dtmroc 1]
ELMB Channel 37:   3.640 V   [V AN_POS dtmroc 2]
ELMB Channel 38:   3.667 V   [V AN_POS dtmroc 3]
ELMB Channel 39:   3.651 V   [V AN_POS dtmroc 4]
ELMB Channel 40:   3.685 V   [V AN_POS dtmroc 5]
ELMB Channel 41:   3.644 V   [V AN_POS dtmroc 5]
ELMB Channel 42:   3.656 V   [V AN_POS dtmroc 6]
ELMB Channel 43:   3.654 V   [V AN_POS dtmroc 6]
ELMB Channel 44:   -3.684 V   [V AN_NEG dtmroc 1]
ELMB Channel 45:   -3.623 V   [V AN_NEG dtmroc 2]
ELMB Channel 46:   -3.629 V   [V AN_NEG dtmroc 3]
ELMB Channel 47:   -3.631 V   [V AN_NEG dtmroc 4]
ELMB Channel 48:   -3.628 V   [V AN_NEG dtmroc 5]
ELMB Channel 49:   -3.635 V   [V AN_NEG dtmroc 5]
ELMB Channel 50:   -3.643 V   [V AN_NEG dtmroc 6]
ELMB Channel 51:   -3.648 V   [V AN_NEG dtmroc 6]
ELMB Channel 52:   3.731 V   [V DIGI dtmroc 9]
ELMB Channel 53:   3.719 V   [V DIGI dtmroc 10]
ELMB Channel 54:   3.682 V   [V DIGI dtmroc 11]
ELMB Channel 55:   3.684 V   [V DIGI dtmroc 12]
ELMB Channel 56:   3.692 V   [V DIGI dtmroc 13]
ELMB Channel 57:   3.668 V   [V DIGI dtmroc 13]
ELMB Channel 58:   3.666 V   [V DIGI dtmroc 14]
ELMB Channel 59:   3.692 V   [V DIGI dtmroc 14]
Channel 60, temperature 40.68
Channel 61, temperature 42.03
Channel 62, temperature 40.46
Channel 63, temperature 41.93
Temperature channels
Current channels
******** 0. 0.780029  
******** 2. 0.766627  
******** 4. 0.759635  
******** 6. 0.760300  
******** 8. 0.743960  
******** 9. 0.761996  
******** 10. 0.763928  
******** 11. 0.737679  
******** 12. 0.758617  
******** 14. 0.757878  
******** 16. 0.752594  
******** 18. 0.744008  
******** 20. 0.736406  
******** 21. 0.753292  
******** 22. 0.777002  
******** 23. 0.757357  
******** 24. 0.729022  
******** 26. 0.721300  
******** 28. 0.736302  
******** 30. 0.720823  
******** 32. 0.748485  
******** 33. 0.736012  
******** 34. 0.725447  
******** 35. 0.765837  
Voltage channels 3.000000  3.920000
ELMB Channel 36:   3.658 V   [V AN_POS dtmroc 1]
ELMB Channel 37:   3.640 V   [V AN_POS dtmroc 2]
ELMB Channel 38:   3.667 V   [V AN_POS dtmroc 3]
ELMB Channel 39:   3.651 V   [V AN_POS dtmroc 4]
ELMB Channel 40:   3.685 V   [V AN_POS dtmroc 5]
ELMB Channel 41:   3.644 V   [V AN_POS dtmroc 5]
ELMB Channel 42:   3.656 V   [V AN_POS dtmroc 6]
ELMB Channel 43:   3.654 V   [V AN_POS dtmroc 6]
ELMB Channel 44:   -3.685 V   [V AN_NEG dtmroc 1]
ELMB Channel 45:   -3.623 V   [V AN_NEG dtmroc 2]
ELMB Channel 46:   -3.630 V   [V AN_NEG dtmroc 3]
ELMB Channel 47:   -3.631 V   [V AN_NEG dtmroc 4]
ELMB Channel 48:   -3.628 V   [V AN_NEG dtmroc 5]
ELMB Channel 49:   -3.636 V   [V AN_NEG dtmroc 5]
ELMB Channel 50:   -3.644 V   [V AN_NEG dtmroc 6]
ELMB Channel 51:   -3.648 V   [V AN_NEG dtmroc 6]
ELMB Channel 52:   3.731 V   [V DIGI dtmroc 9]
ELMB Channel 53:   3.719 V   [V DIGI dtmroc 10]
ELMB Channel 54:   3.682 V   [V DIGI dtmroc 11]
ELMB Channel 55:   3.684 V   [V DIGI dtmroc 12]
ELMB Channel 56:   3.692 V   [V DIGI dtmroc 13]
ELMB Channel 57:   3.668 V   [V DIGI dtmroc 13]
ELMB Channel 58:   3.667 V   [V DIGI dtmroc 14]
ELMB Channel 59:   3.692 V   [V DIGI dtmroc 14]
Channel 60, temperature 40.85
Channel 61, temperature 42.31
Channel 62, temperature 40.69
Channel 63, temperature 42.30
Temperature channels
Current channels
******** 0. 0.776965  
******** 2. 0.766627  
******** 4. 0.759635  
******** 6. 0.760298  
******** 8. 0.743950  
******** 9. 0.758996  
******** 10. 0.760907  
******** 11. 0.734579  
******** 12. 0.758611  
******** 14. 0.757837  
******** 16. 0.752600  
******** 18. 0.743977  
******** 20. 0.736379  
******** 21. 0.756299  
******** 22. 0.776999  
******** 23. 0.757300  
******** 24. 0.729022  
******** 26. 0.721319  
******** 28. 0.736298  
******** 30. 0.717723  
******** 32. 0.748488  
******** 33. 0.736012  
******** 34. 0.725447  
******** 35. 0.762737  
Voltage channels 3.000000  3.920000
ELMB Channel 36:   3.657 V   [V AN_POS dtmroc 1]
ELMB Channel 37:   3.640 V   [V AN_POS dtmroc 2]
ELMB Channel 38:   3.667 V   [V AN_POS dtmroc 3]
ELMB Channel 39:   3.651 V   [V AN_POS dtmroc 4]
ELMB Channel 40:   3.685 V   [V AN_POS dtmroc 5]
ELMB Channel 41:   3.644 V   [V AN_POS dtmroc 5]
ELMB Channel 42:   3.656 V   [V AN_POS dtmroc 6]
ELMB Channel 43:   3.654 V   [V AN_POS dtmroc 6]
ELMB Channel 44:   -3.685 V   [V AN_NEG dtmroc 1]
ELMB Channel 45:   -3.624 V   [V AN_NEG dtmroc 2]
ELMB Channel 46:   -3.630 V   [V AN_NEG dtmroc 3]
ELMB Channel 47:   -3.632 V   [V AN_NEG dtmroc 4]
ELMB Channel 48:   -3.629 V   [V AN_NEG dtmroc 5]
ELMB Channel 49:   -3.637 V   [V AN_NEG dtmroc 5]
ELMB Channel 50:   -3.645 V   [V AN_NEG dtmroc 6]
ELMB Channel 51:   -3.649 V   [V AN_NEG dtmroc 6]
ELMB Channel 52:   3.731 V   [V DIGI dtmroc 9]
ELMB Channel 53:   3.719 V   [V DIGI dtmroc 10]
ELMB Channel 54:   3.681 V   [V DIGI dtmroc 11]
ELMB Channel 55:   3.684 V   [V DIGI dtmroc 12]
ELMB Channel 56:   3.693 V   [V DIGI dtmroc 13]
ELMB Channel 57:   3.668 V   [V DIGI dtmroc 13]
ELMB Channel 58:   3.667 V   [V DIGI dtmroc 14]
ELMB Channel 59:   3.692 V   [V DIGI dtmroc 14]
Channel 60, temperature 41.02
Channel 61, temperature 42.60
Channel 62, temperature 40.92
Channel 63, temperature 42.67
Temperature channels
Current channels
******** 0. 0.780029  
******** 2. 0.769727  
******** 4. 0.759635  
******** 6. 0.757200  
******** 8. 0.743950  
******** 9. 0.758996  
******** 10. 0.763907  
******** 11. 0.737679  
******** 12. 0.758604  
******** 14. 0.757837  
******** 16. 0.752605  
******** 18. 0.743977  
******** 20. 0.739466  
******** 21. 0.756267  
******** 22. 0.780099  
******** 23. 0.760273  
******** 24. 0.725922  
******** 26. 0.721300  
******** 28. 0.736302  
******** 30. 0.717723  
******** 32. 0.748488  
******** 33. 0.739089  
******** 34. 0.728488  
******** 35. 0.768837  
Voltage channels 3.000000  3.920000
ELMB Channel 36:   3.658 V   [V AN_POS dtmroc 1]
ELMB Channel 37:   3.640 V   [V AN_POS dtmroc 2]
ELMB Channel 38:   3.667 V   [V AN_POS dtmroc 3]
ELMB Channel 39:   3.651 V   [V AN_POS dtmroc 4]
ELMB Channel 40:   3.685 V   [V AN_POS dtmroc 5]
ELMB Channel 41:   3.644 V   [V AN_POS dtmroc 5]
ELMB Channel 42:   3.656 V   [V AN_POS dtmroc 6]
ELMB Channel 43:   3.654 V   [V AN_POS dtmroc 6]
ELMB Channel 44:   -3.685 V   [V AN_NEG dtmroc 1]
ELMB Channel 45:   -3.624 V   [V AN_NEG dtmroc 2]
ELMB Channel 46:   -3.631 V   [V AN_NEG dtmroc 3]
ELMB Channel 47:   -3.632 V   [V AN_NEG dtmroc 4]
ELMB Channel 48:   -3.629 V   [V AN_NEG dtmroc 5]
ELMB Channel 49:   -3.637 V   [V AN_NEG dtmroc 5]
ELMB Channel 50:   -3.645 V   [V AN_NEG dtmroc 6]
ELMB Channel 51:   -3.649 V   [V AN_NEG dtmroc 6]
ELMB Channel 52:   3.731 V   [V DIGI dtmroc 9]
ELMB Channel 53:   3.719 V   [V DIGI dtmroc 10]
ELMB Channel 54:   3.682 V   [V DIGI dtmroc 11]
ELMB Channel 55:   3.684 V   [V DIGI dtmroc 12]
ELMB Channel 56:   3.693 V   [V DIGI dtmroc 13]
ELMB Channel 57:   3.668 V   [V DIGI dtmroc 13]
ELMB Channel 58:   3.666 V   [V DIGI dtmroc 14]
ELMB Channel 59:   3.692 V   [V DIGI dtmroc 14]
Channel 60, temperature 41.20
Channel 61, temperature 42.88
Channel 62, temperature 41.15
Channel 63, temperature 43.02
Temperature channels
Current channels
******** 0. 0.780065  
******** 2. 0.766627  
******** 4. 0.759635  
******** 6. 0.760300  
******** 8. 0.743960  
******** 9. 0.761997  
******** 10. 0.763928  
******** 11. 0.737679  
******** 12. 0.758598  
******** 14. 0.757816  
******** 16. 0.752605  
******** 18. 0.743977  
******** 20. 0.739425  
******** 21. 0.756235  
******** 22. 0.780096  
******** 23. 0.757244  
******** 24. 0.729022  
******** 26. 0.721300  
******** 28. 0.736302  
******** 30. 0.720823  
******** 32. 0.751588  
******** 33. 0.736012  
******** 34. 0.725388  
******** 35. 0.765858  
Voltage channels 3.000000  3.920000
ELMB Channel 36:   3.657 V   [V AN_POS dtmroc 1]
ELMB Channel 37:   3.640 V   [V AN_POS dtmroc 2]
ELMB Channel 38:   3.667 V   [V AN_POS dtmroc 3]
ELMB Channel 39:   3.651 V   [V AN_POS dtmroc 4]
ELMB Channel 40:   3.685 V   [V AN_POS dtmroc 5]
ELMB Channel 41:   3.644 V   [V AN_POS dtmroc 5]
ELMB Channel 42:   3.656 V   [V AN_POS dtmroc 6]
ELMB Channel 43:   3.654 V   [V AN_POS dtmroc 6]
ELMB Channel 44:   -3.686 V   [V AN_NEG dtmroc 1]
ELMB Channel 45:   -3.624 V   [V AN_NEG dtmroc 2]
ELMB Channel 46:   -3.631 V   [V AN_NEG dtmroc 3]
ELMB Channel 47:   -3.632 V   [V AN_NEG dtmroc 4]
ELMB Channel 48:   -3.630 V   [V AN_NEG dtmroc 5]
ELMB Channel 49:   -3.637 V   [V AN_NEG dtmroc 5]
ELMB Channel 50:   -3.645 V   [V AN_NEG dtmroc 6]
ELMB Channel 51:   -3.650 V   [V AN_NEG dtmroc 6]
ELMB Channel 52:   3.731 V   [V DIGI dtmroc 9]
ELMB Channel 53:   3.719 V   [V DIGI dtmroc 10]
ELMB Channel 54:   3.682 V   [V DIGI dtmroc 11]
ELMB Channel 55:   3.684 V   [V DIGI dtmroc 12]
ELMB Channel 56:   3.693 V   [V DIGI dtmroc 13]
ELMB Channel 57:   3.668 V   [V DIGI dtmroc 13]
ELMB Channel 58:   3.666 V   [V DIGI dtmroc 14]
ELMB Channel 59:   3.693 V   [V DIGI dtmroc 14]
Channel 60, temperature 41.38
Channel 61, temperature 43.14
Channel 62, temperature 41.37
Channel 63, temperature 43.36
Temperature channels
Current channels
******** 0. 0.780065  
******** 2. 0.766627  
******** 4. 0.759635  
******** 6. 0.760300  
******** 8. 0.743950  
******** 9. 0.761997  
******** 10. 0.763907  
******** 11. 0.734579  
******** 12. 0.758585  
******** 14. 0.760775  
******** 16. 0.755716  
******** 18. 0.743930  
******** 20. 0.739412  
******** 21. 0.756173  
******** 22. 0.780094  
******** 23. 0.757188  
******** 24. 0.725922  
******** 26. 0.721300  
******** 28. 0.736302  
******** 30. 0.717723  
******** 32. 0.748488  
******** 33. 0.735989  
******** 34. 0.725447  
******** 35. 0.762737  
Voltage channels 3.000000  3.920000
ELMB Channel 36:   3.657 V   [V AN_POS dtmroc 1]
ELMB Channel 37:   3.640 V   [V AN_POS dtmroc 2]
ELMB Channel 38:   3.667 V   [V AN_POS dtmroc 3]
ELMB Channel 39:   3.651 V   [V AN_POS dtmroc 4]
ELMB Channel 40:   3.685 V   [V AN_POS dtmroc 5]
ELMB Channel 41:   3.644 V   [V AN_POS dtmroc 5]
ELMB Channel 42:   3.656 V   [V AN_POS dtmroc 6]
ELMB Channel 43:   3.654 V   [V AN_POS dtmroc 6]
ELMB Channel 44:   -3.686 V   [V AN_NEG dtmroc 1]
ELMB Channel 45:   -3.625 V   [V AN_NEG dtmroc 2]
ELMB Channel 46:   -3.631 V   [V AN_NEG dtmroc 3]
ELMB Channel 47:   -3.633 V   [V AN_NEG dtmroc 4]
ELMB Channel 48:   -3.631 V   [V AN_NEG dtmroc 5]
ELMB Channel 49:   -3.638 V   [V AN_NEG dtmroc 5]
ELMB Channel 50:   -3.646 V   [V AN_NEG dtmroc 6]
ELMB Channel 51:   -3.650 V   [V AN_NEG dtmroc 6]
ELMB Channel 52:   3.731 V   [V DIGI dtmroc 9]
ELMB Channel 53:   3.719 V   [V DIGI dtmroc 10]
ELMB Channel 54:   3.682 V   [V DIGI dtmroc 11]
ELMB Channel 55:   3.684 V   [V DIGI dtmroc 12]
ELMB Channel 56:   3.693 V   [V DIGI dtmroc 13]
ELMB Channel 57:   3.668 V   [V DIGI dtmroc 13]
ELMB Channel 58:   3.667 V   [V DIGI dtmroc 14]
ELMB Channel 59:   3.692 V   [V DIGI dtmroc 14]
Channel 60, temperature 41.57
Channel 61, temperature 43.40
Channel 62, temperature 41.60
Channel 63, temperature 43.69
Temperature channels
Current channels
******** 0. 0.780029  
******** 2. 0.766627  
******** 4. 0.759690  
******** 6. 0.760301  
******** 8. 0.743950  
******** 9. 0.761997  
******** 10. 0.763907  
******** 11. 0.731579  
******** 12. 0.758585  
******** 14. 0.760755  
******** 16. 0.755716  
******** 18. 0.746930  
******** 20. 0.739385  
******** 21. 0.753010  
******** 22. 0.780091  
******** 23. 0.757161  
******** 24. 0.729037  
******** 26. 0.721300  
******** 28. 0.736307  
******** 30. 0.717723  
******** 32. 0.748488  
******** 33. 0.735989  
******** 34. 0.725447  
******** 35. 0.765858  
Voltage channels 3.000000  3.920000
ELMB Channel 36:   3.658 V   [V AN_POS dtmroc 1]
ELMB Channel 37:   3.640 V   [V AN_POS dtmroc 2]
ELMB Channel 38:   3.667 V   [V AN_POS dtmroc 3]
ELMB Channel 39:   3.651 V   [V AN_POS dtmroc 4]
ELMB Channel 40:   3.685 V   [V AN_POS dtmroc 5]
ELMB Channel 41:   3.644 V   [V AN_POS dtmroc 5]
ELMB Channel 42:   3.656 V   [V AN_POS dtmroc 6]
ELMB Channel 43:   3.654 V   [V AN_POS dtmroc 6]
ELMB Channel 44:   -3.686 V   [V AN_NEG dtmroc 1]
ELMB Channel 45:   -3.625 V   [V AN_NEG dtmroc 2]
ELMB Channel 46:   -3.631 V   [V AN_NEG dtmroc 3]
ELMB Channel 47:   -3.633 V   [V AN_NEG dtmroc 4]
ELMB Channel 48:   -3.631 V   [V AN_NEG dtmroc 5]
ELMB Channel 49:   -3.639 V   [V AN_NEG dtmroc 5]
ELMB Channel 50:   -3.646 V   [V AN_NEG dtmroc 6]
ELMB Channel 51:   -3.651 V   [V AN_NEG dtmroc 6]
ELMB Channel 52:   3.731 V   [V DIGI dtmroc 9]
ELMB Channel 53:   3.719 V   [V DIGI dtmroc 10]
ELMB Channel 54:   3.682 V   [V DIGI dtmroc 11]
ELMB Channel 55:   3.684 V   [V DIGI dtmroc 12]
ELMB Channel 56:   3.693 V   [V DIGI dtmroc 13]
ELMB Channel 57:   3.668 V   [V DIGI dtmroc 13]
ELMB Channel 58:   3.667 V   [V DIGI dtmroc 14]
ELMB Channel 59:   3.693 V   [V DIGI dtmroc 14]
Channel 60, temperature 41.75
Channel 61, temperature 43.66
Channel 62, temperature 41.82
Channel 63, temperature 43.97
Temperature channels
Current channels
******** 0. 0.780029  
******** 2. 0.766668  
******** 4. 0.759690  
******** 6. 0.760301  
******** 8. 0.743950  
******** 9. 0.761997  
******** 10. 0.763907  
******** 11. 0.734579  
******** 12. 0.758578  
******** 14. 0.757734  
******** 16. 0.752622  
******** 18. 0.743914  
******** 20. 0.739385  
******** 21. 0.756110  
******** 22. 0.780091  
******** 23. 0.757132  
******** 24. 0.729037  
******** 26. 0.721281  
******** 28. 0.736307  
******** 30. 0.717685  
******** 32. 0.751591  
******** 33. 0.739089  
******** 34. 0.725447  
******** 35. 0.765858  
Voltage channels 3.000000  3.920000
ELMB Channel 36:   3.658 V   [V AN_POS dtmroc 1]
ELMB Channel 37:   3.640 V   [V AN_POS dtmroc 2]
ELMB Channel 38:   3.667 V   [V AN_POS dtmroc 3]
ELMB Channel 39:   3.651 V   [V AN_POS dtmroc 4]
ELMB Channel 40:   3.685 V   [V AN_POS dtmroc 5]
ELMB Channel 41:   3.644 V   [V AN_POS dtmroc 5]
ELMB Channel 42:   3.656 V   [V AN_POS dtmroc 6]
ELMB Channel 43:   3.654 V   [V AN_POS dtmroc 6]
ELMB Channel 44:   -3.687 V   [V AN_NEG dtmroc 1]
ELMB Channel 45:   -3.625 V   [V AN_NEG dtmroc 2]
ELMB Channel 46:   -3.632 V   [V AN_NEG dtmroc 3]
ELMB Channel 47:   -3.633 V   [V AN_NEG dtmroc 4]
ELMB Channel 48:   -3.631 V   [V AN_NEG dtmroc 5]
ELMB Channel 49:   -3.639 V   [V AN_NEG dtmroc 5]
ELMB Channel 50:   -3.646 V   [V AN_NEG dtmroc 6]
ELMB Channel 51:   -3.651 V   [V AN_NEG dtmroc 6]
ELMB Channel 52:   3.731 V   [V DIGI dtmroc 9]
ELMB Channel 53:   3.719 V   [V DIGI dtmroc 10]
ELMB Channel 54:   3.682 V   [V DIGI dtmroc 11]
ELMB Channel 55:   3.685 V   [V DIGI dtmroc 12]
ELMB Channel 56:   3.693 V   [V DIGI dtmroc 13]
ELMB Channel 57:   3.668 V   [V DIGI dtmroc 13]
ELMB Channel 58:   3.667 V   [V DIGI dtmroc 14]
ELMB Channel 59:   3.693 V   [V DIGI dtmroc 14]
Channel 60, temperature 41.92
Channel 61, temperature 43.90
Channel 62, temperature 42.05
Channel 63, temperature 44.25
Temperature channels
Current channels
******** 0. 0.779992  
******** 2. 0.766668  
******** 4. 0.762790  
******** 6. 0.760301  
******** 8. 0.743939  
******** 9. 0.758997  
******** 10. 0.763885  
******** 11. 0.737689  
******** 12. 0.758572  
******** 14. 0.760734  
******** 16. 0.752627  
******** 18. 0.743899  
******** 20. 0.739358  
******** 21. 0.756079  
******** 22. 0.783088  
******** 23. 0.757105  
******** 24. 0.729052  
******** 26. 0.721262  
******** 28. 0.736311  
******** 30. 0.717685  
******** 32. 0.748494  
******** 33. 0.735964  
******** 34. 0.725447  
******** 35. 0.765858  
Voltage channels 3.000000  3.920000
ELMB Channel 36:   3.658 V   [V AN_POS dtmroc 1]
ELMB Channel 37:   3.640 V   [V AN_POS dtmroc 2]
ELMB Channel 38:   3.667 V   [V AN_POS dtmroc 3]
ELMB Channel 39:   3.651 V   [V AN_POS dtmroc 4]
ELMB Channel 40:   3.685 V   [V AN_POS dtmroc 5]
ELMB Channel 41:   3.644 V   [V AN_POS dtmroc 5]
ELMB Channel 42:   3.656 V   [V AN_POS dtmroc 6]
ELMB Channel 43:   3.655 V   [V AN_POS dtmroc 6]
ELMB Channel 44:   -3.687 V   [V AN_NEG dtmroc 1]
ELMB Channel 45:   -3.625 V   [V AN_NEG dtmroc 2]
ELMB Channel 46:   -3.632 V   [V AN_NEG dtmroc 3]
ELMB Channel 47:   -3.634 V   [V AN_NEG dtmroc 4]
ELMB Channel 48:   -3.632 V   [V AN_NEG dtmroc 5]
ELMB Channel 49:   -3.639 V   [V AN_NEG dtmroc 5]
ELMB Channel 50:   -3.647 V   [V AN_NEG dtmroc 6]
ELMB Channel 51:   -3.651 V   [V AN_NEG dtmroc 6]
ELMB Channel 52:   3.732 V   [V DIGI dtmroc 9]
ELMB Channel 53:   3.720 V   [V DIGI dtmroc 10]
ELMB Channel 54:   3.682 V   [V DIGI dtmroc 11]
ELMB Channel 55:   3.685 V   [V DIGI dtmroc 12]
ELMB Channel 56:   3.693 V   [V DIGI dtmroc 13]
ELMB Channel 57:   3.669 V   [V DIGI dtmroc 13]
ELMB Channel 58:   3.667 V   [V DIGI dtmroc 14]
ELMB Channel 59:   3.693 V   [V DIGI dtmroc 14]
Channel 60, temperature 42.12
Channel 61, temperature 44.15
Channel 62, temperature 42.26
Channel 63, temperature 44.54
Temperature channels
Current channels
******** 0. 0.780029  
******** 2. 0.766668  
******** 4. 0.762790  
******** 6. 0.760301  
******** 8. 0.746939  
******** 9. 0.761998  
******** 10. 0.763885  
******** 11. 0.734589  
******** 12. 0.758565  
******** 14. 0.760693  
******** 16. 0.752639  
******** 18. 0.746883  
******** 20. 0.739331  
******** 21. 0.752885  
******** 22. 0.783088  
******** 23. 0.760049  
******** 24. 0.729037  
******** 26. 0.721281  
******** 28. 0.736307  
******** 30. 0.717685  
******** 32. 0.748491  
******** 33. 0.735989  
******** 34. 0.725447  
******** 35. 0.765858  
Voltage channels 3.000000  3.920000
ELMB Channel 36:   3.658 V   [V AN_POS dtmroc 1]
ELMB Channel 37:   3.640 V   [V AN_POS dtmroc 2]
ELMB Channel 38:   3.667 V   [V AN_POS dtmroc 3]
ELMB Channel 39:   3.651 V   [V AN_POS dtmroc 4]
ELMB Channel 40:   3.685 V   [V AN_POS dtmroc 5]
ELMB Channel 41:   3.644 V   [V AN_POS dtmroc 5]
ELMB Channel 42:   3.656 V   [V AN_POS dtmroc 6]
ELMB Channel 43:   3.655 V   [V AN_POS dtmroc 6]
ELMB Channel 44:   -3.687 V   [V AN_NEG dtmroc 1]
ELMB Channel 45:   -3.626 V   [V AN_NEG dtmroc 2]
ELMB Channel 46:   -3.633 V   [V AN_NEG dtmroc 3]
ELMB Channel 47:   -3.634 V   [V AN_NEG dtmroc 4]
ELMB Channel 48:   -3.633 V   [V AN_NEG dtmroc 5]
ELMB Channel 49:   -3.640 V   [V AN_NEG dtmroc 5]
ELMB Channel 50:   -3.647 V   [V AN_NEG dtmroc 6]
ELMB Channel 51:   -3.652 V   [V AN_NEG dtmroc 6]
ELMB Channel 52:   3.731 V   [V DIGI dtmroc 9]
ELMB Channel 53:   3.719 V   [V DIGI dtmroc 10]
ELMB Channel 54:   3.682 V   [V DIGI dtmroc 11]
ELMB Channel 55:   3.685 V   [V DIGI dtmroc 12]
ELMB Channel 56:   3.693 V   [V DIGI dtmroc 13]
ELMB Channel 57:   3.668 V   [V DIGI dtmroc 13]
ELMB Channel 58:   3.667 V   [V DIGI dtmroc 14]
ELMB Channel 59:   3.693 V   [V DIGI dtmroc 14]
Channel 60, temperature 42.30
Channel 61, temperature 44.39
Channel 62, temperature 42.48
Channel 63, temperature 44.83
Temperature channels
Current channels
******** 0. 0.782992  
******** 2. 0.769768  
******** 4. 0.759690  
******** 6. 0.760301  
******** 8. 0.743939  
******** 9. 0.758997  
******** 10. 0.760885  
******** 11. 0.731589  
******** 12. 0.758559  
******** 14. 0.760673  
******** 16. 0.752639  
******** 18. 0.743883  
******** 20. 0.736231  
******** 21. 0.755985  
******** 22. 0.783085  
******** 23. 0.757049  
******** 24. 0.725952  
******** 26. 0.721262  
******** 28. 0.739411  
******** 30. 0.717649  
******** 32. 0.751594  
******** 33. 0.739064  
******** 34. 0.725447  
******** 35. 0.768858  
Voltage channels 3.000000  3.920000
ELMB Channel 36:   3.658 V   [V AN_POS dtmroc 1]
ELMB Channel 37:   3.640 V   [V AN_POS dtmroc 2]
ELMB Channel 38:   3.667 V   [V AN_POS dtmroc 3]
ELMB Channel 39:   3.651 V   [V AN_POS dtmroc 4]
ELMB Channel 40:   3.685 V   [V AN_POS dtmroc 5]
ELMB Channel 41:   3.644 V   [V AN_POS dtmroc 5]
ELMB Channel 42:   3.656 V   [V AN_POS dtmroc 6]
ELMB Channel 43:   3.655 V   [V AN_POS dtmroc 6]
ELMB Channel 44:   -3.688 V   [V AN_NEG dtmroc 1]
ELMB Channel 45:   -3.626 V   [V AN_NEG dtmroc 2]
ELMB Channel 46:   -3.633 V   [V AN_NEG dtmroc 3]
ELMB Channel 47:   -3.634 V   [V AN_NEG dtmroc 4]
ELMB Channel 48:   -3.633 V   [V AN_NEG dtmroc 5]
ELMB Channel 49:   -3.640 V   [V AN_NEG dtmroc 5]
ELMB Channel 50:   -3.648 V   [V AN_NEG dtmroc 6]
ELMB Channel 51:   -3.652 V   [V AN_NEG dtmroc 6]
ELMB Channel 52:   3.732 V   [V DIGI dtmroc 9]
ELMB Channel 53:   3.720 V   [V DIGI dtmroc 10]
ELMB Channel 54:   3.682 V   [V DIGI dtmroc 11]
ELMB Channel 55:   3.685 V   [V DIGI dtmroc 12]
ELMB Channel 56:   3.693 V   [V DIGI dtmroc 13]
ELMB Channel 57:   3.669 V   [V DIGI dtmroc 13]
ELMB Channel 58:   3.667 V   [V DIGI dtmroc 14]
ELMB Channel 59:   3.693 V   [V DIGI dtmroc 14]
Channel 60, temperature 42.50
Channel 61, temperature 44.61
Channel 62, temperature 42.70
Channel 63, temperature 45.11
Temperature channels
Current channels
******** 0. 0.782992  
******** 2. 0.769768  
******** 4. 0.759690  
******** 6. 0.760301  
******** 8. 0.746939  
******** 9. 0.761998  
******** 10. 0.763885  
******** 11. 0.734589  
******** 12. 0.758552  
******** 14. 0.760652  
******** 16. 0.752644  
******** 18. 0.743852  
******** 20. 0.739304  
******** 21. 0.752854  
******** 22. 0.783084  
******** 23. 0.760020  
******** 24. 0.729052  
******** 26. 0.721262  
******** 28. 0.736311  
******** 30. 0.714649  
******** 32. 0.748494  
******** 33. 0.739089  
******** 34. 0.725447  
******** 35. 0.765858  
Voltage channels 3.000000  3.920000
ELMB Channel 36:   3.658 V   [V AN_POS dtmroc 1]
ELMB Channel 37:   3.640 V   [V AN_POS dtmroc 2]
ELMB Channel 38:   3.667 V   [V AN_POS dtmroc 3]
ELMB Channel 39:   3.651 V   [V AN_POS dtmroc 4]
ELMB Channel 40:   3.685 V   [V AN_POS dtmroc 5]
ELMB Channel 41:   3.644 V   [V AN_POS dtmroc 5]
ELMB Channel 42:   3.656 V   [V AN_POS dtmroc 6]
ELMB Channel 43:   3.655 V   [V AN_POS dtmroc 6]
ELMB Channel 44:   -3.688 V   [V AN_NEG dtmroc 1]
ELMB Channel 45:   -3.627 V   [V AN_NEG dtmroc 2]
ELMB Channel 46:   -3.633 V   [V AN_NEG dtmroc 3]
ELMB Channel 47:   -3.635 V   [V AN_NEG dtmroc 4]
ELMB Channel 48:   -3.633 V   [V AN_NEG dtmroc 5]
ELMB Channel 49:   -3.640 V   [V AN_NEG dtmroc 5]
ELMB Channel 50:   -3.648 V   [V AN_NEG dtmroc 6]
ELMB Channel 51:   -3.652 V   [V AN_NEG dtmroc 6]
ELMB Channel 52:   3.732 V   [V DIGI dtmroc 9]
ELMB Channel 53:   3.720 V   [V DIGI dtmroc 10]
ELMB Channel 54:   3.682 V   [V DIGI dtmroc 11]
ELMB Channel 55:   3.685 V   [V DIGI dtmroc 12]
ELMB Channel 56:   3.693 V   [V DIGI dtmroc 13]
ELMB Channel 57:   3.668 V   [V DIGI dtmroc 13]
ELMB Channel 58:   3.667 V   [V DIGI dtmroc 14]
ELMB Channel 59:   3.693 V   [V DIGI dtmroc 14]
Channel 60, temperature 42.68
Channel 61, temperature 44.83
Channel 62, temperature 42.91
Channel 63, temperature 45.35
Temperature channels
Current channels
******** 0. 0.782992  
******** 2. 0.769768  
******** 4. 0.759690  
******** 6. 0.760301  
******** 8. 0.746939  
******** 9. 0.758998  
******** 10. 0.763885  
******** 11. 0.731599  
******** 12. 0.761546  
******** 14. 0.763732  
******** 16. 0.752655  
******** 18. 0.746836  
******** 20. 0.739291  
******** 21. 0.755922  
******** 22. 0.786182  
******** 23. 0.759993  
******** 24. 0.729052  
******** 26. 0.721262  
******** 28. 0.736311  
******** 30. 0.714649  
******** 32. 0.751594  
******** 33. 0.739089  
******** 34. 0.725447  
******** 35. 0.765858  
Voltage channels 3.000000  3.920000
ELMB Channel 36:   3.658 V   [V AN_POS dtmroc 1]
ELMB Channel 37:   3.640 V   [V AN_POS dtmroc 2]
ELMB Channel 38:   3.667 V   [V AN_POS dtmroc 3]
ELMB Channel 39:   3.651 V   [V AN_POS dtmroc 4]
ELMB Channel 40:   3.685 V   [V AN_POS dtmroc 5]
ELMB Channel 41:   3.644 V   [V AN_POS dtmroc 5]
ELMB Channel 42:   3.656 V   [V AN_POS dtmroc 6]
ELMB Channel 43:   3.655 V   [V AN_POS dtmroc 6]
ELMB Channel 44:   -3.688 V   [V AN_NEG dtmroc 1]
ELMB Channel 45:   -3.627 V   [V AN_NEG dtmroc 2]
ELMB Channel 46:   -3.634 V   [V AN_NEG dtmroc 3]
ELMB Channel 47:   -3.635 V   [V AN_NEG dtmroc 4]
ELMB Channel 48:   -3.634 V   [V AN_NEG dtmroc 5]
ELMB Channel 49:   -3.641 V   [V AN_NEG dtmroc 5]
ELMB Channel 50:   -3.648 V   [V AN_NEG dtmroc 6]
ELMB Channel 51:   -3.653 V   [V AN_NEG dtmroc 6]
ELMB Channel 52:   3.732 V   [V DIGI dtmroc 9]
ELMB Channel 53:   3.720 V   [V DIGI dtmroc 10]
ELMB Channel 54:   3.682 V   [V DIGI dtmroc 11]
ELMB Channel 55:   3.685 V   [V DIGI dtmroc 12]
ELMB Channel 56:   3.693 V   [V DIGI dtmroc 13]
ELMB Channel 57:   3.668 V   [V DIGI dtmroc 13]
ELMB Channel 58:   3.667 V   [V DIGI dtmroc 14]
ELMB Channel 59:   3.693 V   [V DIGI dtmroc 14]
Channel 60, temperature 42.87
Channel 61, temperature 45.04
Channel 62, temperature 43.13
Channel 63, temperature 45.63
Temperature channels
Current channels
******** 0. 0.782992  
******** 2. 0.769768  
******** 4. 0.759690  
******** 6. 0.760301  
******** 8. 0.746939  
******** 9. 0.761998  
******** 10. 0.763885  
******** 11. 0.731599  
******** 12. 0.758539  
******** 14. 0.763711  
******** 16. 0.755755  
******** 18. 0.743836  
******** 20. 0.739264  
******** 21. 0.755892  
******** 22. 0.783082  
******** 23. 0.756964  
******** 24. 0.725937  
******** 26. 0.721262  
******** 28. 0.736311  
******** 30. 0.714649  
******** 32. 0.751597  
******** 33. 0.735964  
******** 34. 0.725447  
******** 35. 0.768858  
Voltage channels 3.000000  3.920000
ELMB Channel 36:   3.658 V   [V AN_POS dtmroc 1]
ELMB Channel 37:   3.640 V   [V AN_POS dtmroc 2]
ELMB Channel 38:   3.667 V   [V AN_POS dtmroc 3]
ELMB Channel 39:   3.651 V   [V AN_POS dtmroc 4]
ELMB Channel 40:   3.685 V   [V AN_POS dtmroc 5]
ELMB Channel 41:   3.644 V   [V AN_POS dtmroc 5]
ELMB Channel 42:   3.656 V   [V AN_POS dtmroc 6]
ELMB Channel 43:   3.655 V   [V AN_POS dtmroc 6]
ELMB Channel 44:   -3.689 V   [V AN_NEG dtmroc 1]
ELMB Channel 45:   -3.627 V   [V AN_NEG dtmroc 2]
ELMB Channel 46:   -3.634 V   [V AN_NEG dtmroc 3]
ELMB Channel 47:   -3.635 V   [V AN_NEG dtmroc 4]
ELMB Channel 48:   -3.634 V   [V AN_NEG dtmroc 5]
ELMB Channel 49:   -3.641 V   [V AN_NEG dtmroc 5]
ELMB Channel 50:   -3.648 V   [V AN_NEG dtmroc 6]
ELMB Channel 51:   -3.653 V   [V AN_NEG dtmroc 6]
ELMB Channel 52:   3.731 V   [V DIGI dtmroc 9]
ELMB Channel 53:   3.720 V   [V DIGI dtmroc 10]
ELMB Channel 54:   3.682 V   [V DIGI dtmroc 11]
ELMB Channel 55:   3.685 V   [V DIGI dtmroc 12]
ELMB Channel 56:   3.694 V   [V DIGI dtmroc 13]
ELMB Channel 57:   3.669 V   [V DIGI dtmroc 13]
ELMB Channel 58:   3.667 V   [V DIGI dtmroc 14]
ELMB Channel 59:   3.693 V   [V DIGI dtmroc 14]
Channel 60, temperature 43.06
Channel 61, temperature 45.22
Channel 62, temperature 43.33
Channel 63, temperature 45.86
Temperature channels
Current channels
******** 0. 0.786056  
******** 2. 0.772868  
******** 4. 0.762790  
******** 6. 0.760301  
******** 8. 0.743939  
******** 9. 0.758998  
******** 10. 0.763864  
******** 11. 0.734589  
******** 12. 0.758533  
******** 14. 0.760591  
******** 16. 0.752655  
******** 18. 0.743821  
******** 20. 0.736177  
******** 21. 0.755860  
******** 22. 0.786181  
******** 23. 0.759937  
******** 24. 0.729052  
******** 26. 0.721262  
******** 28. 0.739416  
******** 30. 0.717649  
******** 32. 0.751597  
******** 33. 0.739064  
******** 34. 0.725447  
******** 35. 0.768858  
Voltage channels 3.000000  3.920000
ELMB Channel 36:   3.658 V   [V AN_POS dtmroc 1]
ELMB Channel 37:   3.640 V   [V AN_POS dtmroc 2]
ELMB Channel 38:   3.667 V   [V AN_POS dtmroc 3]
ELMB Channel 39:   3.651 V   [V AN_POS dtmroc 4]
ELMB Channel 40:   3.685 V   [V AN_POS dtmroc 5]
ELMB Channel 41:   3.644 V   [V AN_POS dtmroc 5]
ELMB Channel 42:   3.657 V   [V AN_POS dtmroc 6]
ELMB Channel 43:   3.655 V   [V AN_POS dtmroc 6]
ELMB Channel 44:   -3.689 V   [V AN_NEG dtmroc 1]
ELMB Channel 45:   -3.628 V   [V AN_NEG dtmroc 2]
ELMB Channel 46:   -3.634 V   [V AN_NEG dtmroc 3]
ELMB Channel 47:   -3.635 V   [V AN_NEG dtmroc 4]
ELMB Channel 48:   -3.634 V   [V AN_NEG dtmroc 5]
ELMB Channel 49:   -3.641 V   [V AN_NEG dtmroc 5]
ELMB Channel 50:   -3.649 V   [V AN_NEG dtmroc 6]
ELMB Channel 51:   -3.653 V   [V AN_NEG dtmroc 6]
ELMB Channel 52:   3.732 V   [V DIGI dtmroc 9]
ELMB Channel 53:   3.720 V   [V DIGI dtmroc 10]
ELMB Channel 54:   3.683 V   [V DIGI dtmroc 11]
ELMB Channel 55:   3.685 V   [V DIGI dtmroc 12]
ELMB Channel 56:   3.694 V   [V DIGI dtmroc 13]
ELMB Channel 57:   3.669 V   [V DIGI dtmroc 13]
ELMB Channel 58:   3.667 V   [V DIGI dtmroc 14]
ELMB Channel 59:   3.693 V   [V DIGI dtmroc 14]
Channel 60, temperature 43.23
Channel 61, temperature 45.41
Channel 62, temperature 43.51
Channel 63, temperature 46.07
Temperature channels
Current channels
******** 0. 0.782956  
******** 2. 0.769768  
******** 4. 0.759690  
******** 6. 0.763401  
******** 8. 0.746930  
******** 9. 0.761998  
******** 10. 0.763864  
******** 11. 0.734589  
******** 12. 0.758533  
******** 14. 0.763670  
******** 16. 0.755761  
******** 18. 0.746805  
******** 20. 0.739250  
******** 21. 0.755829  
******** 22. 0.786179  
******** 23. 0.756908  
******** 24. 0.729052  
******** 26. 0.721244  
******** 28. 0.739416  
******** 30. 0.714649  
******** 32. 0.751597  
******** 33. 0.739064  
******** 34. 0.725504  
******** 35. 0.768858  
Voltage channels 3.000000  3.920000
ELMB Channel 36:   3.658 V   [V AN_POS dtmroc 1]
ELMB Channel 37:   3.640 V   [V AN_POS dtmroc 2]
ELMB Channel 38:   3.667 V   [V AN_POS dtmroc 3]
ELMB Channel 39:   3.651 V   [V AN_POS dtmroc 4]
ELMB Channel 40:   3.686 V   [V AN_POS dtmroc 5]
ELMB Channel 41:   3.644 V   [V AN_POS dtmroc 5]
ELMB Channel 42:   3.657 V   [V AN_POS dtmroc 6]
ELMB Channel 43:   3.655 V   [V AN_POS dtmroc 6]
ELMB Channel 44:   -3.689 V   [V AN_NEG dtmroc 1]
ELMB Channel 45:   -3.628 V   [V AN_NEG dtmroc 2]
ELMB Channel 46:   -3.634 V   [V AN_NEG dtmroc 3]
ELMB Channel 47:   -3.636 V   [V AN_NEG dtmroc 4]
ELMB Channel 48:   -3.635 V   [V AN_NEG dtmroc 5]
ELMB Channel 49:   -3.642 V   [V AN_NEG dtmroc 5]
ELMB Channel 50:   -3.649 V   [V AN_NEG dtmroc 6]
ELMB Channel 51:   -3.654 V   [V AN_NEG dtmroc 6]
ELMB Channel 52:   3.732 V   [V DIGI dtmroc 9]
ELMB Channel 53:   3.720 V   [V DIGI dtmroc 10]
ELMB Channel 54:   3.683 V   [V DIGI dtmroc 11]
ELMB Channel 55:   3.685 V   [V DIGI dtmroc 12]
ELMB Channel 56:   3.694 V   [V DIGI dtmroc 13]
ELMB Channel 57:   3.669 V   [V DIGI dtmroc 13]
ELMB Channel 58:   3.667 V   [V DIGI dtmroc 14]
ELMB Channel 59:   3.693 V   [V DIGI dtmroc 14]
Channel 60, temperature 43.42
Channel 61, temperature 45.62
Channel 62, temperature 43.72
Channel 63, temperature 46.32
Temperature channels
Current channels
******** 0. 0.782956  
******** 2. 0.769768  
******** 4. 0.759690  
******** 6. 0.760301  
******** 8. 0.746930  
******** 9. 0.761998  
******** 10. 0.763864  
******** 11. 0.734599  
******** 12. 0.758520  
******** 14. 0.763670  
******** 16. 0.755766  
******** 18. 0.746790  
******** 20. 0.739237  
******** 21. 0.758797  
******** 22. 0.786176  
******** 23. 0.759852  
******** 24. 0.729052  
******** 26. 0.724344  
******** 28. 0.739416  
******** 30. 0.714611  
******** 32. 0.751597  
******** 33. 0.739064  
******** 34. 0.725447  
******** 35. 0.768858  
Voltage channels 3.000000  3.920000
ELMB Channel 36:   3.658 V   [V AN_POS dtmroc 1]
ELMB Channel 37:   3.640 V   [V AN_POS dtmroc 2]
ELMB Channel 38:   3.667 V   [V AN_POS dtmroc 3]
ELMB Channel 39:   3.651 V   [V AN_POS dtmroc 4]
ELMB Channel 40:   3.686 V   [V AN_POS dtmroc 5]
ELMB Channel 41:   3.644 V   [V AN_POS dtmroc 5]
ELMB Channel 42:   3.657 V   [V AN_POS dtmroc 6]
ELMB Channel 43:   3.655 V   [V AN_POS dtmroc 6]
ELMB Channel 44:   -3.690 V   [V AN_NEG dtmroc 1]
ELMB Channel 45:   -3.628 V   [V AN_NEG dtmroc 2]
ELMB Channel 46:   -3.634 V   [V AN_NEG dtmroc 3]
ELMB Channel 47:   -3.636 V   [V AN_NEG dtmroc 4]
ELMB Channel 48:   -3.635 V   [V AN_NEG dtmroc 5]
ELMB Channel 49:   -3.642 V   [V AN_NEG dtmroc 5]
ELMB Channel 50:   -3.650 V   [V AN_NEG dtmroc 6]
ELMB Channel 51:   -3.654 V   [V AN_NEG dtmroc 6]
ELMB Channel 52:   3.732 V   [V DIGI dtmroc 9]
ELMB Channel 53:   3.720 V   [V DIGI dtmroc 10]
ELMB Channel 54:   3.683 V   [V DIGI dtmroc 11]
ELMB Channel 55:   3.685 V   [V DIGI dtmroc 12]
ELMB Channel 56:   3.694 V   [V DIGI dtmroc 13]
ELMB Channel 57:   3.669 V   [V DIGI dtmroc 13]
ELMB Channel 58:   3.667 V   [V DIGI dtmroc 14]
ELMB Channel 59:   3.693 V   [V DIGI dtmroc 14]
Channel 60, temperature 43.59
Channel 61, temperature 45.82
Channel 62, temperature 43.90
Channel 63, temperature 46.56
Temperature channels
Current channels
******** 0. 0.782956  
******** 2. 0.769807  
******** 4. 0.759690  
******** 6. 0.760301  
******** 8. 0.750030  
******** 9. 0.761998  
******** 10. 0.763864  
******** 11. 0.734599  
******** 12. 0.758520  
******** 14. 0.760550  
******** 16. 0.755766  
******** 18. 0.746790  
******** 20. 0.739224  
******** 21. 0.755766  
******** 22. 0.786176  
******** 23. 0.759852  
******** 24. 0.729052  
******** 26. 0.724344  
******** 28. 0.739416  
******** 30. 0.717649  
******** 32. 0.751600  
******** 33. 0.739041  
******** 34. 0.725447  
******** 35. 0.768858  
Voltage channels 3.000000  3.920000
ELMB Channel 36:   3.658 V   [V AN_POS dtmroc 1]
ELMB Channel 37:   3.640 V   [V AN_POS dtmroc 2]
ELMB Channel 38:   3.667 V   [V AN_POS dtmroc 3]
ELMB Channel 39:   3.651 V   [V AN_POS dtmroc 4]
ELMB Channel 40:   3.686 V   [V AN_POS dtmroc 5]
ELMB Channel 41:   3.644 V   [V AN_POS dtmroc 5]
ELMB Channel 42:   3.657 V   [V AN_POS dtmroc 6]
ELMB Channel 43:   3.655 V   [V AN_POS dtmroc 6]
ELMB Channel 44:   -3.690 V   [V AN_NEG dtmroc 1]
ELMB Channel 45:   -3.628 V   [V AN_NEG dtmroc 2]
ELMB Channel 46:   -3.634 V   [V AN_NEG dtmroc 3]
ELMB Channel 47:   -3.636 V   [V AN_NEG dtmroc 4]
ELMB Channel 48:   -3.635 V   [V AN_NEG dtmroc 5]
ELMB Channel 49:   -3.642 V   [V AN_NEG dtmroc 5]
ELMB Channel 50:   -3.650 V   [V AN_NEG dtmroc 6]
ELMB Channel 51:   -3.654 V   [V AN_NEG dtmroc 6]
ELMB Channel 52:   3.732 V   [V DIGI dtmroc 9]
ELMB Channel 53:   3.720 V   [V DIGI dtmroc 10]
ELMB Channel 54:   3.683 V   [V DIGI dtmroc 11]
ELMB Channel 55:   3.685 V   [V DIGI dtmroc 12]
ELMB Channel 56:   3.694 V   [V DIGI dtmroc 13]
ELMB Channel 57:   3.669 V   [V DIGI dtmroc 13]
ELMB Channel 58:   3.667 V   [V DIGI dtmroc 14]
ELMB Channel 59:   3.693 V   [V DIGI dtmroc 14]
Channel 60, temperature 43.77
Channel 61, temperature 46.03
Channel 62, temperature 44.11
Channel 63, temperature 46.77
Temperature channels
Current channels
******** 0. 0.786056  
******** 2. 0.772907  
******** 4. 0.759690  
******** 6. 0.763401  
******** 8. 0.750030  
******** 9. 0.761998  
******** 10. 0.763864  
******** 11. 0.734599  
******** 12. 0.758513  
******** 14. 0.763629  
******** 16. 0.755777  
******** 18. 0.743774  
******** 20. 0.739210  
******** 21. 0.755735  
******** 22. 0.786175  
******** 23. 0.759852  
******** 24. 0.729067  
******** 26. 0.721244  
******** 28. 0.739416  
******** 30. 0.714611  
******** 32. 0.754600  
******** 33. 0.739064  
******** 34. 0.725504  
******** 35. 0.768880  
Voltage channels 3.000000  3.920000
ELMB Channel 36:   3.658 V   [V AN_POS dtmroc 1]
ELMB Channel 37:   3.640 V   [V AN_POS dtmroc 2]
ELMB Channel 38:   3.667 V   [V AN_POS dtmroc 3]
ELMB Channel 39:   3.651 V   [V AN_POS dtmroc 4]
ELMB Channel 40:   3.686 V   [V AN_POS dtmroc 5]
ELMB Channel 41:   3.644 V   [V AN_POS dtmroc 5]
ELMB Channel 42:   3.657 V   [V AN_POS dtmroc 6]
ELMB Channel 43:   3.655 V   [V AN_POS dtmroc 6]
ELMB Channel 44:   -3.690 V   [V AN_NEG dtmroc 1]
ELMB Channel 45:   -3.629 V   [V AN_NEG dtmroc 2]
ELMB Channel 46:   -3.635 V   [V AN_NEG dtmroc 3]
ELMB Channel 47:   -3.636 V   [V AN_NEG dtmroc 4]
ELMB Channel 48:   -3.636 V   [V AN_NEG dtmroc 5]
ELMB Channel 49:   -3.643 V   [V AN_NEG dtmroc 5]
ELMB Channel 50:   -3.650 V   [V AN_NEG dtmroc 6]
ELMB Channel 51:   -3.654 V   [V AN_NEG dtmroc 6]
ELMB Channel 52:   3.732 V   [V DIGI dtmroc 9]
ELMB Channel 53:   3.720 V   [V DIGI dtmroc 10]
ELMB Channel 54:   3.683 V   [V DIGI dtmroc 11]
ELMB Channel 55:   3.685 V   [V DIGI dtmroc 12]
ELMB Channel 56:   3.694 V   [V DIGI dtmroc 13]
ELMB Channel 57:   3.669 V   [V DIGI dtmroc 13]
ELMB Channel 58:   3.667 V   [V DIGI dtmroc 14]
ELMB Channel 59:   3.693 V   [V DIGI dtmroc 14]
Channel 60, temperature 43.95
Channel 61, temperature 46.23
Channel 62, temperature 44.30
Channel 63, temperature 46.99
Temperature channels
Current channels
******** 0. 0.786019  
******** 2. 0.769807  
******** 4. 0.762843  
******** 6. 0.763403  
******** 8. 0.750030  
******** 9. 0.761998  
******** 10. 0.766964  
******** 11. 0.731599  
******** 12. 0.761513  
******** 14. 0.763608  
******** 16. 0.752683  
******** 18. 0.743759  
******** 20. 0.739210  
******** 21. 0.755704  
******** 22. 0.786173  
******** 23. 0.756796  
******** 24. 0.729067  
******** 26. 0.724325  
******** 28. 0.739420  
******** 30. 0.714575  
******** 32. 0.754600  
******** 33. 0.739064  
******** 34. 0.725504  
******** 35. 0.768858  
Voltage channels 3.000000  3.920000
ELMB Channel 36:   3.659 V   [V AN_POS dtmroc 1]
ELMB Channel 37:   3.640 V   [V AN_POS dtmroc 2]
ELMB Channel 38:   3.668 V   [V AN_POS dtmroc 3]
ELMB Channel 39:   3.652 V   [V AN_POS dtmroc 4]
ELMB Channel 40:   3.686 V   [V AN_POS dtmroc 5]
ELMB Channel 41:   3.644 V   [V AN_POS dtmroc 5]
ELMB Channel 42:   3.657 V   [V AN_POS dtmroc 6]
ELMB Channel 43:   3.655 V   [V AN_POS dtmroc 6]
ELMB Channel 44:   -3.690 V   [V AN_NEG dtmroc 1]
ELMB Channel 45:   -3.629 V   [V AN_NEG dtmroc 2]
ELMB Channel 46:   -3.635 V   [V AN_NEG dtmroc 3]
ELMB Channel 47:   -3.637 V   [V AN_NEG dtmroc 4]
ELMB Channel 48:   -3.636 V   [V AN_NEG dtmroc 5]
ELMB Channel 49:   -3.643 V   [V AN_NEG dtmroc 5]
ELMB Channel 50:   -3.650 V   [V AN_NEG dtmroc 6]
ELMB Channel 51:   -3.655 V   [V AN_NEG dtmroc 6]
ELMB Channel 52:   3.732 V   [V DIGI dtmroc 9]
ELMB Channel 53:   3.720 V   [V DIGI dtmroc 10]
ELMB Channel 54:   3.683 V   [V DIGI dtmroc 11]
ELMB Channel 55:   3.686 V   [V DIGI dtmroc 12]
ELMB Channel 56:   3.694 V   [V DIGI dtmroc 13]
ELMB Channel 57:   3.669 V   [V DIGI dtmroc 13]
ELMB Channel 58:   3.667 V   [V DIGI dtmroc 14]
ELMB Channel 59:   3.693 V   [V DIGI dtmroc 14]
Channel 60, temperature 44.12
Channel 61, temperature 46.41
Channel 62, temperature 44.48
Channel 63, temperature 47.21
Temperature channels
Current channels
******** 0. 0.786056  
******** 2. 0.772907  
******** 4. 0.759743  
******** 6. 0.763401  
******** 8. 0.750030  
******** 9. 0.761998  
******** 10. 0.766964  
******** 11. 0.731599  
******** 12. 0.758507  
******** 14. 0.763588  
******** 16. 0.752683  
******** 18. 0.743743  
******** 20. 0.739183  
******** 21. 0.755704  
******** 22. 0.786173  
******** 23. 0.756796  
******** 24. 0.729067  
******** 26. 0.721225  
******** 28. 0.739420  
******** 30. 0.714611  
******** 32. 0.751603  
******** 33. 0.739064  
******** 34. 0.725504  
******** 35. 0.768858  
Voltage channels 3.000000  3.920000
ELMB Channel 36:   3.658 V   [V AN_POS dtmroc 1]
ELMB Channel 37:   3.640 V   [V AN_POS dtmroc 2]
ELMB Channel 38:   3.668 V   [V AN_POS dtmroc 3]
ELMB Channel 39:   3.651 V   [V AN_POS dtmroc 4]
ELMB Channel 40:   3.686 V   [V AN_POS dtmroc 5]
ELMB Channel 41:   3.644 V   [V AN_POS dtmroc 5]
ELMB Channel 42:   3.657 V   [V AN_POS dtmroc 6]
ELMB Channel 43:   3.655 V   [V AN_POS dtmroc 6]
ELMB Channel 44:   -3.690 V   [V AN_NEG dtmroc 1]
ELMB Channel 45:   -3.629 V   [V AN_NEG dtmroc 2]
ELMB Channel 46:   -3.635 V   [V AN_NEG dtmroc 3]
ELMB Channel 47:   -3.637 V   [V AN_NEG dtmroc 4]
ELMB Channel 48:   -3.636 V   [V AN_NEG dtmroc 5]
ELMB Channel 49:   -3.643 V   [V AN_NEG dtmroc 5]
ELMB Channel 50:   -3.650 V   [V AN_NEG dtmroc 6]
ELMB Channel 51:   -3.655 V   [V AN_NEG dtmroc 6]
ELMB Channel 52:   3.732 V   [V DIGI dtmroc 9]
ELMB Channel 53:   3.720 V   [V DIGI dtmroc 10]
ELMB Channel 54:   3.683 V   [V DIGI dtmroc 11]
ELMB Channel 55:   3.685 V   [V DIGI dtmroc 12]
ELMB Channel 56:   3.694 V   [V DIGI dtmroc 13]
ELMB Channel 57:   3.669 V   [V DIGI dtmroc 13]
ELMB Channel 58:   3.667 V   [V DIGI dtmroc 14]
ELMB Channel 59:   3.693 V   [V DIGI dtmroc 14]
Channel 60, temperature 44.29
Channel 61, temperature 46.58
Channel 62, temperature 44.67
Channel 63, temperature 47.41
Temperature channels
Current channels
******** 0. 0.786056  
******** 2. 0.772907  
******** 4. 0.762790  
******** 6. 0.763403  
******** 8. 0.750039  
******** 9. 0.761998  
******** 10. 0.766964  
******** 11. 0.731599  
******** 12. 0.761500  
******** 14. 0.763567  
******** 16. 0.755783  
******** 18. 0.746743  
******** 20. 0.739170  
******** 21. 0.755641  
******** 22. 0.789172  
******** 23. 0.759768  
******** 24. 0.729067  
******** 26. 0.724344  
******** 28. 0.739420  
******** 30. 0.714575  
******** 32. 0.751600  
******** 33. 0.739064  
******** 34. 0.725504  
******** 35. 0.768880  
Voltage channels 3.000000  3.920000
ELMB Channel 36:   3.658 V   [V AN_POS dtmroc 1]
ELMB Channel 37:   3.640 V   [V AN_POS dtmroc 2]
ELMB Channel 38:   3.667 V   [V AN_POS dtmroc 3]
ELMB Channel 39:   3.652 V   [V AN_POS dtmroc 4]
ELMB Channel 40:   3.685 V   [V AN_POS dtmroc 5]
ELMB Channel 41:   3.644 V   [V AN_POS dtmroc 5]
ELMB Channel 42:   3.657 V   [V AN_POS dtmroc 6]
ELMB Channel 43:   3.655 V   [V AN_POS dtmroc 6]
ELMB Channel 44:   -3.691 V   [V AN_NEG dtmroc 1]
ELMB Channel 45:   -3.630 V   [V AN_NEG dtmroc 2]
ELMB Channel 46:   -3.635 V   [V AN_NEG dtmroc 3]
ELMB Channel 47:   -3.637 V   [V AN_NEG dtmroc 4]
ELMB Channel 48:   -3.637 V   [V AN_NEG dtmroc 5]
ELMB Channel 49:   -3.644 V   [V AN_NEG dtmroc 5]
ELMB Channel 50:   -3.651 V   [V AN_NEG dtmroc 6]
ELMB Channel 51:   -3.655 V   [V AN_NEG dtmroc 6]
ELMB Channel 52:   3.732 V   [V DIGI dtmroc 9]
ELMB Channel 53:   3.720 V   [V DIGI dtmroc 10]
ELMB Channel 54:   3.683 V   [V DIGI dtmroc 11]
ELMB Channel 55:   3.686 V   [V DIGI dtmroc 12]
ELMB Channel 56:   3.694 V   [V DIGI dtmroc 13]
ELMB Channel 57:   3.669 V   [V DIGI dtmroc 13]
ELMB Channel 58:   3.667 V   [V DIGI dtmroc 14]
ELMB Channel 59:   3.693 V   [V DIGI dtmroc 14]
Channel 60, temperature 44.47
Channel 61, temperature 46.77
Channel 62, temperature 44.84
Channel 63, temperature 47.61
Temperature channels
Current channels
******** 0. 0.782919  
******** 2. 0.769807  
******** 4. 0.762843  
******** 6. 0.763403  
******** 8. 0.750019  
******** 9. 0.761998  
******** 10. 0.766943  
******** 11. 0.731609  
******** 12. 0.761494  
******** 14. 0.766567  
******** 16. 0.755788  
******** 18. 0.749827  
******** 20. 0.736056  
******** 21. 0.755579  
******** 22. 0.786169  
******** 23. 0.756712  
******** 24. 0.729082  
******** 26. 0.724325  
******** 28. 0.742420  
******** 30. 0.714611  
******** 32. 0.751605  
******** 33. 0.735941  
******** 34. 0.722504  
******** 35. 0.768880  
Voltage channels 3.000000  3.920000
ELMB Channel 36:   3.659 V   [V AN_POS dtmroc 1]
ELMB Channel 37:   3.640 V   [V AN_POS dtmroc 2]
ELMB Channel 38:   3.668 V   [V AN_POS dtmroc 3]
ELMB Channel 39:   3.652 V   [V AN_POS dtmroc 4]
ELMB Channel 40:   3.686 V   [V AN_POS dtmroc 5]
ELMB Channel 41:   3.644 V   [V AN_POS dtmroc 5]
ELMB Channel 42:   3.657 V   [V AN_POS dtmroc 6]
ELMB Channel 43:   3.655 V   [V AN_POS dtmroc 6]
ELMB Channel 44:   -3.691 V   [V AN_NEG dtmroc 1]
ELMB Channel 45:   -3.630 V   [V AN_NEG dtmroc 2]
ELMB Channel 46:   -3.636 V   [V AN_NEG dtmroc 3]
ELMB Channel 47:   -3.637 V   [V AN_NEG dtmroc 4]
ELMB Channel 48:   -3.637 V   [V AN_NEG dtmroc 5]
ELMB Channel 49:   -3.644 V   [V AN_NEG dtmroc 5]
ELMB Channel 50:   -3.651 V   [V AN_NEG dtmroc 6]
ELMB Channel 51:   -3.656 V   [V AN_NEG dtmroc 6]
ELMB Channel 52:   3.732 V   [V DIGI dtmroc 9]
ELMB Channel 53:   3.720 V   [V DIGI dtmroc 10]
ELMB Channel 54:   3.683 V   [V DIGI dtmroc 11]
ELMB Channel 55:   3.685 V   [V DIGI dtmroc 12]
ELMB Channel 56:   3.695 V   [V DIGI dtmroc 13]
ELMB Channel 57:   3.669 V   [V DIGI dtmroc 13]
ELMB Channel 58:   3.667 V   [V DIGI dtmroc 14]
ELMB Channel 59:   3.693 V   [V DIGI dtmroc 14]
Channel 60, temperature 44.63
Channel 61, temperature 46.96
Channel 62, temperature 45.03
Channel 63, temperature 47.80
Temperature channels
Current channels
******** 0. 0.786019  
******** 2. 0.772907  
******** 4. 0.762790  
******** 6. 0.763403  
******** 8. 0.750030  
******** 9. 0.761999  
******** 10. 0.766943  
******** 11. 0.731609  
******** 12. 0.758487  
******** 14. 0.766526  
******** 16. 0.755800  
******** 18. 0.743712  
******** 20. 0.739142  
******** 21. 0.752509  
******** 22. 0.789169  
******** 23. 0.759712  
******** 24. 0.729082  
******** 26. 0.724307  
******** 28. 0.739425  
******** 30. 0.714575  
******** 32. 0.751605  
******** 33. 0.739041  
******** 34. 0.725504  
******** 35. 0.771980  
Voltage channels 3.000000  3.920000
ELMB Channel 36:   3.659 V   [V AN_POS dtmroc 1]
ELMB Channel 37:   3.640 V   [V AN_POS dtmroc 2]
ELMB Channel 38:   3.667 V   [V AN_POS dtmroc 3]
ELMB Channel 39:   3.652 V   [V AN_POS dtmroc 4]
ELMB Channel 40:   3.686 V   [V AN_POS dtmroc 5]
ELMB Channel 41:   3.645 V   [V AN_POS dtmroc 5]
ELMB Channel 42:   3.657 V   [V AN_POS dtmroc 6]
ELMB Channel 43:   3.655 V   [V AN_POS dtmroc 6]
ELMB Channel 44:   -3.691 V   [V AN_NEG dtmroc 1]
ELMB Channel 45:   -3.630 V   [V AN_NEG dtmroc 2]
ELMB Channel 46:   -3.636 V   [V AN_NEG dtmroc 3]
ELMB Channel 47:   -3.638 V   [V AN_NEG dtmroc 4]
ELMB Channel 48:   -3.637 V   [V AN_NEG dtmroc 5]
ELMB Channel 49:   -3.644 V   [V AN_NEG dtmroc 5]
ELMB Channel 50:   -3.651 V   [V AN_NEG dtmroc 6]
ELMB Channel 51:   -3.656 V   [V AN_NEG dtmroc 6]
ELMB Channel 52:   3.732 V   [V DIGI dtmroc 9]
ELMB Channel 53:   3.721 V   [V DIGI dtmroc 10]
ELMB Channel 54:   3.683 V   [V DIGI dtmroc 11]
ELMB Channel 55:   3.686 V   [V DIGI dtmroc 12]
ELMB Channel 56:   3.695 V   [V DIGI dtmroc 13]
ELMB Channel 57:   3.669 V   [V DIGI dtmroc 13]
ELMB Channel 58:   3.667 V   [V DIGI dtmroc 14]
ELMB Channel 59:   3.693 V   [V DIGI dtmroc 14]
Channel 60, temperature 44.80
Channel 61, temperature 47.13
Channel 62, temperature 45.21
Channel 63, temperature 47.98
Temperature channels
Current channels
******** 0. 0.786019  
******** 2. 0.772907  
******** 4. 0.762843  
******** 6. 0.763403  
******** 8. 0.750030  
******** 9. 0.761999  
******** 10. 0.766943  
******** 11. 0.731599  
******** 12. 0.758487  
******** 14. 0.763526  
******** 16. 0.755800  
******** 18. 0.743712  
******** 20. 0.739129  
******** 21. 0.755547  
******** 22. 0.789167  
******** 23. 0.759684  
******** 24. 0.729082  
******** 26. 0.724325  
******** 28. 0.742420  
******** 30. 0.714611  
******** 32. 0.754603  
******** 33. 0.739041  
******** 34. 0.725504  
******** 35. 0.771980  
Voltage channels 3.000000  3.920000
ELMB Channel 36:   3.659 V   [V AN_POS dtmroc 1]
ELMB Channel 37:   3.640 V   [V AN_POS dtmroc 2]
ELMB Channel 38:   3.668 V   [V AN_POS dtmroc 3]
ELMB Channel 39:   3.652 V   [V AN_POS dtmroc 4]
ELMB Channel 40:   3.686 V   [V AN_POS dtmroc 5]
ELMB Channel 41:   3.645 V   [V AN_POS dtmroc 5]
ELMB Channel 42:   3.657 V   [V AN_POS dtmroc 6]
ELMB Channel 43:   3.655 V   [V AN_POS dtmroc 6]
ELMB Channel 44:   -3.691 V   [V AN_NEG dtmroc 1]
ELMB Channel 45:   -3.630 V   [V AN_NEG dtmroc 2]
ELMB Channel 46:   -3.636 V   [V AN_NEG dtmroc 3]
ELMB Channel 47:   -3.638 V   [V AN_NEG dtmroc 4]
ELMB Channel 48:   -3.638 V   [V AN_NEG dtmroc 5]
ELMB Channel 49:   -3.645 V   [V AN_NEG dtmroc 5]
ELMB Channel 50:   -3.652 V   [V AN_NEG dtmroc 6]
ELMB Channel 51:   -3.656 V   [V AN_NEG dtmroc 6]
ELMB Channel 52:   3.732 V   [V DIGI dtmroc 9]
ELMB Channel 53:   3.720 V   [V DIGI dtmroc 10]
ELMB Channel 54:   3.683 V   [V DIGI dtmroc 11]
ELMB Channel 55:   3.685 V   [V DIGI dtmroc 12]
ELMB Channel 56:   3.694 V   [V DIGI dtmroc 13]
ELMB Channel 57:   3.669 V   [V DIGI dtmroc 13]
ELMB Channel 58:   3.667 V   [V DIGI dtmroc 14]
ELMB Channel 59:   3.693 V   [V DIGI dtmroc 14]
Channel 60, temperature 44.96
Channel 61, temperature 47.29
Channel 62, temperature 45.39
Channel 63, temperature 48.16
Temperature channels
Current channels
******** 0. 0.786019  
******** 2. 0.772907  
******** 4. 0.759743  
******** 6. 0.763403  
******** 8. 0.750019  
******** 9. 0.758998  
******** 10. 0.766964  
******** 11. 0.728499  
******** 12. 0.761481  
******** 14. 0.766506  
******** 16. 0.755800  
******** 18. 0.746696  
******** 20. 0.739115  
******** 21. 0.758516  
******** 22. 0.789166  
******** 23. 0.759656  
******** 24. 0.725982  
******** 26. 0.724325  
******** 28. 0.739420  
******** 30. 0.714575  
******** 32. 0.751605  
******** 33. 0.735941  
******** 34. 0.725504  
******** 35. 0.768880  
Voltage channels 3.000000  3.920000
ELMB Channel 36:   3.659 V   [V AN_POS dtmroc 1]
ELMB Channel 37:   3.640 V   [V AN_POS dtmroc 2]
ELMB Channel 38:   3.668 V   [V AN_POS dtmroc 3]
ELMB Channel 39:   3.652 V   [V AN_POS dtmroc 4]
ELMB Channel 40:   3.686 V   [V AN_POS dtmroc 5]
ELMB Channel 41:   3.644 V   [V AN_POS dtmroc 5]
ELMB Channel 42:   3.657 V   [V AN_POS dtmroc 6]
ELMB Channel 43:   3.655 V   [V AN_POS dtmroc 6]
ELMB Channel 44:   -3.692 V   [V AN_NEG dtmroc 1]
ELMB Channel 45:   -3.631 V   [V AN_NEG dtmroc 2]
ELMB Channel 46:   -3.636 V   [V AN_NEG dtmroc 3]
ELMB Channel 47:   -3.638 V   [V AN_NEG dtmroc 4]
ELMB Channel 48:   -3.638 V   [V AN_NEG dtmroc 5]
ELMB Channel 49:   -3.645 V   [V AN_NEG dtmroc 5]
ELMB Channel 50:   -3.652 V   [V AN_NEG dtmroc 6]
ELMB Channel 51:   -3.657 V   [V AN_NEG dtmroc 6]
ELMB Channel 52:   3.732 V   [V DIGI dtmroc 9]
ELMB Channel 53:   3.720 V   [V DIGI dtmroc 10]
ELMB Channel 54:   3.683 V   [V DIGI dtmroc 11]
ELMB Channel 55:   3.686 V   [V DIGI dtmroc 12]
ELMB Channel 56:   3.695 V   [V DIGI dtmroc 13]
ELMB Channel 57:   3.669 V   [V DIGI dtmroc 13]
ELMB Channel 58:   3.667 V   [V DIGI dtmroc 14]
ELMB Channel 59:   3.693 V   [V DIGI dtmroc 14]
Channel 60, temperature 45.14
Channel 61, temperature 47.48
Channel 62, temperature 45.55
Channel 63, temperature 48.36
Temperature channels
Current channels
******** 0. 0.786019  
******** 2. 0.772907  
******** 4. 0.762843  
******** 6. 0.763403  
******** 8. 0.750019  
******** 9. 0.758999  
******** 10. 0.763843  
******** 11. 0.728499  
******** 12. 0.758474  
******** 14. 0.766506  
******** 16. 0.755805  
******** 18. 0.746696  
******** 20. 0.742102  
******** 21. 0.758516  
******** 22. 0.792266  
******** 23. 0.759628  
******** 24. 0.729082  
******** 26. 0.724307  
******** 28. 0.739425  
******** 30. 0.714575  
******** 32. 0.751603  
******** 33. 0.735941  
******** 34. 0.725504  
******** 35. 0.768880  
Voltage channels 3.000000  3.920000
ELMB Channel 36:   3.659 V   [V AN_POS dtmroc 1]
ELMB Channel 37:   3.640 V   [V AN_POS dtmroc 2]
ELMB Channel 38:   3.668 V   [V AN_POS dtmroc 3]
ELMB Channel 39:   3.652 V   [V AN_POS dtmroc 4]
ELMB Channel 40:   3.686 V   [V AN_POS dtmroc 5]
ELMB Channel 41:   3.645 V   [V AN_POS dtmroc 5]
ELMB Channel 42:   3.657 V   [V AN_POS dtmroc 6]
ELMB Channel 43:   3.655 V   [V AN_POS dtmroc 6]
ELMB Channel 44:   -3.692 V   [V AN_NEG dtmroc 1]
ELMB Channel 45:   -3.631 V   [V AN_NEG dtmroc 2]
ELMB Channel 46:   -3.637 V   [V AN_NEG dtmroc 3]
ELMB Channel 47:   -3.638 V   [V AN_NEG dtmroc 4]
ELMB Channel 48:   -3.638 V   [V AN_NEG dtmroc 5]
ELMB Channel 49:   -3.645 V   [V AN_NEG dtmroc 5]
ELMB Channel 50:   -3.652 V   [V AN_NEG dtmroc 6]
ELMB Channel 51:   -3.657 V   [V AN_NEG dtmroc 6]
ELMB Channel 52:   3.732 V   [V DIGI dtmroc 9]
ELMB Channel 53:   3.721 V   [V DIGI dtmroc 10]
ELMB Channel 54:   3.683 V   [V DIGI dtmroc 11]
ELMB Channel 55:   3.686 V   [V DIGI dtmroc 12]
ELMB Channel 56:   3.694 V   [V DIGI dtmroc 13]
ELMB Channel 57:   3.669 V   [V DIGI dtmroc 13]
ELMB Channel 58:   3.667 V   [V DIGI dtmroc 14]
ELMB Channel 59:   3.693 V   [V DIGI dtmroc 14]
Channel 60, temperature 45.29
Channel 61, temperature 47.63
Channel 62, temperature 45.72
Channel 63, temperature 48.52
Temperature channels
Current channels
******** 0. 0.786019  
******** 2. 0.769807  
******** 4. 0.762790  
******** 6. 0.763403  
******** 8. 0.750019  
******** 9. 0.758999  
******** 10. 0.766964  
******** 11. 0.731599  
******** 12. 0.761474  
******** 14. 0.766506  
******** 16. 0.755805  
******** 18. 0.746665  
******** 20. 0.739089  
******** 21. 0.755453  
******** 22. 0.792264  
******** 23. 0.759600  
******** 24. 0.729082  
******** 26. 0.724307  
******** 28. 0.742425  
******** 30. 0.711475  
******** 32. 0.751603  
******** 33. 0.735941  
******** 34. 0.722504  
******** 35. 0.768880  
Voltage channels 3.000000  3.920000
ELMB Channel 36:   3.659 V   [V AN_POS dtmroc 1]
ELMB Channel 37:   3.640 V   [V AN_POS dtmroc 2]
ELMB Channel 38:   3.667 V   [V AN_POS dtmroc 3]
ELMB Channel 39:   3.652 V   [V AN_POS dtmroc 4]
ELMB Channel 40:   3.686 V   [V AN_POS dtmroc 5]
ELMB Channel 41:   3.645 V   [V AN_POS dtmroc 5]
ELMB Channel 42:   3.657 V   [V AN_POS dtmroc 6]
ELMB Channel 43:   3.655 V   [V AN_POS dtmroc 6]
ELMB Channel 44:   -3.692 V   [V AN_NEG dtmroc 1]
ELMB Channel 45:   -3.631 V   [V AN_NEG dtmroc 2]
ELMB Channel 46:   -3.637 V   [V AN_NEG dtmroc 3]
ELMB Channel 47:   -3.639 V   [V AN_NEG dtmroc 4]
ELMB Channel 48:   -3.639 V   [V AN_NEG dtmroc 5]
ELMB Channel 49:   -3.646 V   [V AN_NEG dtmroc 5]
ELMB Channel 50:   -3.652 V   [V AN_NEG dtmroc 6]
ELMB Channel 51:   -3.657 V   [V AN_NEG dtmroc 6]
ELMB Channel 52:   3.732 V   [V DIGI dtmroc 9]
ELMB Channel 53:   3.721 V   [V DIGI dtmroc 10]
ELMB Channel 54:   3.683 V   [V DIGI dtmroc 11]
ELMB Channel 55:   3.686 V   [V DIGI dtmroc 12]
ELMB Channel 56:   3.694 V   [V DIGI dtmroc 13]
ELMB Channel 57:   3.669 V   [V DIGI dtmroc 13]
ELMB Channel 58:   3.667 V   [V DIGI dtmroc 14]
ELMB Channel 59:   3.693 V   [V DIGI dtmroc 14]
Channel 60, temperature 45.46
Channel 61, temperature 47.79
Channel 62, temperature 45.87
Channel 63, temperature 48.69
Temperature channels
Current channels
******** 0. 0.789019  
******** 2. 0.772907  
******** 4. 0.762790  
******** 6. 0.763403  
******** 8. 0.750019  
******** 9. 0.761999  
******** 10. 0.766943  
******** 11. 0.731609  
******** 12. 0.761461  
******** 14. 0.766465  
******** 16. 0.755811  
******** 18. 0.746649  
******** 20. 0.739089  
******** 21. 0.758453  
******** 22. 0.789162  
******** 23. 0.756600  
******** 24. 0.729082  
******** 26. 0.724307  
******** 28. 0.742425  
******** 30. 0.711475  
******** 32. 0.754605  
******** 33. 0.735916  
******** 34. 0.725563  
******** 35. 0.771980  
Voltage channels 3.000000  3.920000
ELMB Channel 36:   3.659 V   [V AN_POS dtmroc 1]
ELMB Channel 37:   3.640 V   [V AN_POS dtmroc 2]
ELMB Channel 38:   3.667 V   [V AN_POS dtmroc 3]
ELMB Channel 39:   3.652 V   [V AN_POS dtmroc 4]
ELMB Channel 40:   3.686 V   [V AN_POS dtmroc 5]
ELMB Channel 41:   3.645 V   [V AN_POS dtmroc 5]
ELMB Channel 42:   3.657 V   [V AN_POS dtmroc 6]
ELMB Channel 43:   3.655 V   [V AN_POS dtmroc 6]
ELMB Channel 44:   -3.693 V   [V AN_NEG dtmroc 1]
ELMB Channel 45:   -3.631 V   [V AN_NEG dtmroc 2]
ELMB Channel 46:   -3.637 V   [V AN_NEG dtmroc 3]
ELMB Channel 47:   -3.639 V   [V AN_NEG dtmroc 4]
ELMB Channel 48:   -3.639 V   [V AN_NEG dtmroc 5]
ELMB Channel 49:   -3.646 V   [V AN_NEG dtmroc 5]
ELMB Channel 50:   -3.653 V   [V AN_NEG dtmroc 6]
ELMB Channel 51:   -3.657 V   [V AN_NEG dtmroc 6]
ELMB Channel 52:   3.732 V   [V DIGI dtmroc 9]
ELMB Channel 53:   3.721 V   [V DIGI dtmroc 10]
ELMB Channel 54:   3.683 V   [V DIGI dtmroc 11]
ELMB Channel 55:   3.686 V   [V DIGI dtmroc 12]
ELMB Channel 56:   3.695 V   [V DIGI dtmroc 13]
ELMB Channel 57:   3.669 V   [V DIGI dtmroc 13]
ELMB Channel 58:   3.667 V   [V DIGI dtmroc 14]
ELMB Channel 59:   3.693 V   [V DIGI dtmroc 14]
Channel 60, temperature 45.61
Channel 61, temperature 47.97
Channel 62, temperature 46.04
Channel 63, temperature 48.83
Temperature channels
Current channels
******** 0. 0.789019  
******** 2. 0.772948  
******** 4. 0.762843  
******** 6. 0.763403  
******** 8. 0.750019  
******** 9. 0.761999  
******** 10. 0.766943  
******** 11. 0.728509  
******** 12. 0.761461  
******** 14. 0.763485  
******** 16. 0.755816  
******** 18. 0.746665  
******** 20. 0.739075  
******** 21. 0.758422  
******** 22. 0.789162  
******** 23. 0.759600  
******** 24. 0.729082  
******** 26. 0.724288  
******** 28. 0.742425  
******** 30. 0.714537  
******** 32. 0.754605  
******** 33. 0.739016  
******** 34. 0.725563  
******** 35. 0.771980  
Voltage channels 3.000000  3.920000
ELMB Channel 36:   3.659 V   [V AN_POS dtmroc 1]
ELMB Channel 37:   3.641 V   [V AN_POS dtmroc 2]
ELMB Channel 38:   3.668 V   [V AN_POS dtmroc 3]
ELMB Channel 39:   3.652 V   [V AN_POS dtmroc 4]
ELMB Channel 40:   3.686 V   [V AN_POS dtmroc 5]
ELMB Channel 41:   3.645 V   [V AN_POS dtmroc 5]
ELMB Channel 42:   3.657 V   [V AN_POS dtmroc 6]
ELMB Channel 43:   3.655 V   [V AN_POS dtmroc 6]
ELMB Channel 44:   -3.693 V   [V AN_NEG dtmroc 1]
ELMB Channel 45:   -3.631 V   [V AN_NEG dtmroc 2]
ELMB Channel 46:   -3.637 V   [V AN_NEG dtmroc 3]
ELMB Channel 47:   -3.639 V   [V AN_NEG dtmroc 4]
ELMB Channel 48:   -3.639 V   [V AN_NEG dtmroc 5]
ELMB Channel 49:   -3.646 V   [V AN_NEG dtmroc 5]
ELMB Channel 50:   -3.653 V   [V AN_NEG dtmroc 6]
ELMB Channel 51:   -3.657 V   [V AN_NEG dtmroc 6]
ELMB Channel 52:   3.732 V   [V DIGI dtmroc 9]
ELMB Channel 53:   3.721 V   [V DIGI dtmroc 10]
ELMB Channel 54:   3.683 V   [V DIGI dtmroc 11]
ELMB Channel 55:   3.686 V   [V DIGI dtmroc 12]
ELMB Channel 56:   3.695 V   [V DIGI dtmroc 13]
ELMB Channel 57:   3.669 V   [V DIGI dtmroc 13]
ELMB Channel 58:   3.667 V   [V DIGI dtmroc 14]
ELMB Channel 59:   3.693 V   [V DIGI dtmroc 14]
Channel 60, temperature 45.76
Channel 61, temperature 48.14
Channel 62, temperature 46.20
Channel 63, temperature 49.01
Temperature channels
Voltages switched off via Hardware Reset

 NO ERRORS in  40 loops, TEST finished at 08.06.2015 16:21:51
