=====================================================
Calibration: card TYPE Wheel A
=====================================================
Calibration File Name: C:\LVPP_TESTS\data\card_145\LVPP_CALIB_145.csv

Calibration started: 06.05.2007 18:56:15
ELMB serial number: F455
Calibration file stored
Calibration started: 06.05.2007 18:57:43

