Calibration done: 29.05.2007 18:02:44
F027
Current channel, calibration factor
0  , 0.000515 ,  0.192200
1  , 0.000009 ,  0.003000
2  , 0.000310 ,  0.115900
3  , -0.000026 ,  -0.009100
4  , -0.002195 ,  -0.820900
5  , -0.000018 ,  -0.006100
6  , -0.000351 ,  -0.131200
7  , 0.000000 ,  0.000000
8  , -0.000330 ,  -0.125100
9  , -0.000060 ,  -0.021300
10  , 0.000105 ,  0.039600
11  , -0.001515 ,  -0.570600
12  , -0.001297 ,  0.460800
13  , -0.000005 ,  0.003000
14  , 0.000248 ,  -0.088500
15  , -0.000003 ,  0.000000
16  , -0.001082 ,  0.390600
17  , -0.000006 ,  0.000000
18  , -0.000172 ,  0.061000
19  , -0.000009 ,  -0.003000
20  , 0.000430 ,  -0.155600
21  , -0.001659 ,  0.589000
22  , 0.001078 ,  -0.390600
23  , -0.000039 ,  0.015200
24  , 0.002051 ,  0.659100
25  , 0.000008 ,  -0.003000
26  , -0.000033 ,  -0.012200
27  , 0.000003 ,  -0.006100
28  , -0.001212 ,  -0.390600
29  , 0.000006 ,  0.000000
30  , 0.001868 ,  0.607300
31  , 0.000001 ,  0.006100
32  , 0.000079 ,  0.024400
33  , 0.001106 ,  0.360100
34  , 0.001456 ,  0.469900
35  , -0.000635 ,  -0.204400
