=====================================================
Calibration: card TYPE Wheel A
=====================================================
Calibration File Name: C:\LVPP_TESTS\data\card_029\LVPP_CALIB_029.csv

Calibration started: 22.03.2007 09:35:39

Calibration file stored
Calibration started: 22.03.2007 09:37:01

