=====================================================
Calibration: card TYPE Wheel A
=====================================================
Calibration File Name: C:\LVPP_TESTS\data\card_154\LVPP_CALIB_154.csv

Calibration started: 06.06.2007 10:06:50
ELMB serial number: F775
Calibration file stored
Calibration started: 06.06.2007 10:08:17

