Calibration done: 05.06.2007 15:40:55
F683
Current channel, calibration factor
0  , 0.000167 ,  0.061000
1  , 0.000007 ,  0.003000
2  , -0.002120 ,  -0.799500
3  , 0.000004 ,  0.003000
4  , -0.000363 ,  -0.137300
5  , 0.000003 ,  0.003000
6  , -0.000576 ,  -0.216600
7  , 0.000000 ,  0.000000
8  , -0.000504 ,  -0.189200
9  , -0.000361 ,  -0.134200
10  , -0.000428 ,  -0.158600
11  , 0.000467 ,  0.173900
12  , 0.000135 ,  -0.048800
13  , 0.000000 ,  0.000000
14  , 0.001119 ,  -0.396700
15  , -0.000003 ,  0.006100
16  , -0.000214 ,  0.076200
17  , -0.000003 ,  0.000000
18  , -0.000192 ,  0.067100
19  , -0.000008 ,  0.003000
20  , -0.000911 ,  0.323400
21  , 0.000270 ,  -0.097600
22  , 0.000626 ,  -0.225800
23  , 0.000909 ,  -0.326500
24  , 0.000897 ,  0.289900
25  , 0.000009 ,  0.003000
26  , -0.000096 ,  -0.030500
27  , 0.000006 ,  -0.009100
28  , 0.000036 ,  0.012200
29  , 0.000000 ,  0.000000
30  , 0.000231 ,  0.076200
31  , 0.000002 ,  0.000000
32  , 0.000094 ,  0.030500
33  , 0.001424 ,  0.460800
34  , -0.000217 ,  -0.070100
35  , -0.000609 ,  -0.195300
