Calibration done: 29.05.2007 11:29:05
F923
Current channel, calibration factor
0  , 0.000312 ,  0.119000
1  , -0.001113 ,  -0.424200
2  , -0.001093 ,  -0.411900
3  , -0.000802 ,  -0.302100
4  , -0.000406 ,  -0.152500
5  , 0.000590 ,  0.222700
6  , -0.000735 ,  -0.277700
7  , -0.000196 ,  -0.073200
8  , 0.001410 ,  0.531000
9  , -0.001348 ,  -0.509600
10  , 0.000072 ,  0.027400
11  , 0.000066 ,  0.024400
12  , -0.000805 ,  0.286800
13  , -0.000339 ,  0.122000
14  , -0.000454 ,  0.161700
15  , 0.000032 ,  -0.012200
16  , -0.000598 ,  0.213600
17  , -0.000463 ,  0.164700
18  , -0.000198 ,  0.070100
19  , 0.000485 ,  -0.177000
20  , 0.000494 ,  -0.177000
21  , -0.001179 ,  0.424200
22  , 0.000888 ,  -0.317300
23  , -0.000260 ,  0.091500
24  , -0.000197 ,  -0.064000
25  , 0.000672 ,  0.219700
26  , 0.000504 ,  0.164700
27  , -0.000617 ,  -0.201400
28  , 0.000536 ,  0.173900
29  , -0.000672 ,  -0.216600
30  , -0.001560 ,  -0.503500
31  , 0.001583 ,  0.512700
32  , 0.000407 ,  0.131200
33  , -0.000028 ,  -0.009100
34  , -0.000702 ,  -0.225800
35  , -0.000488 ,  -0.155600
