=====================================================
Calibration: card TYPE Wheel A
=====================================================
Calibration File Name: C:\LVPP_TESTS\data\card_068\LVPP_CALIB_068.csv

Calibration started: 29.05.2007 11:29:05
ELMB serial number: F923
Calibration file stored
Calibration started: 29.05.2007 11:30:32

