=====================================================
Calibration: card TYPE Wheel A
=====================================================
Calibration File Name: C:\LVPP_TESTS\data\card_120\LVPP_CALIB_120.csv

Calibration started: 22.05.2007 09:16:08
ELMB serial number: F838
Calibration file stored
Calibration started: 22.05.2007 09:17:35

