=====================================================
Calibration: card TYPE Wheel A
=====================================================
Calibration File Name: C:\LVPP_TESTS\data\card_194\LVPP_CALIB_194.csv

Calibration started: 06.06.2007 16:24:05
ELMB serial number: F632
Calibration file stored
Calibration started: 06.06.2007 16:25:32

